# MagicaVoxel @ Ephtracy

# group
o 

# material
mtllib Fire_destory.mtl
usemtl palette

# normals
vn -1 0 0
vn 1 0 0
vn 0 0 1
vn 0 0 -1
vn 0 -1 0
vn 0 1 0

# texcoords
vt 0.369141 0.5
vt 0.986328 0.5
vt 0.990234 0.5

# verts
v -8.3 0 8.3
v -8.3 0 -8.3
v -8.3 0.4 8.3
v -8.3 0.4 -8.3
v -8.3 0.6 8.3
v -8.3 0.6 -8.3
v -6.6 0.4 0.400001
v -6.6 0.4 -2.1
v -6.6 0.6 0.400001
v -6.6 0.6 -2.1
v -5 0.4 7.9
v -5 0.4 7.1
v -5 0.4 -7.1
v -5 0.4 -7.9
v -5 0.6 7.9
v -5 0.6 -7.9
v -3.7 0.4 6.6
v -3.7 0.4 5.8
v -3.7 0.4 3.7
v -3.7 0.4 3.3
v -3.7 0.4 0.400001
v -3.7 0.4 0
v -3.7 0.4 -2.5
v -3.7 0.4 -2.9
v -3.7 0.4 -5
v -3.7 0.4 -5.8
v -3.7 0.6 6.6
v -3.7 0.6 5.8
v -3.7 0.6 3.7
v -3.7 0.6 3.3
v -3.7 0.6 0.400001
v -3.7 0.6 0
v -3.7 0.6 -2.5
v -3.7 0.6 -2.9
v -3.7 0.6 -5
v -3.7 0.6 -5.8
v 4.6 0 -7.9
v 4.6 0 -8.3
v 4.6 0.4 8.3
v 4.6 0.4 -7.9
v 4.6 0.4 -8.3
v 4.6 0.6 8.3
v 4.6 0.6 -8.3
v 5.8 0.4 0.400001
v 5.8 0.4 -1.2
v 5.8 0.6 0.400001
v 5.8 0.6 -1.2
v 7.9 0.4 7.9
v 7.9 0.4 7.5
v 7.9 0.4 -7.1
v 7.9 0.4 -7.9
v 7.9 0.6 7.9
v 7.9 0.6 -7.9
v -7.9 0.4 7.9
v -7.9 0.4 7.5
v -7.9 0.4 -7.1
v -7.9 0.4 -7.9
v -7.9 0.6 7.9
v -7.9 0.6 -7.9
v -5.8 0.4 0.400001
v -5.8 0.4 -2.1
v -5.8 0.6 0.400001
v -5.8 0.6 -2.1
v -4.6 0 -7.9
v -4.6 0 -8.3
v -4.6 0.4 8.3
v -4.6 0.4 -7.9
v -4.6 0.6 8.3
v -4.6 0.6 -8.3
v 3.3 0.4 6.6
v 3.3 0.4 5.8
v 3.3 0.4 3.7
v 3.3 0.4 3.3
v 3.3 0.4 0.400001
v 3.3 0.4 0
v 3.3 0.4 -2.5
v 3.3 0.4 -2.9
v 3.3 0.4 -5
v 3.3 0.4 -5.8
v 3.3 0.6 6.6
v 3.3 0.6 5.8
v 3.3 0.6 3.7
v 3.3 0.6 3.3
v 3.3 0.6 0.400001
v 3.3 0.6 0
v 3.3 0.6 -2.5
v 3.3 0.6 -2.9
v 3.3 0.6 -5
v 3.3 0.6 -5.8
v 5 0.4 7.9
v 5 0.4 7.1
v 5 0.4 -7.1
v 5 0.4 -7.9
v 5 0.6 7.9
v 5 0.6 -7.9
v 6.6 0.4 0.400001
v 6.6 0.4 -0.4
v 6.6 0.4 -1.2
v 6.6 0.6 0.400001
v 6.6 0.6 -0.4
v 6.6 0.6 -1.2
v 8.3 0 8.3
v 8.3 0 7.9
v 8.3 0 7.5
v 8.3 0 -8.3
v 8.3 0.4 8.3
v 8.3 0.4 7.9
v 8.3 0.4 7.5
v 8.3 0.4 -8.3
v 8.3 0.6 8.3
v 8.3 0.6 -8.3
v -8.3 0 8.3
v -8.3 0.4 8.3
v -8.3 0.6 8.3
v -5 0 8.3
v -5 0.4 8.3
v -4.6 0 8.3
v -4.6 0.4 8.3
v -4.6 0.6 8.3
v 4.6 0 8.3
v 4.6 0.4 8.3
v 4.6 0.6 8.3
v 8.3 0 8.3
v 8.3 0.4 8.3
v 8.3 0.6 8.3
v -3.7 0.4 6.6
v -3.7 0.6 6.6
v 3.3 0.4 6.6
v 3.3 0.6 6.6
v -3.7 0.4 3.7
v -3.7 0.6 3.7
v 3.3 0.4 3.7
v 3.3 0.6 3.7
v -6.6 0.4 0.400001
v -6.6 0.6 0.400001
v -5.8 0.4 0.400001
v -5.8 0.6 0.400001
v -3.7 0.4 0.400001
v -3.7 0.6 0.400001
v 3.3 0.4 0.400001
v 3.3 0.6 0.400001
v 5.8 0.4 0.400001
v 5.8 0.6 0.400001
v 6.6 0.4 0.400001
v 6.6 0.6 0.400001
v -3.7 0.4 -2.5
v -3.7 0.6 -2.5
v 3.3 0.4 -2.5
v 3.3 0.6 -2.5
v -3.7 0.4 -5
v -3.7 0.6 -5
v 3.3 0.4 -5
v 3.3 0.6 -5
v -7.9 0.4 -7.9
v -7.9 0.6 -7.9
v -7.5 0.4 -7.9
v -5 0.4 -7.9
v -5 0.6 -7.9
v 5 0.4 -7.9
v 5 0.6 -7.9
v 7.5 0.4 -7.9
v 7.9 0.4 -7.9
v 7.9 0.6 -7.9
v -7.9 0.4 7.9
v -7.9 0.6 7.9
v -7.5 0.4 7.9
v -5 0.4 7.9
v -5 0.6 7.9
v 5 0.4 7.9
v 5 0.6 7.9
v 7.5 0.4 7.9
v 7.9 0.4 7.9
v 7.9 0.6 7.9
v -3.7 0.4 5.8
v -3.7 0.6 5.8
v 3.3 0.4 5.8
v 3.3 0.6 5.8
v -3.7 0.4 3.3
v -3.7 0.6 3.3
v 3.3 0.4 3.3
v 3.3 0.6 3.3
v -3.7 0.4 0
v -3.7 0.6 0
v 3.3 0.4 0
v 3.3 0.6 0
v 5.8 0.4 -1.2
v 5.8 0.6 -1.2
v 6.2 0.4 -1.2
v 6.2 0.6 -1.2
v 6.6 0.4 -1.2
v 6.6 0.6 -1.2
v -6.6 0.4 -2.1
v -6.6 0.6 -2.1
v -5.8 0.4 -2.1
v -5.8 0.6 -2.1
v -3.7 0.4 -2.9
v -3.7 0.6 -2.9
v 3.3 0.4 -2.9
v 3.3 0.6 -2.9
v -3.7 0.4 -5.8
v -3.7 0.6 -5.8
v 3.3 0.4 -5.8
v 3.3 0.6 -5.8
v -4.6 0 -7.9
v -4.6 0.4 -7.9
v 4.6 0 -7.9
v 4.6 0.4 -7.9
v -8.3 0 -8.3
v -8.3 0.4 -8.3
v -8.3 0.6 -8.3
v -5 0 -8.3
v -5 0.4 -8.3
v -4.6 0 -8.3
v -4.6 0.6 -8.3
v 4.6 0 -8.3
v 4.6 0.4 -8.3
v 4.6 0.6 -8.3
v 8.3 0 -8.3
v 8.3 0.4 -8.3
v 8.3 0.6 -8.3
v -8.3 0 8.3
v -5 0 8.3
v -4.6 0 8.3
v 4.6 0 8.3
v 8.3 0 8.3
v -7.5 0 7.9
v -5 0 7.9
v 5 0 7.9
v 7.5 0 7.9
v 7.9 0 7.9
v 8.3 0 7.9
v -7.9 0 7.5
v -7.5 0 7.5
v -6.2 0 7.5
v -5.4 0 7.5
v 5.4 0 7.5
v 6.2 0 7.5
v 7.5 0 7.5
v 7.9 0 7.5
v 8.3 0 7.5
v -7.5 0 7.1
v -7.1 0 7.1
v -6.6 0 7.1
v -6.2 0 7.1
v -5.4 0 7.1
v -5 0 7.1
v 5 0 7.1
v 5.4 0 7.1
v 6.2 0 7.1
v 6.6 0 7.1
v 7.1 0 7.1
v 7.5 0 7.1
v -7.1 0 6.6
v -6.6 0 6.6
v 6.6 0 6.6
v 7.1 0 6.6
v -7.1 0 -6.6
v -6.6 0 -6.6
v 6.6 0 -6.6
v 7.1 0 -6.6
v -7.9 0 -7.1
v -7.5 0 -7.1
v -7.1 0 -7.1
v -6.6 0 -7.1
v -6.2 0 -7.1
v -5.4 0 -7.1
v -5 0 -7.1
v 5 0 -7.1
v 5.4 0 -7.1
v 6.2 0 -7.1
v 6.6 0 -7.1
v 7.1 0 -7.1
v 7.5 0 -7.1
v 7.9 0 -7.1
v -6.2 0 -7.5
v -5.4 0 -7.5
v 5.4 0 -7.5
v 6.2 0 -7.5
v -7.5 0 -7.9
v -5 0 -7.9
v -4.6 0 -7.9
v 4.6 0 -7.9
v 5 0 -7.9
v 7.5 0 -7.9
v -8.3 0 -8.3
v -5 0 -8.3
v -4.6 0 -8.3
v 4.6 0 -8.3
v 8.3 0 -8.3
v -4.6 0.4 8.3
v 4.6 0.4 8.3
v -7.9 0.4 7.9
v -7.5 0.4 7.9
v -5 0.4 7.9
v 5 0.4 7.9
v 7.5 0.4 7.9
v 7.9 0.4 7.9
v -7.9 0.4 7.5
v -7.5 0.4 7.5
v -6.2 0.4 7.5
v -5.4 0.4 7.5
v 5.4 0.4 7.5
v 6.2 0.4 7.5
v 7.5 0.4 7.5
v 7.9 0.4 7.5
v -7.5 0.4 7.1
v -7.1 0.4 7.1
v -6.6 0.4 7.1
v -6.2 0.4 7.1
v -5.4 0.4 7.1
v -5 0.4 7.1
v 5 0.4 7.1
v 5.4 0.4 7.1
v 6.2 0.4 7.1
v 6.6 0.4 7.1
v 7.1 0.4 7.1
v 7.5 0.4 7.1
v -7.1 0.4 6.6
v -6.6 0.4 6.6
v -3.7 0.4 6.6
v 3.3 0.4 6.6
v 6.6 0.4 6.6
v 7.1 0.4 6.6
v -3.7 0.4 5.8
v 3.3 0.4 5.8
v -3.7 0.4 3.7
v 3.3 0.4 3.7
v -3.7 0.4 3.3
v 3.3 0.4 3.3
v -6.6 0.4 0.400001
v -5.8 0.4 0.400001
v -3.7 0.4 0.400001
v 3.3 0.4 0.400001
v 5.8 0.4 0.400001
v 6.6 0.4 0.400001
v -3.7 0.4 0
v 3.3 0.4 0
v 6.6 0.4 -0.4
v 5.8 0.4 -1.2
v 6.2 0.4 -1.2
v 6.6 0.4 -1.2
v -6.6 0.4 -2.1
v -5.8 0.4 -2.1
v -3.7 0.4 -2.5
v 3.3 0.4 -2.5
v -3.7 0.4 -2.9
v 3.3 0.4 -2.9
v -3.7 0.4 -5
v 3.3 0.4 -5
v -3.7 0.4 -5.8
v 3.3 0.4 -5.8
v -7.1 0.4 -6.6
v -6.6 0.4 -6.6
v 6.6 0.4 -6.6
v 7.1 0.4 -6.6
v -7.9 0.4 -7.1
v -7.5 0.4 -7.1
v -7.1 0.4 -7.1
v -6.6 0.4 -7.1
v -6.2 0.4 -7.1
v -5.4 0.4 -7.1
v -5 0.4 -7.1
v 5 0.4 -7.1
v 5.4 0.4 -7.1
v 6.2 0.4 -7.1
v 6.6 0.4 -7.1
v 7.1 0.4 -7.1
v 7.5 0.4 -7.1
v 7.9 0.4 -7.1
v -6.2 0.4 -7.5
v -5.4 0.4 -7.5
v 5.4 0.4 -7.5
v 6.2 0.4 -7.5
v -7.9 0.4 -7.9
v -7.5 0.4 -7.9
v -5 0.4 -7.9
v -4.6 0.4 -7.9
v 4.6 0.4 -7.9
v 5 0.4 -7.9
v 7.5 0.4 -7.9
v 7.9 0.4 -7.9
v -8.3 0.6 8.3
v -4.6 0.6 8.3
v 4.6 0.6 8.3
v 8.3 0.6 8.3
v -7.9 0.6 7.9
v -5 0.6 7.9
v 5 0.6 7.9
v 7.9 0.6 7.9
v -3.7 0.6 6.6
v 3.3 0.6 6.6
v -3.7 0.6 5.8
v 3.3 0.6 5.8
v -3.7 0.6 3.7
v 3.3 0.6 3.7
v -3.7 0.6 3.3
v 3.3 0.6 3.3
v -6.6 0.6 0.400001
v -5.8 0.6 0.400001
v -3.7 0.6 0.400001
v 3.3 0.6 0.400001
v 5.8 0.6 0.400001
v 6.6 0.6 0.400001
v -3.7 0.6 0
v 3.3 0.6 0
v 6.2 0.6 -0.4
v 6.6 0.6 -0.4
v 5.8 0.6 -1.2
v 6.2 0.6 -1.2
v 6.6 0.6 -1.2
v -6.6 0.6 -2.1
v -5.8 0.6 -2.1
v -3.7 0.6 -2.5
v 3.3 0.6 -2.5
v -3.7 0.6 -2.9
v 3.3 0.6 -2.9
v -3.7 0.6 -5
v 3.3 0.6 -5
v -3.7 0.6 -5.8
v 3.3 0.6 -5.8
v -7.9 0.6 -7.9
v -5 0.6 -7.9
v 5 0.6 -7.9
v 7.9 0.6 -7.9
v -8.3 0.6 -8.3
v -4.6 0.6 -8.3
v 4.6 0.6 -8.3
v 8.3 0.6 -8.3

# faces
f 3/3/1 2/3/1 1/3/1
f 4/3/1 2/3/1 3/3/1
f 5/2/1 4/2/1 3/2/1
f 6/2/1 4/2/1 5/2/1
f 9/2/1 8/2/1 7/2/1
f 10/2/1 8/2/1 9/2/1
f 15/2/1 12/2/1 11/2/1
f 15/2/1 14/2/1 13/2/1
f 15/2/1 13/2/1 12/2/1
f 16/2/1 14/2/1 15/2/1
f 27/1/1 18/1/1 17/1/1
f 28/1/1 18/1/1 27/1/1
f 29/1/1 20/1/1 19/1/1
f 30/1/1 20/1/1 29/1/1
f 31/1/1 22/1/1 21/1/1
f 32/1/1 22/1/1 31/1/1
f 33/1/1 24/1/1 23/1/1
f 34/1/1 24/1/1 33/1/1
f 35/1/1 26/1/1 25/1/1
f 36/1/1 26/1/1 35/1/1
f 40/3/1 38/3/1 37/3/1
f 41/3/1 38/3/1 40/3/1
f 42/2/1 40/2/1 39/2/1
f 42/2/1 41/2/1 40/2/1
f 43/2/1 41/2/1 42/2/1
f 46/2/1 45/2/1 44/2/1
f 47/2/1 45/2/1 46/2/1
f 52/2/1 49/2/1 48/2/1
f 52/2/1 51/2/1 50/2/1
f 52/2/1 50/2/1 49/2/1
f 53/2/1 51/2/1 52/2/1
f 54/2/2 55/2/2 58/2/2
f 56/2/2 57/2/2 58/2/2
f 55/2/2 56/2/2 58/2/2
f 58/2/2 57/2/2 59/2/2
f 60/2/2 61/2/2 62/2/2
f 62/2/2 61/2/2 63/2/2
f 64/2/2 65/2/2 67/2/2
f 66/2/2 67/2/2 68/2/2
f 67/2/2 65/2/2 69/2/2
f 68/2/2 67/2/2 69/2/2
f 70/1/2 71/1/2 80/1/2
f 80/1/2 71/1/2 81/1/2
f 72/1/2 73/1/2 82/1/2
f 82/1/2 73/1/2 83/1/2
f 74/1/2 75/1/2 84/1/2
f 84/1/2 75/1/2 85/1/2
f 76/1/2 77/1/2 86/1/2
f 86/1/2 77/1/2 87/1/2
f 78/1/2 79/1/2 88/1/2
f 88/1/2 79/1/2 89/1/2
f 90/2/2 91/2/2 94/2/2
f 92/2/2 93/2/2 94/2/2
f 91/2/2 92/2/2 94/2/2
f 94/2/2 93/2/2 95/2/2
f 96/2/2 97/2/2 99/2/2
f 97/3/2 98/3/2 100/3/2
f 99/2/2 97/2/2 100/2/2
f 100/3/2 98/3/2 101/3/2
f 102/3/2 103/3/2 106/3/2
f 103/2/2 104/2/2 107/2/2
f 106/3/2 103/3/2 107/3/2
f 104/3/2 105/3/2 108/3/2
f 107/2/2 104/2/2 108/2/2
f 108/3/2 105/3/2 109/3/2
f 106/2/2 107/2/2 110/2/2
f 107/2/2 108/2/2 110/2/2
f 108/2/2 109/2/2 110/2/2
f 110/2/2 109/2/2 111/2/2
f 115/3/3 113/3/3 112/3/3
f 116/2/3 114/2/3 113/2/3
f 116/3/3 113/3/3 115/3/3
f 117/2/3 116/2/3 115/2/3
f 118/2/3 114/2/3 116/2/3
f 118/2/3 116/2/3 117/2/3
f 119/2/3 114/2/3 118/2/3
f 120/1/3 118/1/3 117/1/3
f 121/1/3 118/1/3 120/1/3
f 123/3/3 121/3/3 120/3/3
f 124/2/3 122/2/3 121/2/3
f 124/3/3 121/3/3 123/3/3
f 125/2/3 122/2/3 124/2/3
f 128/1/3 127/1/3 126/1/3
f 129/1/3 127/1/3 128/1/3
f 132/1/3 131/1/3 130/1/3
f 133/1/3 131/1/3 132/1/3
f 136/2/3 135/2/3 134/2/3
f 137/2/3 135/2/3 136/2/3
f 140/1/3 139/1/3 138/1/3
f 141/1/3 139/1/3 140/1/3
f 144/2/3 143/2/3 142/2/3
f 145/2/3 143/2/3 144/2/3
f 148/1/3 147/1/3 146/1/3
f 149/1/3 147/1/3 148/1/3
f 152/1/3 151/1/3 150/1/3
f 153/1/3 151/1/3 152/1/3
f 156/2/3 155/2/3 154/2/3
f 157/2/3 155/2/3 156/2/3
f 158/2/3 155/2/3 157/2/3
f 161/2/3 160/2/3 159/2/3
f 162/2/3 160/2/3 161/2/3
f 163/2/3 160/2/3 162/2/3
f 164/2/4 165/2/4 166/2/4
f 166/2/4 165/2/4 167/2/4
f 167/2/4 165/2/4 168/2/4
f 169/2/4 170/2/4 171/2/4
f 171/2/4 170/2/4 172/2/4
f 172/2/4 170/2/4 173/2/4
f 174/1/4 175/1/4 176/1/4
f 176/1/4 175/1/4 177/1/4
f 178/1/4 179/1/4 180/1/4
f 180/1/4 179/1/4 181/1/4
f 182/1/4 183/1/4 184/1/4
f 184/1/4 183/1/4 185/1/4
f 186/2/4 187/2/4 188/2/4
f 188/2/4 187/2/4 189/2/4
f 188/3/4 189/3/4 190/3/4
f 190/3/4 189/3/4 191/3/4
f 192/2/4 193/2/4 194/2/4
f 194/2/4 193/2/4 195/2/4
f 196/1/4 197/1/4 198/1/4
f 198/1/4 197/1/4 199/1/4
f 200/1/4 201/1/4 202/1/4
f 202/1/4 201/1/4 203/1/4
f 204/1/4 205/1/4 206/1/4
f 206/1/4 205/1/4 207/1/4
f 208/3/4 209/3/4 211/3/4
f 209/2/4 210/2/4 212/2/4
f 211/3/4 209/3/4 212/3/4
f 211/2/4 212/2/4 213/2/4
f 212/2/4 210/2/4 214/2/4
f 213/2/4 212/2/4 214/2/4
f 215/3/4 216/3/4 218/3/4
f 216/2/4 217/2/4 219/2/4
f 218/3/4 216/3/4 219/3/4
f 219/2/4 217/2/4 220/2/4
f 226/3/5 222/3/5 221/3/5
f 227/2/5 223/2/5 222/2/5
f 227/3/5 222/3/5 226/3/5
f 228/3/5 225/3/5 224/3/5
f 229/3/5 225/3/5 228/3/5
f 230/3/5 225/3/5 229/3/5
f 231/3/5 225/3/5 230/3/5
f 232/3/5 226/3/5 221/3/5
f 233/2/5 227/2/5 226/2/5
f 233/3/5 226/3/5 232/3/5
f 234/2/5 227/2/5 233/2/5
f 235/2/5 227/2/5 234/2/5
f 236/2/5 229/2/5 228/2/5
f 237/2/5 229/2/5 236/2/5
f 238/3/5 230/3/5 229/3/5
f 238/2/5 229/2/5 237/2/5
f 239/2/5 231/2/5 230/2/5
f 239/3/5 230/3/5 238/3/5
f 240/2/5 231/2/5 239/2/5
f 241/2/5 233/2/5 232/2/5
f 241/2/5 234/2/5 233/2/5
f 242/2/5 234/2/5 241/2/5
f 243/2/5 234/2/5 242/2/5
f 244/3/5 235/3/5 234/3/5
f 244/2/5 234/2/5 243/2/5
f 245/2/5 227/2/5 235/2/5
f 245/3/5 235/3/5 244/3/5
f 246/2/5 223/2/5 227/2/5
f 246/2/5 227/2/5 245/2/5
f 247/3/5 228/3/5 224/3/5
f 247/2/5 236/2/5 228/2/5
f 248/3/5 237/3/5 236/3/5
f 248/2/5 236/2/5 247/2/5
f 249/2/5 238/2/5 237/2/5
f 249/3/5 237/3/5 248/3/5
f 249/2/5 239/2/5 238/2/5
f 250/2/5 239/2/5 249/2/5
f 251/2/5 239/2/5 250/2/5
f 252/2/5 239/2/5 251/2/5
f 253/2/5 243/2/5 242/2/5
f 253/3/5 242/3/5 241/3/5
f 254/3/5 245/3/5 244/3/5
f 254/2/5 243/2/5 253/2/5
f 254/3/5 244/3/5 243/3/5
f 254/3/5 246/3/5 245/3/5
f 255/2/5 251/2/5 250/2/5
f 255/3/5 248/3/5 247/3/5
f 255/3/5 250/3/5 249/3/5
f 255/3/5 249/3/5 248/3/5
f 256/3/5 252/3/5 251/3/5
f 256/2/5 251/2/5 255/2/5
f 257/3/5 253/3/5 241/3/5
f 257/3/5 254/3/5 253/3/5
f 258/3/5 246/3/5 254/3/5
f 258/3/5 254/3/5 257/3/5
f 259/3/5 256/3/5 255/3/5
f 259/3/5 255/3/5 247/3/5
f 260/3/5 252/3/5 256/3/5
f 260/3/5 256/3/5 259/3/5
f 261/3/5 232/3/5 221/3/5
f 261/2/5 241/2/5 232/2/5
f 262/3/5 257/3/5 241/3/5
f 262/2/5 241/2/5 261/2/5
f 263/2/5 258/2/5 257/2/5
f 263/3/5 257/3/5 262/3/5
f 264/3/5 246/3/5 258/3/5
f 264/2/5 258/2/5 263/2/5
f 265/3/5 246/3/5 264/3/5
f 266/3/5 246/3/5 265/3/5
f 267/2/5 223/2/5 246/2/5
f 267/3/5 246/3/5 266/3/5
f 268/3/5 259/3/5 247/3/5
f 268/3/5 247/3/5 224/3/5
f 269/3/5 259/3/5 268/3/5
f 270/3/5 259/3/5 269/3/5
f 271/2/5 260/2/5 259/2/5
f 271/3/5 259/3/5 270/3/5
f 272/3/5 252/3/5 260/3/5
f 272/2/5 260/2/5 271/2/5
f 273/2/5 239/2/5 252/2/5
f 273/3/5 252/3/5 272/3/5
f 274/3/5 240/3/5 239/3/5
f 274/2/5 239/2/5 273/2/5
f 275/3/5 266/3/5 265/3/5
f 275/2/5 263/2/5 262/2/5
f 275/2/5 264/2/5 263/2/5
f 275/2/5 265/2/5 264/2/5
f 276/2/5 267/2/5 266/2/5
f 276/3/5 266/3/5 275/3/5
f 277/3/5 270/3/5 269/3/5
f 277/2/5 269/2/5 268/2/5
f 278/2/5 271/2/5 270/2/5
f 278/3/5 270/3/5 277/3/5
f 278/2/5 273/2/5 272/2/5
f 278/2/5 272/2/5 271/2/5
f 279/2/5 275/2/5 262/2/5
f 279/2/5 276/2/5 275/2/5
f 279/3/5 262/3/5 261/3/5
f 280/2/5 223/2/5 267/2/5
f 280/2/5 276/2/5 279/2/5
f 280/2/5 267/2/5 276/2/5
f 281/1/5 224/1/5 223/1/5
f 281/2/5 223/2/5 280/2/5
f 282/3/5 268/3/5 224/3/5
f 282/1/5 224/1/5 281/1/5
f 283/2/5 277/2/5 268/2/5
f 283/3/5 268/3/5 282/3/5
f 283/2/5 278/2/5 277/2/5
f 284/2/5 273/2/5 278/2/5
f 284/2/5 278/2/5 283/2/5
f 284/3/5 274/3/5 273/3/5
f 285/3/5 279/3/5 261/3/5
f 285/3/5 280/3/5 279/3/5
f 285/3/5 261/3/5 221/3/5
f 286/2/5 281/2/5 280/2/5
f 286/3/5 280/3/5 285/3/5
f 287/2/5 281/2/5 286/2/5
f 288/3/5 284/3/5 283/3/5
f 288/3/5 283/3/5 282/3/5
f 289/3/5 274/3/5 284/3/5
f 289/3/5 284/3/5 288/3/5
f 289/3/5 240/3/5 274/3/5
f 292/3/6 293/3/6 298/3/6
f 293/2/6 294/2/6 299/2/6
f 298/3/6 293/3/6 299/3/6
f 299/2/6 294/2/6 300/2/6
f 300/2/6 294/2/6 301/2/6
f 295/2/6 296/2/6 302/2/6
f 302/2/6 296/2/6 303/2/6
f 296/3/6 297/3/6 304/3/6
f 303/2/6 296/2/6 304/2/6
f 304/3/6 297/3/6 305/3/6
f 298/2/6 299/2/6 306/2/6
f 299/2/6 300/2/6 306/2/6
f 306/2/6 300/2/6 307/2/6
f 307/2/6 300/2/6 308/2/6
f 300/3/6 301/3/6 309/3/6
f 308/2/6 300/2/6 309/2/6
f 301/2/6 294/2/6 310/2/6
f 309/3/6 301/3/6 310/3/6
f 310/2/6 294/2/6 311/2/6
f 295/2/6 302/2/6 312/2/6
f 302/3/6 303/3/6 313/3/6
f 312/2/6 302/2/6 313/2/6
f 304/2/6 305/2/6 314/2/6
f 313/3/6 303/3/6 314/3/6
f 303/2/6 304/2/6 314/2/6
f 314/2/6 305/2/6 315/2/6
f 315/2/6 305/2/6 316/2/6
f 316/2/6 305/2/6 317/2/6
f 307/2/6 308/2/6 318/2/6
f 306/3/6 307/3/6 318/3/6
f 308/3/6 309/3/6 319/3/6
f 318/2/6 308/2/6 319/2/6
f 310/3/6 311/3/6 319/3/6
f 309/3/6 310/3/6 319/3/6
f 290/1/6 291/1/6 320/1/6
f 320/1/6 291/1/6 321/1/6
f 312/3/6 313/3/6 322/3/6
f 315/2/6 316/2/6 322/2/6
f 314/3/6 315/3/6 322/3/6
f 313/3/6 314/3/6 322/3/6
f 316/3/6 317/3/6 323/3/6
f 322/2/6 316/2/6 323/2/6
f 290/1/6 320/1/6 324/1/6
f 321/1/6 291/1/6 325/1/6
f 290/1/6 324/1/6 326/1/6
f 324/1/6 325/1/6 326/1/6
f 325/1/6 291/1/6 327/1/6
f 326/1/6 325/1/6 327/1/6
f 290/1/6 326/1/6 328/1/6
f 327/1/6 291/1/6 329/1/6
f 319/3/6 311/3/6 330/3/6
f 318/3/6 319/3/6 330/3/6
f 330/3/6 311/3/6 331/3/6
f 328/1/6 329/1/6 332/1/6
f 290/1/6 328/1/6 332/1/6
f 329/1/6 291/1/6 333/1/6
f 332/1/6 329/1/6 333/1/6
f 322/3/6 323/3/6 334/3/6
f 312/3/6 322/3/6 334/3/6
f 334/3/6 323/3/6 335/3/6
f 290/1/6 332/1/6 336/1/6
f 333/1/6 291/1/6 337/1/6
f 335/3/6 323/3/6 338/3/6
f 312/3/6 334/3/6 339/3/6
f 338/3/6 323/3/6 341/3/6
f 318/3/6 330/3/6 342/3/6
f 331/3/6 311/3/6 343/3/6
f 336/1/6 337/1/6 344/1/6
f 290/1/6 336/1/6 344/1/6
f 337/1/6 291/1/6 345/1/6
f 344/1/6 337/1/6 345/1/6
f 290/1/6 344/1/6 346/1/6
f 345/1/6 291/1/6 347/1/6
f 290/1/6 346/1/6 348/1/6
f 346/1/6 347/1/6 348/1/6
f 347/1/6 291/1/6 349/1/6
f 348/1/6 347/1/6 349/1/6
f 290/1/6 348/1/6 350/1/6
f 349/1/6 291/1/6 351/1/6
f 318/3/6 342/3/6 352/3/6
f 306/3/6 318/3/6 352/3/6
f 342/3/6 343/3/6 352/3/6
f 352/3/6 343/3/6 353/3/6
f 339/3/6 340/3/6 354/3/6
f 340/3/6 341/3/6 354/3/6
f 341/3/6 323/3/6 354/3/6
f 323/3/6 317/3/6 355/3/6
f 354/3/6 323/3/6 355/3/6
f 298/2/6 306/2/6 356/2/6
f 306/3/6 352/3/6 357/3/6
f 356/2/6 306/2/6 357/2/6
f 352/2/6 353/2/6 358/2/6
f 357/3/6 352/3/6 358/3/6
f 353/3/6 343/3/6 359/3/6
f 358/2/6 353/2/6 359/2/6
f 359/3/6 343/3/6 360/3/6
f 343/3/6 311/3/6 361/3/6
f 360/3/6 343/3/6 361/3/6
f 361/3/6 311/3/6 362/3/6
f 339/3/6 354/3/6 363/3/6
f 312/3/6 339/3/6 363/3/6
f 363/3/6 354/3/6 364/3/6
f 364/3/6 354/3/6 365/3/6
f 354/2/6 355/2/6 366/2/6
f 365/3/6 354/3/6 366/3/6
f 355/3/6 317/3/6 367/3/6
f 366/2/6 355/2/6 367/2/6
f 317/2/6 305/2/6 368/2/6
f 367/3/6 317/3/6 368/3/6
f 368/2/6 305/2/6 369/2/6
f 359/2/6 360/2/6 370/2/6
f 357/2/6 358/2/6 370/2/6
f 360/3/6 361/3/6 370/3/6
f 358/2/6 359/2/6 370/2/6
f 361/2/6 362/2/6 371/2/6
f 370/3/6 361/3/6 371/3/6
f 364/3/6 365/3/6 372/3/6
f 363/2/6 364/2/6 372/2/6
f 366/2/6 367/2/6 373/2/6
f 372/3/6 365/3/6 373/3/6
f 365/2/6 366/2/6 373/2/6
f 367/2/6 368/2/6 373/2/6
f 356/3/6 357/3/6 374/3/6
f 357/2/6 370/2/6 375/2/6
f 374/3/6 357/3/6 375/3/6
f 370/2/6 371/2/6 375/2/6
f 371/2/6 362/2/6 376/2/6
f 375/2/6 371/2/6 376/2/6
f 350/1/6 351/1/6 377/1/6
f 290/1/6 350/1/6 377/1/6
f 351/1/6 291/1/6 378/1/6
f 377/1/6 351/1/6 378/1/6
f 363/2/6 372/2/6 379/2/6
f 372/2/6 373/2/6 379/2/6
f 368/3/6 369/3/6 380/3/6
f 379/2/6 373/2/6 380/2/6
f 373/2/6 368/2/6 380/2/6
f 380/3/6 369/3/6 381/3/6
f 382/2/6 383/2/6 386/2/6
f 386/2/6 383/2/6 387/2/6
f 384/2/6 385/2/6 388/2/6
f 388/2/6 385/2/6 389/2/6
f 390/1/6 391/1/6 392/1/6
f 392/1/6 391/1/6 393/1/6
f 394/1/6 395/1/6 396/1/6
f 396/1/6 395/1/6 397/1/6
f 400/1/6 401/1/6 404/1/6
f 404/1/6 401/1/6 405/1/6
f 402/2/6 403/2/6 406/2/6
f 406/2/6 403/2/6 407/2/6
f 402/2/6 406/2/6 408/2/6
f 406/3/6 407/3/6 409/3/6
f 408/2/6 406/2/6 409/2/6
f 409/3/6 407/3/6 410/3/6
f 398/2/6 399/2/6 411/2/6
f 411/2/6 399/2/6 412/2/6
f 413/1/6 414/1/6 415/1/6
f 415/1/6 414/1/6 416/1/6
f 417/1/6 418/1/6 419/1/6
f 419/1/6 418/1/6 420/1/6
f 382/2/6 386/2/6 421/2/6
f 387/2/6 383/2/6 422/2/6
f 384/2/6 388/2/6 423/2/6
f 389/2/6 385/2/6 424/2/6
f 382/2/6 421/2/6 425/2/6
f 421/2/6 422/2/6 425/2/6
f 422/2/6 383/2/6 426/2/6
f 425/2/6 422/2/6 426/2/6
f 423/2/6 424/2/6 427/2/6
f 384/2/6 423/2/6 427/2/6
f 424/2/6 385/2/6 428/2/6
f 427/2/6 424/2/6 428/2/6
