# MagicaVoxel @ Ephtracy

# group
o 

# material
mtllib wall_rl.mtl
usemtl palette

# normals
vn -1 0 0
vn 1 0 0
vn 0 0 1
vn 0 0 -1
vn 0 -1 0
vn 0 1 0

# texcoords
vt 0.369141 0.5
vt 0.373047 0.5

# verts
v -0.7 0 0.9
v -0.7 0 -6.4
v -0.7 0.1 6.4
v -0.7 0.1 0.9
v -0.7 4.3 6.4
v -0.7 4.3 6.3
v -0.7 4.4 6.3
v -0.7 4.4 -6.4
v -0.7 4.5 6.4
v -0.7 4.5 -6.4
v 0.9 0 0.9
v 0.9 0 -6.4
v 0.9 0.1 6.4
v 0.9 0.1 0.9
v 0.9 4.3 6.4
v 0.9 4.3 6.3
v 0.9 4.4 6.3
v 0.9 4.4 -6.4
v 0.9 4.5 6.4
v 0.9 4.5 -6.4
v -0.7 0.1 6.4
v -0.7 4.3 6.4
v -0.7 4.5 6.4
v -0.6 4.2 6.4
v -0.6 4.3 6.4
v -0.5 4.2 6.4
v -0.5 4.3 6.4
v 0.9 0.1 6.4
v 0.9 4.3 6.4
v 0.9 4.5 6.4
v -0.7 0 0.9
v -0.7 0.1 0.9
v 0.9 0 0.9
v 0.9 0.1 0.9
v -0.7 0 -6.4
v -0.7 4.4 -6.4
v -0.7 4.5 -6.4
v 0.9 0 -6.4
v 0.9 4.4 -6.4
v 0.9 4.5 -6.4
v -0.7 0 0.9
v 0.9 0 0.9
v -0.7 0 -6.4
v 0.9 0 -6.4
v -0.7 0.1 6.4
v 0.9 0.1 6.4
v -0.7 0.1 0.9
v 0.9 0.1 0.9
v -0.7 4.5 6.4
v 0.9 4.5 6.4
v -0.7 4.5 -6.4
v 0.9 4.5 -6.4

# faces
f 4/2/1 2/2/1 1/2/1
f 5/2/1 4/2/1 3/2/1
f 6/2/1 4/2/1 5/2/1
f 7/1/1 6/1/1 5/1/1
f 7/2/1 4/2/1 6/2/1
f 8/2/1 2/2/1 4/2/1
f 8/2/1 4/2/1 7/2/1
f 9/1/1 7/1/1 5/1/1
f 9/1/1 8/1/1 7/1/1
f 10/1/1 8/1/1 9/1/1
f 11/2/2 12/2/2 14/2/2
f 13/2/2 14/2/2 15/2/2
f 15/2/2 14/2/2 16/2/2
f 15/1/2 16/1/2 17/1/2
f 16/2/2 14/2/2 17/2/2
f 14/2/2 12/2/2 18/2/2
f 17/2/2 14/2/2 18/2/2
f 15/1/2 17/1/2 19/1/2
f 17/1/2 18/1/2 19/1/2
f 19/1/2 18/1/2 20/1/2
f 24/2/3 22/2/3 21/2/3
f 25/1/3 23/1/3 22/1/3
f 25/2/3 22/2/3 24/2/3
f 26/2/3 24/2/3 21/2/3
f 26/1/3 25/1/3 24/1/3
f 27/1/3 23/1/3 25/1/3
f 27/1/3 25/1/3 26/1/3
f 28/2/3 26/2/3 21/2/3
f 28/2/3 27/2/3 26/2/3
f 29/1/3 23/1/3 27/1/3
f 29/2/3 27/2/3 28/2/3
f 30/1/3 23/1/3 29/1/3
f 33/2/3 32/2/3 31/2/3
f 34/2/3 32/2/3 33/2/3
f 35/2/4 36/2/4 38/2/4
f 36/1/4 37/1/4 39/1/4
f 38/2/4 36/2/4 39/2/4
f 39/1/4 37/1/4 40/1/4
f 43/2/5 42/2/5 41/2/5
f 44/2/5 42/2/5 43/2/5
f 47/2/5 46/2/5 45/2/5
f 48/2/5 46/2/5 47/2/5
f 49/1/6 50/1/6 51/1/6
f 51/1/6 50/1/6 52/1/6
