# MagicaVoxel @ Ephtracy

# group
o 

# material
mtllib wall_tb.mtl
usemtl palette

# normals
vn -1 0 0
vn 1 0 0
vn 0 0 1
vn 0 0 -1
vn 0 -1 0
vn 0 1 0

# texcoords
vt 0.349609 0.5
vt 0.369141 0.5
vt 0.373047 0.5
vt 0.677734 0.5

# verts
v -3.2 0 0.8
v -3.2 0 -0.8
v -3.2 4.2 0.9
v -3.2 4.2 0.8
v -3.2 4.3 0.9
v -3.2 4.3 0.8
v -3.2 4.3 0.7
v -3.2 4.3 -0.8
v -3.2 4.3 -0.9
v -3.2 4.4 0.9
v -3.2 4.4 0.8
v -3.2 4.4 0.7
v -3.2 4.4 -0.8
v -3.2 4.4 -0.9
v -3.2 4.5 0.8
v -3.2 4.5 -0.8
v -3.1 2.1 0.9
v -3.1 2.1 0.8
v -3.1 2.3 0.9
v -3.1 2.3 0.8
v -3 3.5 0.9
v -3 3.5 0.8
v -3 3.8 0.9
v -3 3.8 0.8
v -2.9 0.3 -0.8
v -2.9 0.3 -0.9
v -2.9 0.5 -0.8
v -2.9 0.5 -0.9
v -2.7 3.6 -0.8
v -2.7 3.6 -0.9
v -2.7 3.8 -0.8
v -2.7 3.8 -0.9
v -2.6 0.6 -0.8
v -2.6 0.6 -0.9
v -2.6 0.8 -0.8
v -2.6 0.8 -0.9
v -2.5 0.6 0.9
v -2.5 0.6 0.8
v -2.5 0.8 0.9
v -2.5 0.8 0.8
v -2.4 3.8 0.9
v -2.4 3.8 0.8
v -2.4 4 0.9
v -2.4 4 0.8
v -2 2.2 -0.8
v -2 2.2 -0.9
v -2 2.4 -0.8
v -2 2.5 -0.8
v -2 2.5 -0.9
v -1.7 1.8 0.9
v -1.7 1.8 0.8
v -1.7 1.9 0.9
v -1.7 1.9 0.8
v -1.6 2.5 0.9
v -1.6 2.5 0.8
v -1.6 2.6 0.9
v -1.6 2.6 0.8
v -1.2 3.5 0.9
v -1.2 3.5 0.8
v -1.2 3.8 0.9
v -1.2 3.8 0.8
v -0.7 0.8 -0.8
v -0.7 0.8 -0.9
v -0.7 0.9 -0.8
v -0.7 1.3 -0.8
v -0.7 1.3 -0.9
v -0.4 2.4 0.9
v -0.4 2.4 0.8
v -0.4 2.6 0.9
v -0.4 2.6 0.8
v -0.3 2 -0.8
v -0.3 2 -0.9
v -0.3 2.2 -0.8
v -0.3 2.2 -0.9
v -0.3 3.6 -0.8
v -0.3 3.6 -0.9
v -0.3 3.8 -0.8
v -0.3 3.9 -0.8
v -0.3 3.9 -0.9
v 0 0.6 0.9
v 0 0.6 0.8
v 0 0.7 0.8
v 0 1.2 0.9
v 0 1.2 0.8
v 0 3.4 0.9
v 0 3.4 0.8
v 0 3.6 0.9
v 0 3.6 0.8
v 0.4 1.8 0.9
v 0.4 1.8 0.8
v 0.4 2 0.9
v 0.4 2 0.8
v 0.7 0.5 0.9
v 0.7 0.5 0.8
v 0.7 0.6 0.8
v 0.7 0.7 0.9
v 0.7 0.7 0.8
v 1.2 1.2 0.9
v 1.2 1.2 0.8
v 1.2 1.4 0.9
v 1.2 1.4 0.8
v 1.2 2.6 -0.8
v 1.2 2.6 -0.9
v 1.2 2.7 -0.8
v 1.2 2.9 -0.8
v 1.2 2.9 -0.9
v 1.2 3.9 0.9
v 1.2 3.9 0.8
v 1.2 4 0.9
v 1.2 4 0.8
v 1.3 2.3 0.9
v 1.3 2.3 0.8
v 1.3 2.4 0.9
v 1.3 2.4 0.8
v 1.3 2.9 0.9
v 1.3 2.9 0.8
v 1.3 3 0.9
v 1.3 3 0.8
v 1.5 2.1 0.9
v 1.5 2.1 0.8
v 1.5 2.3 0.9
v 1.5 2.3 0.8
v 1.9 3.6 -0.8
v 1.9 3.6 -0.9
v 1.9 3.8 -0.8
v 1.9 4 -0.8
v 1.9 4 -0.9
v 2.3 0.6 -0.8
v 2.3 0.6 -0.9
v 2.3 0.9 -0.8
v 2.3 0.9 -0.9
v 2.4 0.4 0.9
v 2.4 0.4 0.8
v 2.4 0.5 0.9
v 2.4 0.5 0.8
v 2.5 1.9 0.9
v 2.5 1.9 0.8
v 2.5 2 0.9
v 2.5 2 0.8
v 2.5 2.1 -0.8
v 2.5 2.1 -0.9
v 2.5 2.4 -0.8
v 2.5 2.4 -0.9
v 2.6 4 0.9
v 2.6 4 0.8
v 2.6 4.1 0.9
v 2.6 4.1 0.8
v 2.7 2.9 0.9
v 2.7 2.9 0.8
v 2.7 3.1 0.9
v 2.7 3.1 0.8
v -2.7 2.1 0.9
v -2.7 2.1 0.8
v -2.7 2.3 0.9
v -2.7 2.3 0.8
v -2.7 3.5 0.9
v -2.7 3.5 0.8
v -2.7 3.8 0.9
v -2.7 3.8 0.8
v -2.3 0.6 -0.8
v -2.3 0.6 -0.9
v -2.3 0.8 -0.8
v -2.3 0.8 -0.9
v -2.2 0.6 0.9
v -2.2 0.6 0.8
v -2.2 0.8 0.9
v -2.2 0.8 0.8
v -2.2 3.6 -0.8
v -2.2 3.6 -0.9
v -2.2 3.8 -0.8
v -2.2 3.8 -0.9
v -2.1 3.8 0.9
v -2.1 3.8 0.8
v -2.1 4 0.9
v -2.1 4 0.8
v -2 0.3 -0.8
v -2 0.3 -0.9
v -2 0.5 -0.8
v -2 0.5 -0.9
v -1.5 2.2 -0.8
v -1.5 2.2 -0.9
v -1.5 2.4 -0.8
v -1.5 2.5 -0.8
v -1.5 2.5 -0.9
v -1.3 1.8 0.9
v -1.3 1.8 0.8
v -1.3 1.9 0.9
v -1.3 1.9 0.8
v -1.3 2.5 0.9
v -1.3 2.5 0.8
v -1.3 2.6 0.9
v -1.3 2.6 0.8
v -0.9 3.5 0.9
v -0.9 3.5 0.8
v -0.9 3.8 0.9
v -0.9 3.8 0.8
v 0 2 -0.8
v 0 2 -0.9
v 0 2.2 -0.8
v 0 2.2 -0.9
v 0 3.6 -0.8
v 0 3.6 -0.9
v 0 3.8 -0.8
v 0 3.9 -0.8
v 0 3.9 -0.9
v 0.2 2.4 0.9
v 0.2 2.4 0.8
v 0.2 2.6 0.9
v 0.2 2.6 0.8
v 0.3 0.6 0.9
v 0.3 0.6 0.8
v 0.3 1.2 0.9
v 0.3 1.2 0.8
v 0.5 3.4 0.9
v 0.5 3.4 0.8
v 0.5 3.6 0.9
v 0.5 3.6 0.8
v 0.6 0.8 -0.8
v 0.6 0.8 -0.9
v 0.6 1.3 -0.8
v 0.6 1.3 -0.9
v 0.8 1.8 0.9
v 0.8 1.8 0.8
v 0.8 2 0.9
v 0.8 2 0.8
v 1 0.5 0.9
v 1 0.5 0.8
v 1 0.7 0.9
v 1 0.7 0.8
v 1.5 3.9 0.9
v 1.5 3.9 0.8
v 1.5 4 0.9
v 1.5 4 0.8
v 1.6 1.2 0.9
v 1.6 1.2 0.8
v 1.6 1.4 0.9
v 1.6 1.4 0.8
v 1.6 2.3 0.9
v 1.6 2.3 0.8
v 1.6 2.4 0.9
v 1.6 2.4 0.8
v 1.6 2.6 -0.8
v 1.6 2.6 -0.9
v 1.6 2.7 -0.8
v 1.6 2.9 -0.8
v 1.6 2.9 -0.9
v 1.9 2.1 0.9
v 1.9 2.1 0.8
v 1.9 2.3 0.9
v 1.9 2.3 0.8
v 1.9 2.9 0.9
v 1.9 2.9 0.8
v 1.9 3 0.9
v 1.9 3 0.8
v 2.8 0.4 0.9
v 2.8 0.4 0.8
v 2.8 0.5 0.9
v 2.8 0.5 0.8
v 2.8 2.1 -0.8
v 2.8 2.1 -0.9
v 2.8 2.4 -0.8
v 2.8 2.4 -0.9
v 2.9 0.6 -0.8
v 2.9 0.6 -0.9
v 2.9 0.9 -0.8
v 2.9 0.9 -0.9
v 2.9 1.9 0.9
v 2.9 1.9 0.8
v 2.9 2 0.9
v 2.9 2 0.8
v 3 3.6 -0.8
v 3 3.6 -0.9
v 3 4 0.9
v 3 4 0.8
v 3 4 -0.8
v 3 4 -0.9
v 3 4.1 0.9
v 3 4.1 0.8
v 3.1 2.9 0.9
v 3.1 2.9 0.8
v 3.1 3.1 0.9
v 3.1 3.1 0.8
v 3.2 0 0.8
v 3.2 0 -0.8
v 3.2 4.2 0.9
v 3.2 4.2 0.8
v 3.2 4.3 0.9
v 3.2 4.3 0.8
v 3.2 4.3 0.7
v 3.2 4.3 -0.8
v 3.2 4.3 -0.9
v 3.2 4.4 0.9
v 3.2 4.4 0.8
v 3.2 4.4 0.7
v 3.2 4.4 -0.8
v 3.2 4.4 -0.9
v 3.2 4.5 0.8
v 3.2 4.5 -0.8
v -3.2 4.2 0.9
v -3.2 4.3 0.9
v -3.2 4.4 0.9
v -3.1 2.1 0.9
v -3.1 2.3 0.9
v -3 3.5 0.9
v -3 3.8 0.9
v -2.7 2.1 0.9
v -2.7 2.3 0.9
v -2.7 3.5 0.9
v -2.7 3.8 0.9
v -2.5 0.6 0.9
v -2.5 0.8 0.9
v -2.4 3.8 0.9
v -2.4 4 0.9
v -2.2 0.6 0.9
v -2.2 0.8 0.9
v -2.1 3.8 0.9
v -2.1 4 0.9
v -1.7 1.8 0.9
v -1.7 1.9 0.9
v -1.6 2.5 0.9
v -1.6 2.6 0.9
v -1.3 1.8 0.9
v -1.3 1.9 0.9
v -1.3 2.5 0.9
v -1.3 2.6 0.9
v -1.2 3.5 0.9
v -1.2 3.8 0.9
v -0.9 3.5 0.9
v -0.9 3.8 0.9
v -0.4 2.4 0.9
v -0.4 2.6 0.9
v 0 0.6 0.9
v 0 1.2 0.9
v 0 3.4 0.9
v 0 3.6 0.9
v 0.2 2.4 0.9
v 0.2 2.6 0.9
v 0.3 0.6 0.9
v 0.3 1.2 0.9
v 0.4 1.8 0.9
v 0.4 2 0.9
v 0.5 3.4 0.9
v 0.5 3.6 0.9
v 0.7 0.5 0.9
v 0.7 0.7 0.9
v 0.8 1.8 0.9
v 0.8 2 0.9
v 1 0.5 0.9
v 1 0.7 0.9
v 1.2 1.2 0.9
v 1.2 1.4 0.9
v 1.2 3.9 0.9
v 1.2 4 0.9
v 1.3 2.3 0.9
v 1.3 2.4 0.9
v 1.3 2.9 0.9
v 1.3 3 0.9
v 1.5 2.1 0.9
v 1.5 2.3 0.9
v 1.5 3.9 0.9
v 1.5 4 0.9
v 1.6 1.2 0.9
v 1.6 1.4 0.9
v 1.6 2.3 0.9
v 1.6 2.4 0.9
v 1.9 2.1 0.9
v 1.9 2.3 0.9
v 1.9 2.9 0.9
v 1.9 3 0.9
v 2.4 0.4 0.9
v 2.4 0.5 0.9
v 2.5 1.9 0.9
v 2.5 2 0.9
v 2.6 4 0.9
v 2.6 4.1 0.9
v 2.7 2.9 0.9
v 2.7 3.1 0.9
v 2.8 0.4 0.9
v 2.8 0.5 0.9
v 2.9 1.9 0.9
v 2.9 2 0.9
v 3 4 0.9
v 3 4.1 0.9
v 3.1 2.9 0.9
v 3.1 3.1 0.9
v 3.2 4.2 0.9
v 3.2 4.3 0.9
v 3.2 4.4 0.9
v -3.2 0 0.8
v -3.2 4.2 0.8
v -3.2 4.4 0.8
v -3.2 4.5 0.8
v -3.1 2.1 0.8
v -3.1 2.3 0.8
v -3.1 2.5 0.8
v -3 3.4 0.8
v -3 3.5 0.8
v -3 3.8 0.8
v -2.7 0.6 0.8
v -2.7 1.1 0.8
v -2.7 2.1 0.8
v -2.7 2.3 0.8
v -2.7 2.5 0.8
v -2.7 3.4 0.8
v -2.7 3.5 0.8
v -2.7 3.8 0.8
v -2.5 0.6 0.8
v -2.5 0.8 0.8
v -2.4 3.7 0.8
v -2.4 3.8 0.8
v -2.4 4 0.8
v -2.2 0.6 0.8
v -2.2 0.8 0.8
v -2.2 1.1 0.8
v -2.1 3.8 0.8
v -2.1 4 0.8
v -2 2.5 0.8
v -2 2.8 0.8
v -1.9 1.6 0.8
v -1.9 1.9 0.8
v -1.9 3.7 0.8
v -1.9 4 0.8
v -1.7 1.8 0.8
v -1.7 1.9 0.8
v -1.6 0.3 0.8
v -1.6 0.6 0.8
v -1.6 2.5 0.8
v -1.6 2.6 0.8
v -1.5 1.6 0.8
v -1.5 1.8 0.8
v -1.3 1.8 0.8
v -1.3 1.9 0.8
v -1.3 2.5 0.8
v -1.3 2.6 0.8
v -1.3 2.8 0.8
v -1.3 3.2 0.8
v -1.3 3.8 0.8
v -1.2 3.5 0.8
v -1.2 3.8 0.8
v -1.1 1.1 0.8
v -1.1 1.5 0.8
v -0.9 0.3 0.8
v -0.9 0.6 0.8
v -0.9 1.1 0.8
v -0.9 1.5 0.8
v -0.9 3.2 0.8
v -0.9 3.5 0.8
v -0.9 3.8 0.8
v -0.4 2.4 0.8
v -0.4 2.6 0.8
v -0.4 2.7 0.8
v -0.0999999 0.7 0.8
v -0.0999999 1.2 0.8
v -0.0999999 3.6 0.8
v -0.0999999 3.7 0.8
v 0 0.6 0.8
v 0 0.7 0.8
v 0 1.2 0.8
v 0 3.4 0.8
v 0 3.6 0.8
v 0.2 2.4 0.8
v 0.2 2.6 0.8
v 0.2 2.7 0.8
v 0.3 0.6 0.8
v 0.3 1.2 0.8
v 0.4 1.8 0.8
v 0.4 2 0.8
v 0.5 3.4 0.8
v 0.5 3.6 0.8
v 0.5 3.7 0.8
v 0.6 0.3 0.8
v 0.6 0.6 0.8
v 0.6 1.7 0.8
v 0.6 1.8 0.8
v 0.6 2 0.8
v 0.6 2.1 0.8
v 0.7 0.5 0.8
v 0.7 0.6 0.8
v 0.7 0.7 0.8
v 0.8 1.8 0.8
v 0.8 2 0.8
v 1 0.3 0.8
v 1 0.5 0.8
v 1 0.7 0.8
v 1 1.7 0.8
v 1 2.1 0.8
v 1.1 1.1 0.8
v 1.1 1.4 0.8
v 1.2 1.2 0.8
v 1.2 1.4 0.8
v 1.2 3.9 0.8
v 1.2 4 0.8
v 1.3 2.3 0.8
v 1.3 2.4 0.8
v 1.3 2.9 0.8
v 1.3 3 0.8
v 1.4 3 0.8
v 1.4 3.2 0.8
v 1.5 1.1 0.8
v 1.5 1.2 0.8
v 1.5 2.1 0.8
v 1.5 2.3 0.8
v 1.5 3.9 0.8
v 1.5 4 0.8
v 1.6 1.2 0.8
v 1.6 1.4 0.8
v 1.6 2.3 0.8
v 1.6 2.4 0.8
v 1.9 2.1 0.8
v 1.9 2.3 0.8
v 1.9 2.9 0.8
v 1.9 3 0.8
v 1.9 3.2 0.8
v 2.2 0.4 0.8
v 2.2 0.7 0.8
v 2.4 0.4 0.8
v 2.4 0.5 0.8
v 2.4 1.9 0.8
v 2.4 2.2 0.8
v 2.5 1.9 0.8
v 2.5 2 0.8
v 2.6 3.9 0.8
v 2.6 4 0.8
v 2.6 4.1 0.8
v 2.7 0.5 0.8
v 2.7 0.7 0.8
v 2.7 2.9 0.8
v 2.7 3.1 0.8
v 2.8 0.4 0.8
v 2.8 0.5 0.8
v 2.9 1.9 0.8
v 2.9 2 0.8
v 2.9 2.2 0.8
v 2.9 3.9 0.8
v 2.9 4 0.8
v 3 4 0.8
v 3 4.1 0.8
v 3.1 2.9 0.8
v 3.1 3.1 0.8
v 3.2 0 0.8
v 3.2 4.2 0.8
v 3.2 4.4 0.8
v 3.2 4.5 0.8
v -3.2 0 -0.8
v -3.2 4.3 -0.8
v -3.2 4.4 -0.8
v -3.2 4.5 -0.8
v -3.1 0.1 -0.8
v -3.1 1 -0.8
v -2.9 0.3 -0.8
v -2.9 0.5 -0.8
v -2.9 3.4 -0.8
v -2.9 3.9 -0.8
v -2.7 3.6 -0.8
v -2.7 3.8 -0.8
v -2.6 0.6 -0.8
v -2.6 0.8 -0.8
v -2.6 3.4 -0.8
v -2.6 3.6 -0.8
v -2.6 3.8 -0.8
v -2.6 3.9 -0.8
v -2.3 0.1 -0.8
v -2.3 0.3 -0.8
v -2.3 0.5 -0.8
v -2.3 0.6 -0.8
v -2.3 0.8 -0.8
v -2.3 1 -0.8
v -2.3 1.9 -0.8
v -2.3 2.4 -0.8
v -2.2 3.6 -0.8
v -2.2 3.8 -0.8
v -2 0.3 -0.8
v -2 0.5 -0.8
v -2 2.2 -0.8
v -2 2.4 -0.8
v -2 2.5 -0.8
v -1.5 2.2 -0.8
v -1.5 2.4 -0.8
v -1.5 2.5 -0.8
v -1.4 1.9 -0.8
v -1.4 2.4 -0.8
v -0.9 0.9 -0.8
v -0.9 1.6 -0.8
v -0.7 0.8 -0.8
v -0.7 0.9 -0.8
v -0.7 1.3 -0.8
v -0.5 3.8 -0.8
v -0.5 4.1 -0.8
v -0.3 2 -0.8
v -0.3 2.2 -0.8
v -0.3 3.6 -0.8
v -0.3 3.8 -0.8
v -0.3 3.9 -0.8
v -0.2 2.2 -0.8
v -0.2 2.4 -0.8
v 0 2 -0.8
v 0 2.2 -0.8
v 0 3.6 -0.8
v 0 3.8 -0.8
v 0 3.9 -0.8
v 0.1 1.3 -0.8
v 0.1 1.6 -0.8
v 0.2 3.8 -0.8
v 0.2 4.1 -0.8
v 0.5 2 -0.8
v 0.5 2.4 -0.8
v 0.6 0.8 -0.8
v 0.6 1.3 -0.8
v 0.9 2.7 -0.8
v 0.9 2.9 -0.8
v 1.2 2.6 -0.8
v 1.2 2.7 -0.8
v 1.2 2.9 -0.8
v 1.6 2.6 -0.8
v 1.6 2.7 -0.8
v 1.6 2.9 -0.8
v 1.7 3.4 -0.8
v 1.7 3.8 -0.8
v 1.8 2.7 -0.8
v 1.8 2.9 -0.8
v 1.9 3.6 -0.8
v 1.9 3.8 -0.8
v 1.9 4 -0.8
v 2.2 0.5 -0.8
v 2.2 1.1 -0.8
v 2.2 2 -0.8
v 2.2 2.4 -0.8
v 2.3 0.6 -0.8
v 2.3 0.9 -0.8
v 2.5 2.1 -0.8
v 2.5 2.4 -0.8
v 2.7 0.5 -0.8
v 2.7 0.6 -0.8
v 2.7 0.9 -0.8
v 2.7 1.1 -0.8
v 2.7 2 -0.8
v 2.7 2.1 -0.8
v 2.8 2.1 -0.8
v 2.8 2.4 -0.8
v 2.9 0.6 -0.8
v 2.9 0.9 -0.8
v 3 3.4 -0.8
v 3 3.6 -0.8
v 3 4 -0.8
v 3.2 0 -0.8
v 3.2 4.3 -0.8
v 3.2 4.4 -0.8
v 3.2 4.5 -0.8
v -3.2 4.3 -0.9
v -3.2 4.4 -0.9
v -2.9 0.3 -0.9
v -2.9 0.5 -0.9
v -2.7 3.6 -0.9
v -2.7 3.8 -0.9
v -2.6 0.6 -0.9
v -2.6 0.8 -0.9
v -2.3 0.6 -0.9
v -2.3 0.8 -0.9
v -2.2 3.6 -0.9
v -2.2 3.8 -0.9
v -2 0.3 -0.9
v -2 0.5 -0.9
v -2 2.2 -0.9
v -2 2.5 -0.9
v -1.5 2.2 -0.9
v -1.5 2.5 -0.9
v -0.7 0.8 -0.9
v -0.7 1.3 -0.9
v -0.3 2 -0.9
v -0.3 2.2 -0.9
v -0.3 3.6 -0.9
v -0.3 3.9 -0.9
v 0 2 -0.9
v 0 2.2 -0.9
v 0 3.6 -0.9
v 0 3.9 -0.9
v 0.6 0.8 -0.9
v 0.6 1.3 -0.9
v 1.2 2.6 -0.9
v 1.2 2.9 -0.9
v 1.6 2.6 -0.9
v 1.6 2.9 -0.9
v 1.9 3.6 -0.9
v 1.9 4 -0.9
v 2.3 0.6 -0.9
v 2.3 0.9 -0.9
v 2.5 2.1 -0.9
v 2.5 2.4 -0.9
v 2.8 2.1 -0.9
v 2.8 2.4 -0.9
v 2.9 0.6 -0.9
v 2.9 0.9 -0.9
v 3 3.6 -0.9
v 3 4 -0.9
v 3.2 4.3 -0.9
v 3.2 4.4 -0.9
v -3.2 0 0.8
v 3.2 0 0.8
v -3.2 0 -0.8
v 3.2 0 -0.8
v -2.9 0.3 -0.8
v -2.3 0.3 -0.8
v -2 0.3 -0.8
v -2.9 0.3 -0.9
v -2 0.3 -0.9
v 2.4 0.4 0.9
v 2.8 0.4 0.9
v 2.4 0.4 0.8
v 2.8 0.4 0.8
v 0.7 0.5 0.9
v 1 0.5 0.9
v 0.7 0.5 0.8
v 1 0.5 0.8
v -2.5 0.6 0.9
v -2.2 0.6 0.9
v 0 0.6 0.9
v 0.3 0.6 0.9
v -2.5 0.6 0.8
v -2.2 0.6 0.8
v 0 0.6 0.8
v 0.3 0.6 0.8
v -2.6 0.6 -0.8
v -2.3 0.6 -0.8
v 2.3 0.6 -0.8
v 2.7 0.6 -0.8
v 2.9 0.6 -0.8
v -2.6 0.6 -0.9
v -2.3 0.6 -0.9
v 2.3 0.6 -0.9
v 2.9 0.6 -0.9
v -0.7 0.8 -0.8
v 0.6 0.8 -0.8
v -0.7 0.8 -0.9
v 0.6 0.8 -0.9
v 1.2 1.2 0.9
v 1.6 1.2 0.9
v 1.2 1.2 0.8
v 1.5 1.2 0.8
v 1.6 1.2 0.8
v -1.7 1.8 0.9
v -1.3 1.8 0.9
v 0.4 1.8 0.9
v 0.8 1.8 0.9
v -1.7 1.8 0.8
v -1.5 1.8 0.8
v -1.3 1.8 0.8
v 0.4 1.8 0.8
v 0.6 1.8 0.8
v 0.8 1.8 0.8
v 2.5 1.9 0.9
v 2.9 1.9 0.9
v 2.5 1.9 0.8
v 2.9 1.9 0.8
v -0.3 2 -0.8
v 0 2 -0.8
v -0.3 2 -0.9
v 0 2 -0.9
v -3.1 2.1 0.9
v -2.7 2.1 0.9
v 1.5 2.1 0.9
v 1.9 2.1 0.9
v -3.1 2.1 0.8
v -2.7 2.1 0.8
v 1.5 2.1 0.8
v 1.9 2.1 0.8
v 2.5 2.1 -0.8
v 2.7 2.1 -0.8
v 2.8 2.1 -0.8
v 2.5 2.1 -0.9
v 2.8 2.1 -0.9
v -2 2.2 -0.8
v -1.5 2.2 -0.8
v -2 2.2 -0.9
v -1.5 2.2 -0.9
v 1.3 2.3 0.9
v 1.5 2.3 0.9
v 1.3 2.3 0.8
v 1.5 2.3 0.8
v -0.4 2.4 0.9
v 0.2 2.4 0.9
v -0.4 2.4 0.8
v 0.2 2.4 0.8
v -1.6 2.5 0.9
v -1.3 2.5 0.9
v -1.6 2.5 0.8
v -1.3 2.5 0.8
v 1.2 2.6 -0.8
v 1.6 2.6 -0.8
v 1.2 2.6 -0.9
v 1.6 2.6 -0.9
v 1.3 2.9 0.9
v 1.9 2.9 0.9
v 2.7 2.9 0.9
v 3.1 2.9 0.9
v 1.3 2.9 0.8
v 1.9 2.9 0.8
v 2.7 2.9 0.8
v 3.1 2.9 0.8
v 0 3.4 0.9
v 0.5 3.4 0.9
v 0 3.4 0.8
v 0.5 3.4 0.8
v -3 3.5 0.9
v -2.7 3.5 0.9
v -1.2 3.5 0.9
v -0.9 3.5 0.9
v -3 3.5 0.8
v -2.7 3.5 0.8
v -1.2 3.5 0.8
v -0.9 3.5 0.8
v -2.7 3.6 -0.8
v -2.6 3.6 -0.8
v -2.2 3.6 -0.8
v -0.3 3.6 -0.8
v 0 3.6 -0.8
v 1.9 3.6 -0.8
v 3 3.6 -0.8
v -2.7 3.6 -0.9
v -2.2 3.6 -0.9
v -0.3 3.6 -0.9
v 0 3.6 -0.9
v 1.9 3.6 -0.9
v 3 3.6 -0.9
v -2.4 3.8 0.9
v -2.1 3.8 0.9
v -2.4 3.8 0.8
v -2.1 3.8 0.8
v 1.2 3.9 0.9
v 1.5 3.9 0.9
v 1.2 3.9 0.8
v 1.5 3.9 0.8
v 2.6 4 0.9
v 3 4 0.9
v 2.6 4 0.8
v 2.9 4 0.8
v 3 4 0.8
v -3.2 4.2 0.9
v 3.2 4.2 0.9
v -3.2 4.2 0.8
v 3.2 4.2 0.8
v -3.2 4.3 -0.8
v 3.2 4.3 -0.8
v -3.2 4.3 -0.9
v 3.2 4.3 -0.9
v 2.4 0.5 0.9
v 2.8 0.5 0.9
v 2.4 0.5 0.8
v 2.7 0.5 0.8
v 2.8 0.5 0.8
v -2.9 0.5 -0.8
v -2.3 0.5 -0.8
v -2 0.5 -0.8
v -2.9 0.5 -0.9
v -2 0.5 -0.9
v 0.7 0.7 0.9
v 1 0.7 0.9
v 0.7 0.7 0.8
v 1 0.7 0.8
v -2.5 0.8 0.9
v -2.2 0.8 0.9
v -2.5 0.8 0.8
v -2.2 0.8 0.8
v -2.6 0.8 -0.8
v -2.3 0.8 -0.8
v -2.6 0.8 -0.9
v -2.3 0.8 -0.9
v 2.3 0.9 -0.8
v 2.7 0.9 -0.8
v 2.9 0.9 -0.8
v 2.3 0.9 -0.9
v 2.9 0.9 -0.9
v 0 1.2 0.9
v 0.3 1.2 0.9
v 0 1.2 0.8
v 0.3 1.2 0.8
v -0.7 1.3 -0.8
v 0.1 1.3 -0.8
v 0.6 1.3 -0.8
v -0.7 1.3 -0.9
v 0.6 1.3 -0.9
v 1.2 1.4 0.9
v 1.6 1.4 0.9
v 1.2 1.4 0.8
v 1.6 1.4 0.8
v -1.7 1.9 0.9
v -1.3 1.9 0.9
v -1.7 1.9 0.8
v -1.3 1.9 0.8
v 0.4 2 0.9
v 0.8 2 0.9
v 2.5 2 0.9
v 2.9 2 0.9
v 0.4 2 0.8
v 0.6 2 0.8
v 0.8 2 0.8
v 2.5 2 0.8
v 2.9 2 0.8
v -0.3 2.2 -0.8
v -0.2 2.2 -0.8
v 0 2.2 -0.8
v -0.3 2.2 -0.9
v 0 2.2 -0.9
v -3.1 2.3 0.9
v -2.7 2.3 0.9
v 1.6 2.3 0.9
v 1.9 2.3 0.9
v -3.1 2.3 0.8
v -2.7 2.3 0.8
v 1.6 2.3 0.8
v 1.9 2.3 0.8
v 1.3 2.4 0.9
v 1.6 2.4 0.9
v 1.3 2.4 0.8
v 1.6 2.4 0.8
v 2.5 2.4 -0.8
v 2.8 2.4 -0.8
v 2.5 2.4 -0.9
v 2.8 2.4 -0.9
v -2 2.5 -0.8
v -1.5 2.5 -0.8
v -2 2.5 -0.9
v -1.5 2.5 -0.9
v -1.6 2.6 0.9
v -1.3 2.6 0.9
v -0.4 2.6 0.9
v 0.2 2.6 0.9
v -1.6 2.6 0.8
v -1.3 2.6 0.8
v -0.4 2.6 0.8
v 0.2 2.6 0.8
v 1.2 2.9 -0.8
v 1.6 2.9 -0.8
v 1.2 2.9 -0.9
v 1.6 2.9 -0.9
v 1.3 3 0.9
v 1.9 3 0.9
v 1.3 3 0.8
v 1.4 3 0.8
v 1.9 3 0.8
v 2.7 3.1 0.9
v 3.1 3.1 0.9
v 2.7 3.1 0.8
v 3.1 3.1 0.8
v 0 3.6 0.9
v 0.5 3.6 0.9
v 0 3.6 0.8
v 0.5 3.6 0.8
v -3 3.8 0.9
v -2.7 3.8 0.9
v -1.2 3.8 0.9
v -0.9 3.8 0.9
v -3 3.8 0.8
v -2.7 3.8 0.8
v -1.2 3.8 0.8
v -0.9 3.8 0.8
v -2.7 3.8 -0.8
v -2.6 3.8 -0.8
v -2.2 3.8 -0.8
v -2.7 3.8 -0.9
v -2.2 3.8 -0.9
v -0.3 3.9 -0.8
v 0 3.9 -0.8
v -0.3 3.9 -0.9
v 0 3.9 -0.9
v -2.4 4 0.9
v -2.1 4 0.9
v 1.2 4 0.9
v 1.5 4 0.9
v -2.4 4 0.8
v -2.1 4 0.8
v 1.2 4 0.8
v 1.5 4 0.8
v 1.9 4 -0.8
v 3 4 -0.8
v 1.9 4 -0.9
v 3 4 -0.9
v 2.6 4.1 0.9
v 3 4.1 0.9
v 2.6 4.1 0.8
v 3 4.1 0.8
v -3.2 4.4 0.9
v 3.2 4.4 0.9
v -3.2 4.4 0.8
v 3.2 4.4 0.8
v -3.2 4.4 -0.8
v 3.2 4.4 -0.8
v -3.2 4.4 -0.9
v 3.2 4.4 -0.9
v -3.2 4.5 0.8
v 3.2 4.5 0.8
v -3.2 4.5 -0.8
v 3.2 4.5 -0.8

# faces
f 4/3/1 2/3/1 1/3/1
f 5/2/1 4/2/1 3/2/1
f 6/3/1 2/3/1 4/3/1
f 6/2/1 4/2/1 5/2/1
f 7/3/1 2/3/1 6/3/1
f 8/3/1 2/3/1 7/3/1
f 10/4/1 6/4/1 5/4/1
f 11/1/1 7/1/1 6/1/1
f 11/4/1 6/4/1 10/4/1
f 12/3/1 8/3/1 7/3/1
f 12/1/1 7/1/1 11/1/1
f 13/4/1 9/4/1 8/4/1
f 13/3/1 8/3/1 12/3/1
f 14/4/1 9/4/1 13/4/1
f 15/2/1 12/2/1 11/2/1
f 15/2/1 13/2/1 12/2/1
f 16/2/1 13/2/1 15/2/1
f 19/2/1 18/2/1 17/2/1
f 20/2/1 18/2/1 19/2/1
f 23/2/1 22/2/1 21/2/1
f 24/2/1 22/2/1 23/2/1
f 27/2/1 26/2/1 25/2/1
f 28/2/1 26/2/1 27/2/1
f 31/2/1 30/2/1 29/2/1
f 32/2/1 30/2/1 31/2/1
f 35/2/1 34/2/1 33/2/1
f 36/2/1 34/2/1 35/2/1
f 39/2/1 38/2/1 37/2/1
f 40/2/1 38/2/1 39/2/1
f 43/2/1 42/2/1 41/2/1
f 44/2/1 42/2/1 43/2/1
f 47/2/1 46/2/1 45/2/1
f 48/2/1 46/2/1 47/2/1
f 49/2/1 46/2/1 48/2/1
f 52/2/1 51/2/1 50/2/1
f 53/2/1 51/2/1 52/2/1
f 56/2/1 55/2/1 54/2/1
f 57/2/1 55/2/1 56/2/1
f 60/2/1 59/2/1 58/2/1
f 61/2/1 59/2/1 60/2/1
f 64/2/1 63/2/1 62/2/1
f 65/2/1 63/2/1 64/2/1
f 66/2/1 63/2/1 65/2/1
f 69/2/1 68/2/1 67/2/1
f 70/2/1 68/2/1 69/2/1
f 73/2/1 72/2/1 71/2/1
f 74/2/1 72/2/1 73/2/1
f 77/2/1 76/2/1 75/2/1
f 78/2/1 76/2/1 77/2/1
f 79/2/1 76/2/1 78/2/1
f 82/2/1 81/2/1 80/2/1
f 83/2/1 82/2/1 80/2/1
f 84/2/1 82/2/1 83/2/1
f 87/2/1 86/2/1 85/2/1
f 88/2/1 86/2/1 87/2/1
f 91/2/1 90/2/1 89/2/1
f 92/2/1 90/2/1 91/2/1
f 95/2/1 94/2/1 93/2/1
f 96/2/1 95/2/1 93/2/1
f 97/2/1 95/2/1 96/2/1
f 100/2/1 99/2/1 98/2/1
f 101/2/1 99/2/1 100/2/1
f 104/2/1 103/2/1 102/2/1
f 105/2/1 103/2/1 104/2/1
f 106/2/1 103/2/1 105/2/1
f 109/2/1 108/2/1 107/2/1
f 110/2/1 108/2/1 109/2/1
f 113/2/1 112/2/1 111/2/1
f 114/2/1 112/2/1 113/2/1
f 117/2/1 116/2/1 115/2/1
f 118/2/1 116/2/1 117/2/1
f 121/2/1 120/2/1 119/2/1
f 122/2/1 120/2/1 121/2/1
f 125/2/1 124/2/1 123/2/1
f 126/2/1 124/2/1 125/2/1
f 127/2/1 124/2/1 126/2/1
f 130/2/1 129/2/1 128/2/1
f 131/2/1 129/2/1 130/2/1
f 134/2/1 133/2/1 132/2/1
f 135/2/1 133/2/1 134/2/1
f 138/2/1 137/2/1 136/2/1
f 139/2/1 137/2/1 138/2/1
f 142/2/1 141/2/1 140/2/1
f 143/2/1 141/2/1 142/2/1
f 146/2/1 145/2/1 144/2/1
f 147/2/1 145/2/1 146/2/1
f 150/2/1 149/2/1 148/2/1
f 151/2/1 149/2/1 150/2/1
f 152/2/2 153/2/2 154/2/2
f 154/2/2 153/2/2 155/2/2
f 156/2/2 157/2/2 158/2/2
f 158/2/2 157/2/2 159/2/2
f 160/2/2 161/2/2 162/2/2
f 162/2/2 161/2/2 163/2/2
f 164/2/2 165/2/2 166/2/2
f 166/2/2 165/2/2 167/2/2
f 168/2/2 169/2/2 170/2/2
f 170/2/2 169/2/2 171/2/2
f 172/2/2 173/2/2 174/2/2
f 174/2/2 173/2/2 175/2/2
f 176/2/2 177/2/2 178/2/2
f 178/2/2 177/2/2 179/2/2
f 180/2/2 181/2/2 182/2/2
f 182/2/2 181/2/2 183/2/2
f 183/2/2 181/2/2 184/2/2
f 185/2/2 186/2/2 187/2/2
f 187/2/2 186/2/2 188/2/2
f 189/2/2 190/2/2 191/2/2
f 191/2/2 190/2/2 192/2/2
f 193/2/2 194/2/2 195/2/2
f 195/2/2 194/2/2 196/2/2
f 197/2/2 198/2/2 199/2/2
f 199/2/2 198/2/2 200/2/2
f 201/2/2 202/2/2 203/2/2
f 203/2/2 202/2/2 204/2/2
f 204/2/2 202/2/2 205/2/2
f 206/2/2 207/2/2 208/2/2
f 208/2/2 207/2/2 209/2/2
f 210/2/2 211/2/2 212/2/2
f 212/2/2 211/2/2 213/2/2
f 214/2/2 215/2/2 216/2/2
f 216/2/2 215/2/2 217/2/2
f 218/2/2 219/2/2 220/2/2
f 220/2/2 219/2/2 221/2/2
f 222/2/2 223/2/2 224/2/2
f 224/2/2 223/2/2 225/2/2
f 226/2/2 227/2/2 228/2/2
f 228/2/2 227/2/2 229/2/2
f 230/2/2 231/2/2 232/2/2
f 232/2/2 231/2/2 233/2/2
f 234/2/2 235/2/2 236/2/2
f 236/2/2 235/2/2 237/2/2
f 238/2/2 239/2/2 240/2/2
f 240/2/2 239/2/2 241/2/2
f 242/2/2 243/2/2 244/2/2
f 244/2/2 243/2/2 245/2/2
f 245/2/2 243/2/2 246/2/2
f 247/2/2 248/2/2 249/2/2
f 249/2/2 248/2/2 250/2/2
f 251/2/2 252/2/2 253/2/2
f 253/2/2 252/2/2 254/2/2
f 255/2/2 256/2/2 257/2/2
f 257/2/2 256/2/2 258/2/2
f 259/2/2 260/2/2 261/2/2
f 261/2/2 260/2/2 262/2/2
f 263/2/2 264/2/2 265/2/2
f 265/2/2 264/2/2 266/2/2
f 267/2/2 268/2/2 269/2/2
f 269/2/2 268/2/2 270/2/2
f 271/2/2 272/2/2 275/2/2
f 275/2/2 272/2/2 276/2/2
f 273/2/2 274/2/2 277/2/2
f 277/2/2 274/2/2 278/2/2
f 279/2/2 280/2/2 281/2/2
f 281/2/2 280/2/2 282/2/2
f 283/3/2 284/3/2 286/3/2
f 285/2/2 286/2/2 287/2/2
f 286/3/2 284/3/2 288/3/2
f 287/2/2 286/2/2 288/2/2
f 288/3/2 284/3/2 289/3/2
f 289/3/2 284/3/2 290/3/2
f 287/4/2 288/4/2 292/4/2
f 288/1/2 289/1/2 293/1/2
f 292/4/2 288/4/2 293/4/2
f 289/3/2 290/3/2 294/3/2
f 293/1/2 289/1/2 294/1/2
f 290/4/2 291/4/2 295/4/2
f 294/3/2 290/3/2 295/3/2
f 295/4/2 291/4/2 296/4/2
f 293/2/2 294/2/2 297/2/2
f 294/2/2 295/2/2 297/2/2
f 297/2/2 295/2/2 298/2/2
f 306/2/3 303/2/3 302/2/3
f 307/2/3 303/2/3 306/2/3
f 308/2/3 305/2/3 304/2/3
f 309/2/3 305/2/3 308/2/3
f 314/2/3 311/2/3 310/2/3
f 315/2/3 311/2/3 314/2/3
f 316/2/3 313/2/3 312/2/3
f 317/2/3 313/2/3 316/2/3
f 322/2/3 319/2/3 318/2/3
f 323/2/3 319/2/3 322/2/3
f 324/2/3 321/2/3 320/2/3
f 325/2/3 321/2/3 324/2/3
f 328/2/3 327/2/3 326/2/3
f 329/2/3 327/2/3 328/2/3
f 336/2/3 331/2/3 330/2/3
f 337/2/3 331/2/3 336/2/3
f 338/2/3 333/2/3 332/2/3
f 339/2/3 333/2/3 338/2/3
f 342/2/3 335/2/3 334/2/3
f 343/2/3 335/2/3 342/2/3
f 346/2/3 341/2/3 340/2/3
f 347/2/3 341/2/3 346/2/3
f 348/2/3 345/2/3 344/2/3
f 349/2/3 345/2/3 348/2/3
f 359/2/3 355/2/3 354/2/3
f 360/2/3 353/2/3 352/2/3
f 361/2/3 353/2/3 360/2/3
f 362/2/3 351/2/3 350/2/3
f 363/2/3 351/2/3 362/2/3
f 364/2/3 359/2/3 358/2/3
f 364/2/3 355/2/3 359/2/3
f 365/2/3 355/2/3 364/2/3
f 366/2/3 364/2/3 358/2/3
f 367/2/3 364/2/3 366/2/3
f 368/2/3 357/2/3 356/2/3
f 369/2/3 357/2/3 368/2/3
f 378/2/3 371/2/3 370/2/3
f 379/2/3 371/2/3 378/2/3
f 380/2/3 373/2/3 372/2/3
f 381/2/3 373/2/3 380/2/3
f 382/2/3 375/2/3 374/2/3
f 383/2/3 375/2/3 382/2/3
f 384/2/3 377/2/3 376/2/3
f 385/2/3 377/2/3 384/2/3
f 386/2/3 300/2/3 299/2/3
f 387/4/3 301/4/3 300/4/3
f 387/2/3 300/2/3 386/2/3
f 388/4/3 301/4/3 387/4/3
f 393/3/3 390/3/3 389/3/3
f 394/3/3 390/3/3 393/3/3
f 395/3/3 390/3/3 394/3/3
f 396/3/3 390/3/3 395/3/3
f 397/3/3 390/3/3 396/3/3
f 398/3/3 390/3/3 397/3/3
f 399/3/3 393/3/3 389/3/3
f 400/3/3 393/3/3 399/3/3
f 401/3/3 393/3/3 400/3/3
f 402/2/3 395/2/3 394/2/3
f 403/3/3 396/3/3 395/3/3
f 403/2/3 395/2/3 402/2/3
f 404/2/3 397/2/3 396/2/3
f 404/3/3 396/3/3 403/3/3
f 405/2/3 397/2/3 404/2/3
f 406/3/3 390/3/3 398/3/3
f 407/3/3 399/3/3 389/3/3
f 407/2/3 400/2/3 399/2/3
f 408/2/3 400/2/3 407/2/3
f 409/3/3 405/3/3 404/3/3
f 409/3/3 401/3/3 400/3/3
f 409/3/3 402/3/3 401/3/3
f 409/3/3 403/3/3 402/3/3
f 409/3/3 404/3/3 403/3/3
f 409/3/3 406/3/3 405/3/3
f 410/3/3 390/3/3 406/3/3
f 410/3/3 406/3/3 409/3/3
f 411/3/3 390/3/3 410/3/3
f 412/3/3 407/3/3 389/3/3
f 413/2/3 400/2/3 408/2/3
f 414/3/3 409/3/3 400/3/3
f 414/2/3 400/2/3 413/2/3
f 415/2/3 410/2/3 409/2/3
f 416/3/3 390/3/3 411/3/3
f 417/3/3 413/3/3 412/3/3
f 417/3/3 409/3/3 414/3/3
f 417/3/3 414/3/3 413/3/3
f 418/3/3 409/3/3 417/3/3
f 419/3/3 417/3/3 412/3/3
f 420/3/3 417/3/3 419/3/3
f 421/2/3 415/2/3 409/2/3
f 421/2/3 416/2/3 415/2/3
f 421/3/3 409/3/3 418/3/3
f 422/3/3 390/3/3 416/3/3
f 422/2/3 416/2/3 421/2/3
f 423/2/3 420/2/3 419/2/3
f 424/3/3 417/3/3 420/3/3
f 424/2/3 420/2/3 423/2/3
f 425/3/3 412/3/3 389/3/3
f 425/3/3 419/3/3 412/3/3
f 426/3/3 419/3/3 425/3/3
f 427/3/3 417/3/3 424/3/3
f 427/2/3 418/2/3 417/2/3
f 428/2/3 418/2/3 427/2/3
f 429/3/3 419/3/3 426/3/3
f 429/2/3 423/2/3 419/2/3
f 430/2/3 423/2/3 429/2/3
f 431/3/3 430/3/3 429/3/3
f 432/3/3 427/3/3 424/3/3
f 433/3/3 427/3/3 432/3/3
f 434/2/3 418/2/3 428/2/3
f 435/3/3 421/3/3 418/3/3
f 435/3/3 422/3/3 421/3/3
f 435/2/3 418/2/3 434/2/3
f 436/3/3 422/3/3 435/3/3
f 437/3/3 422/3/3 436/3/3
f 438/2/3 437/2/3 436/2/3
f 439/3/3 422/3/3 437/3/3
f 439/2/3 437/2/3 438/2/3
f 440/3/3 433/3/3 432/3/3
f 440/3/3 431/3/3 429/3/3
f 440/3/3 434/3/3 433/3/3
f 440/3/3 436/3/3 435/3/3
f 440/3/3 435/3/3 434/3/3
f 440/3/3 432/3/3 431/3/3
f 440/3/3 429/3/3 426/3/3
f 441/3/3 436/3/3 440/3/3
f 442/2/3 426/2/3 425/2/3
f 442/3/3 425/3/3 389/3/3
f 443/3/3 440/3/3 426/3/3
f 443/2/3 426/2/3 442/2/3
f 444/2/3 441/2/3 440/2/3
f 444/3/3 440/3/3 443/3/3
f 445/3/3 436/3/3 441/3/3
f 445/2/3 441/2/3 444/2/3
f 446/2/3 438/2/3 436/2/3
f 446/3/3 436/3/3 445/3/3
f 447/2/3 438/2/3 446/2/3
f 448/3/3 422/3/3 439/3/3
f 449/3/3 447/3/3 446/3/3
f 449/3/3 448/3/3 447/3/3
f 449/3/3 445/3/3 444/3/3
f 449/3/3 444/3/3 443/3/3
f 449/3/3 446/3/3 445/3/3
f 449/3/3 443/3/3 442/3/3
f 450/3/3 448/3/3 449/3/3
f 451/3/3 448/3/3 450/3/3
f 452/3/3 449/3/3 442/3/3
f 453/3/3 449/3/3 452/3/3
f 454/3/3 448/3/3 451/3/3
f 455/3/3 448/3/3 454/3/3
f 456/3/3 452/3/3 442/3/3
f 457/2/3 453/2/3 452/2/3
f 457/3/3 452/3/3 456/3/3
f 458/3/3 449/3/3 453/3/3
f 458/2/3 453/2/3 457/2/3
f 459/3/3 454/3/3 451/3/3
f 460/2/3 455/2/3 454/2/3
f 460/3/3 454/3/3 459/3/3
f 461/3/3 449/3/3 458/3/3
f 462/2/3 451/2/3 450/2/3
f 463/3/3 459/3/3 451/3/3
f 463/2/3 451/2/3 462/2/3
f 464/3/3 456/3/3 442/3/3
f 465/3/3 461/3/3 458/3/3
f 465/3/3 462/3/3 461/3/3
f 465/3/3 463/3/3 462/3/3
f 466/3/3 463/3/3 465/3/3
f 466/3/3 465/3/3 464/3/3
f 467/3/3 463/3/3 466/3/3
f 468/3/3 459/3/3 463/3/3
f 468/3/3 463/3/3 467/3/3
f 469/2/3 455/2/3 460/2/3
f 470/3/3 448/3/3 455/3/3
f 470/2/3 455/2/3 469/2/3
f 471/3/3 442/3/3 389/3/3
f 471/3/3 464/3/3 442/3/3
f 471/3/3 466/3/3 464/3/3
f 472/3/3 466/3/3 471/3/3
f 473/3/3 466/3/3 472/3/3
f 474/3/3 466/3/3 473/3/3
f 475/3/3 468/3/3 467/3/3
f 475/3/3 470/3/3 469/3/3
f 475/3/3 469/3/3 468/3/3
f 476/3/3 470/3/3 475/3/3
f 477/2/3 472/2/3 471/2/3
f 478/3/3 473/3/3 472/3/3
f 478/2/3 472/2/3 477/2/3
f 479/3/3 473/3/3 478/3/3
f 480/2/3 474/2/3 473/2/3
f 481/2/3 476/2/3 475/2/3
f 482/2/3 477/2/3 471/2/3
f 482/3/3 471/3/3 389/3/3
f 483/2/3 477/2/3 482/2/3
f 484/3/3 473/3/3 479/3/3
f 485/2/3 481/2/3 480/2/3
f 485/2/3 480/2/3 473/2/3
f 485/3/3 473/3/3 484/3/3
f 486/3/3 470/3/3 476/3/3
f 486/2/3 481/2/3 485/2/3
f 486/2/3 476/2/3 481/2/3
f 487/3/3 483/3/3 482/3/3
f 487/3/3 484/3/3 483/3/3
f 487/3/3 486/3/3 485/3/3
f 487/3/3 485/3/3 484/3/3
f 488/3/3 486/3/3 487/3/3
f 489/2/3 488/2/3 487/2/3
f 490/3/3 486/3/3 488/3/3
f 490/2/3 488/2/3 489/2/3
f 491/3/3 422/3/3 448/3/3
f 491/3/3 486/3/3 490/3/3
f 491/3/3 448/3/3 470/3/3
f 491/3/3 470/3/3 486/3/3
f 492/3/3 390/3/3 422/3/3
f 492/3/3 422/3/3 491/3/3
f 493/3/3 491/3/3 490/3/3
f 494/3/3 491/3/3 493/3/3
f 495/3/3 491/3/3 494/3/3
f 496/3/3 491/3/3 495/3/3
f 497/3/3 491/3/3 496/3/3
f 498/3/3 491/3/3 497/3/3
f 499/2/3 489/2/3 487/2/3
f 499/3/3 487/3/3 482/3/3
f 500/2/3 489/2/3 499/2/3
f 501/3/3 493/3/3 490/3/3
f 502/3/3 493/3/3 501/3/3
f 503/3/3 491/3/3 498/3/3
f 504/3/3 390/3/3 492/3/3
f 505/3/3 500/3/3 499/3/3
f 506/3/3 501/3/3 490/3/3
f 508/3/3 495/3/3 494/3/3
f 509/3/3 506/3/3 505/3/3
f 509/3/3 501/3/3 506/3/3
f 510/3/3 508/3/3 507/3/3
f 511/3/3 495/3/3 508/3/3
f 511/3/3 508/3/3 510/3/3
f 512/2/3 498/2/3 497/2/3
f 513/3/3 503/3/3 498/3/3
f 513/3/3 504/3/3 503/3/3
f 513/2/3 498/2/3 512/2/3
f 514/3/3 512/3/3 511/3/3
f 514/3/3 511/3/3 510/3/3
f 514/3/3 513/3/3 512/3/3
f 514/3/3 509/3/3 505/3/3
f 514/3/3 499/3/3 482/3/3
f 514/3/3 510/3/3 509/3/3
f 514/3/3 505/3/3 499/3/3
f 515/3/3 513/3/3 514/3/3
f 516/3/3 514/3/3 482/3/3
f 516/2/3 515/2/3 514/2/3
f 517/2/3 515/2/3 516/2/3
f 518/3/3 513/3/3 515/3/3
f 519/3/3 513/3/3 518/3/3
f 520/3/3 518/3/3 515/3/3
f 520/2/3 519/2/3 518/2/3
f 521/2/3 519/2/3 520/2/3
f 522/3/3 504/3/3 513/3/3
f 522/3/3 513/3/3 519/3/3
f 523/3/3 390/3/3 504/3/3
f 523/3/3 504/3/3 522/3/3
f 524/3/3 390/3/3 523/3/3
f 525/2/3 515/2/3 517/2/3
f 526/3/3 520/3/3 515/3/3
f 526/2/3 515/2/3 525/2/3
f 527/3/3 522/3/3 519/3/3
f 528/3/3 522/3/3 527/3/3
f 529/3/3 516/3/3 482/3/3
f 530/3/3 526/3/3 525/3/3
f 531/3/3 520/3/3 526/3/3
f 531/3/3 530/3/3 529/3/3
f 531/3/3 526/3/3 530/3/3
f 532/2/3 519/2/3 521/2/3
f 533/3/3 527/3/3 519/3/3
f 533/2/3 519/2/3 532/2/3
f 534/3/3 522/3/3 528/3/3
f 534/2/3 523/2/3 522/2/3
f 535/2/3 523/2/3 534/2/3
f 536/3/3 535/3/3 534/3/3
f 537/3/3 390/3/3 524/3/3
f 538/3/3 527/3/3 533/3/3
f 538/3/3 533/3/3 532/3/3
f 538/3/3 532/3/3 531/3/3
f 539/3/3 536/3/3 534/3/3
f 539/3/3 537/3/3 536/3/3
f 539/3/3 534/3/3 528/3/3
f 540/3/3 531/3/3 529/3/3
f 540/3/3 539/3/3 538/3/3
f 540/3/3 482/3/3 389/3/3
f 540/3/3 538/3/3 531/3/3
f 540/3/3 529/3/3 482/3/3
f 541/3/3 537/3/3 539/3/3
f 541/3/3 539/3/3 540/3/3
f 541/3/3 390/3/3 537/3/3
f 542/2/3 392/2/3 391/2/3
f 543/2/3 392/2/3 542/2/3
f 544/3/4 545/3/4 548/3/4
f 548/3/4 545/3/4 549/3/4
f 548/2/4 549/2/4 550/2/4
f 550/2/4 549/2/4 551/2/4
f 549/3/4 545/3/4 552/3/4
f 552/3/4 545/3/4 553/3/4
f 552/2/4 553/2/4 554/2/4
f 554/2/4 553/2/4 555/2/4
f 551/2/4 549/2/4 556/2/4
f 556/2/4 549/2/4 557/2/4
f 549/3/4 552/3/4 558/3/4
f 552/2/4 554/2/4 558/2/4
f 558/2/4 554/2/4 559/2/4
f 555/2/4 553/2/4 560/2/4
f 553/3/4 545/3/4 561/3/4
f 560/2/4 553/2/4 561/2/4
f 544/3/4 548/3/4 562/3/4
f 548/2/4 550/2/4 562/2/4
f 562/2/4 550/2/4 563/2/4
f 551/2/4 556/2/4 564/2/4
f 564/2/4 556/2/4 565/2/4
f 557/2/4 549/2/4 566/2/4
f 558/3/4 559/3/4 567/3/4
f 549/3/4 558/3/4 567/3/4
f 566/2/4 549/2/4 567/2/4
f 567/3/4 559/3/4 568/3/4
f 568/3/4 559/3/4 569/3/4
f 569/3/4 559/3/4 570/3/4
f 560/3/4 561/3/4 571/3/4
f 562/3/4 563/3/4 572/3/4
f 565/3/4 566/3/4 573/3/4
f 564/3/4 565/3/4 573/3/4
f 566/3/4 567/3/4 573/3/4
f 567/3/4 568/3/4 573/3/4
f 568/2/4 569/2/4 574/2/4
f 569/3/4 570/3/4 575/3/4
f 574/2/4 569/2/4 575/2/4
f 570/3/4 571/3/4 575/3/4
f 575/3/4 571/3/4 576/3/4
f 568/2/4 574/2/4 577/2/4
f 576/3/4 571/3/4 579/3/4
f 577/2/4 578/2/4 580/2/4
f 573/3/4 568/3/4 580/3/4
f 572/3/4 573/3/4 580/3/4
f 568/2/4 577/2/4 580/2/4
f 578/3/4 579/3/4 581/3/4
f 580/2/4 578/2/4 581/2/4
f 572/3/4 580/3/4 582/3/4
f 580/3/4 581/3/4 582/3/4
f 582/3/4 581/3/4 583/3/4
f 572/3/4 582/3/4 584/3/4
f 582/2/4 583/2/4 585/2/4
f 584/3/4 582/3/4 585/3/4
f 585/2/4 583/2/4 586/2/4
f 581/3/4 579/3/4 587/3/4
f 571/3/4 561/3/4 587/3/4
f 579/3/4 571/3/4 587/3/4
f 583/3/4 581/3/4 587/3/4
f 561/3/4 545/3/4 588/3/4
f 587/3/4 561/3/4 588/3/4
f 583/3/4 587/3/4 589/3/4
f 589/3/4 587/3/4 590/3/4
f 590/3/4 587/3/4 591/3/4
f 587/2/4 588/2/4 592/2/4
f 591/3/4 587/3/4 592/3/4
f 592/2/4 588/2/4 593/2/4
f 590/3/4 591/3/4 594/3/4
f 594/3/4 591/3/4 595/3/4
f 583/3/4 589/3/4 596/3/4
f 594/2/4 595/2/4 597/2/4
f 595/3/4 591/3/4 598/3/4
f 593/2/4 588/2/4 600/2/4
f 586/2/4 583/2/4 601/2/4
f 583/3/4 596/3/4 602/3/4
f 601/2/4 583/2/4 602/2/4
f 599/2/4 600/2/4 603/2/4
f 598/3/4 599/3/4 603/3/4
f 588/3/4 545/3/4 604/3/4
f 603/2/4 600/2/4 604/2/4
f 600/2/4 588/2/4 604/2/4
f 602/3/4 596/3/4 605/3/4
f 601/3/4 602/3/4 605/3/4
f 596/2/4 597/2/4 605/2/4
f 598/3/4 603/3/4 606/3/4
f 605/2/4 597/2/4 606/2/4
f 603/3/4 604/3/4 606/3/4
f 595/3/4 598/3/4 606/3/4
f 597/2/4 595/2/4 606/2/4
f 572/3/4 584/3/4 607/3/4
f 601/3/4 605/3/4 608/3/4
f 605/3/4 606/3/4 608/3/4
f 606/3/4 604/3/4 609/3/4
f 607/3/4 608/3/4 609/3/4
f 608/3/4 606/3/4 609/3/4
f 609/3/4 604/3/4 610/3/4
f 607/3/4 609/3/4 611/3/4
f 609/2/4 610/2/4 612/2/4
f 611/3/4 609/3/4 612/3/4
f 610/3/4 604/3/4 613/3/4
f 612/2/4 610/2/4 613/2/4
f 607/3/4 611/3/4 614/3/4
f 613/3/4 604/3/4 616/3/4
f 616/3/4 604/3/4 617/3/4
f 617/3/4 604/3/4 618/3/4
f 614/3/4 615/3/4 619/3/4
f 615/2/4 616/2/4 619/2/4
f 616/3/4 617/3/4 620/3/4
f 619/2/4 616/2/4 620/2/4
f 617/2/4 618/2/4 621/2/4
f 618/3/4 604/3/4 622/3/4
f 621/2/4 618/2/4 622/2/4
f 622/3/4 604/3/4 623/3/4
f 572/3/4 607/3/4 624/3/4
f 607/3/4 614/3/4 624/3/4
f 619/3/4 620/3/4 624/3/4
f 614/3/4 619/3/4 624/3/4
f 624/3/4 620/3/4 625/3/4
f 625/3/4 620/3/4 626/3/4
f 626/3/4 620/3/4 627/3/4
f 624/2/4 625/2/4 628/2/4
f 628/2/4 625/2/4 629/2/4
f 626/2/4 627/2/4 630/2/4
f 627/3/4 620/3/4 631/3/4
f 630/2/4 627/2/4 631/2/4
f 572/3/4 624/3/4 632/3/4
f 624/2/4 628/2/4 632/2/4
f 632/2/4 628/2/4 633/2/4
f 629/2/4 625/2/4 634/2/4
f 625/3/4 626/3/4 635/3/4
f 634/2/4 625/2/4 635/2/4
f 626/2/4 630/2/4 636/2/4
f 635/3/4 626/3/4 636/3/4
f 636/2/4 630/2/4 637/2/4
f 634/3/4 635/3/4 638/3/4
f 635/3/4 636/3/4 638/3/4
f 636/3/4 637/3/4 638/3/4
f 631/3/4 620/3/4 639/3/4
f 632/3/4 633/3/4 640/3/4
f 634/3/4 638/3/4 641/3/4
f 638/3/4 639/3/4 641/3/4
f 617/2/4 621/2/4 642/2/4
f 640/3/4 641/3/4 642/3/4
f 641/3/4 639/3/4 642/3/4
f 620/3/4 617/3/4 642/3/4
f 639/3/4 620/3/4 642/3/4
f 642/2/4 621/2/4 643/2/4
f 623/3/4 604/3/4 644/3/4
f 642/3/4 643/3/4 645/3/4
f 643/3/4 644/3/4 645/3/4
f 562/3/4 572/3/4 645/3/4
f 544/3/4 562/3/4 645/3/4
f 640/3/4 642/3/4 645/3/4
f 632/3/4 640/3/4 645/3/4
f 572/3/4 632/3/4 645/3/4
f 644/3/4 604/3/4 646/3/4
f 645/3/4 644/3/4 646/3/4
f 604/3/4 545/3/4 646/3/4
f 546/2/4 547/2/4 647/2/4
f 647/2/4 547/2/4 648/2/4
f 655/2/4 656/2/4 657/2/4
f 657/2/4 656/2/4 658/2/4
f 653/2/4 654/2/4 659/2/4
f 659/2/4 654/2/4 660/2/4
f 651/2/4 652/2/4 661/2/4
f 661/2/4 652/2/4 662/2/4
f 663/2/4 664/2/4 665/2/4
f 665/2/4 664/2/4 666/2/4
f 669/2/4 670/2/4 673/2/4
f 673/2/4 670/2/4 674/2/4
f 671/2/4 672/2/4 675/2/4
f 675/2/4 672/2/4 676/2/4
f 667/2/4 668/2/4 677/2/4
f 677/2/4 668/2/4 678/2/4
f 679/2/4 680/2/4 681/2/4
f 681/2/4 680/2/4 682/2/4
f 687/2/4 688/2/4 689/2/4
f 689/2/4 688/2/4 690/2/4
f 685/2/4 686/2/4 691/2/4
f 691/2/4 686/2/4 692/2/4
f 683/2/4 684/2/4 693/2/4
f 693/2/4 684/2/4 694/2/4
f 649/4/4 650/4/4 695/4/4
f 695/4/4 650/4/4 696/4/4
f 699/3/5 698/3/5 697/3/5
f 700/3/5 698/3/5 699/3/5
f 704/2/5 702/2/5 701/2/5
f 704/2/5 703/2/5 702/2/5
f 705/2/5 703/2/5 704/2/5
f 708/2/5 707/2/5 706/2/5
f 709/2/5 707/2/5 708/2/5
f 712/2/5 711/2/5 710/2/5
f 713/2/5 711/2/5 712/2/5
f 718/2/5 715/2/5 714/2/5
f 719/2/5 715/2/5 718/2/5
f 720/2/5 717/2/5 716/2/5
f 721/2/5 717/2/5 720/2/5
f 727/2/5 723/2/5 722/2/5
f 728/2/5 723/2/5 727/2/5
f 729/2/5 726/2/5 725/2/5
f 729/2/5 725/2/5 724/2/5
f 730/2/5 726/2/5 729/2/5
f 733/2/5 732/2/5 731/2/5
f 734/2/5 732/2/5 733/2/5
f 737/2/5 736/2/5 735/2/5
f 738/2/5 736/2/5 737/2/5
f 739/2/5 736/2/5 738/2/5
f 744/2/5 741/2/5 740/2/5
f 745/2/5 741/2/5 744/2/5
f 746/2/5 741/2/5 745/2/5
f 747/2/5 743/2/5 742/2/5
f 748/2/5 743/2/5 747/2/5
f 749/2/5 743/2/5 748/2/5
f 752/2/5 751/2/5 750/2/5
f 753/2/5 751/2/5 752/2/5
f 756/2/5 755/2/5 754/2/5
f 757/2/5 755/2/5 756/2/5
f 762/2/5 759/2/5 758/2/5
f 763/2/5 759/2/5 762/2/5
f 764/2/5 761/2/5 760/2/5
f 765/2/5 761/2/5 764/2/5
f 769/2/5 767/2/5 766/2/5
f 769/2/5 768/2/5 767/2/5
f 770/2/5 768/2/5 769/2/5
f 773/2/5 772/2/5 771/2/5
f 774/2/5 772/2/5 773/2/5
f 777/2/5 776/2/5 775/2/5
f 778/2/5 776/2/5 777/2/5
f 781/2/5 780/2/5 779/2/5
f 782/2/5 780/2/5 781/2/5
f 785/2/5 784/2/5 783/2/5
f 786/2/5 784/2/5 785/2/5
f 789/2/5 788/2/5 787/2/5
f 790/2/5 788/2/5 789/2/5
f 795/2/5 792/2/5 791/2/5
f 796/2/5 792/2/5 795/2/5
f 797/2/5 794/2/5 793/2/5
f 798/2/5 794/2/5 797/2/5
f 801/2/5 800/2/5 799/2/5
f 802/2/5 800/2/5 801/2/5
f 807/2/5 804/2/5 803/2/5
f 808/2/5 804/2/5 807/2/5
f 809/2/5 806/2/5 805/2/5
f 810/2/5 806/2/5 809/2/5
f 818/2/5 812/2/5 811/2/5
f 818/2/5 813/2/5 812/2/5
f 819/2/5 813/2/5 818/2/5
f 820/2/5 815/2/5 814/2/5
f 821/2/5 815/2/5 820/2/5
f 822/2/5 817/2/5 816/2/5
f 823/2/5 817/2/5 822/2/5
f 826/2/5 825/2/5 824/2/5
f 827/2/5 825/2/5 826/2/5
f 830/2/5 829/2/5 828/2/5
f 831/2/5 829/2/5 830/2/5
f 834/2/5 833/2/5 832/2/5
f 835/2/5 833/2/5 834/2/5
f 836/2/5 833/2/5 835/2/5
f 839/2/5 838/2/5 837/2/5
f 840/2/5 838/2/5 839/2/5
f 843/4/5 842/4/5 841/4/5
f 844/4/5 842/4/5 843/4/5
f 845/2/6 846/2/6 847/2/6
f 847/2/6 846/2/6 848/2/6
f 848/2/6 846/2/6 849/2/6
f 850/2/6 851/2/6 853/2/6
f 851/2/6 852/2/6 853/2/6
f 853/2/6 852/2/6 854/2/6
f 855/2/6 856/2/6 857/2/6
f 857/2/6 856/2/6 858/2/6
f 859/2/6 860/2/6 861/2/6
f 861/2/6 860/2/6 862/2/6
f 863/2/6 864/2/6 865/2/6
f 865/2/6 864/2/6 866/2/6
f 867/2/6 868/2/6 870/2/6
f 868/2/6 869/2/6 870/2/6
f 870/2/6 869/2/6 871/2/6
f 872/2/6 873/2/6 874/2/6
f 874/2/6 873/2/6 875/2/6
f 876/2/6 877/2/6 879/2/6
f 877/2/6 878/2/6 879/2/6
f 879/2/6 878/2/6 880/2/6
f 881/2/6 882/2/6 883/2/6
f 883/2/6 882/2/6 884/2/6
f 885/2/6 886/2/6 887/2/6
f 887/2/6 886/2/6 888/2/6
f 889/2/6 890/2/6 893/2/6
f 893/2/6 890/2/6 894/2/6
f 894/2/6 890/2/6 895/2/6
f 891/2/6 892/2/6 896/2/6
f 896/2/6 892/2/6 897/2/6
f 898/2/6 899/2/6 901/2/6
f 899/2/6 900/2/6 901/2/6
f 901/2/6 900/2/6 902/2/6
f 903/2/6 904/2/6 907/2/6
f 907/2/6 904/2/6 908/2/6
f 905/2/6 906/2/6 909/2/6
f 909/2/6 906/2/6 910/2/6
f 911/2/6 912/2/6 913/2/6
f 913/2/6 912/2/6 914/2/6
f 915/2/6 916/2/6 917/2/6
f 917/2/6 916/2/6 918/2/6
f 919/2/6 920/2/6 921/2/6
f 921/2/6 920/2/6 922/2/6
f 923/2/6 924/2/6 927/2/6
f 927/2/6 924/2/6 928/2/6
f 925/2/6 926/2/6 929/2/6
f 929/2/6 926/2/6 930/2/6
f 931/2/6 932/2/6 933/2/6
f 933/2/6 932/2/6 934/2/6
f 935/2/6 936/2/6 937/2/6
f 937/2/6 936/2/6 938/2/6
f 938/2/6 936/2/6 939/2/6
f 940/2/6 941/2/6 942/2/6
f 942/2/6 941/2/6 943/2/6
f 944/2/6 945/2/6 946/2/6
f 946/2/6 945/2/6 947/2/6
f 948/2/6 949/2/6 952/2/6
f 952/2/6 949/2/6 953/2/6
f 950/2/6 951/2/6 954/2/6
f 954/2/6 951/2/6 955/2/6
f 956/2/6 957/2/6 959/2/6
f 957/2/6 958/2/6 959/2/6
f 959/2/6 958/2/6 960/2/6
f 961/2/6 962/2/6 963/2/6
f 963/2/6 962/2/6 964/2/6
f 965/2/6 966/2/6 969/2/6
f 969/2/6 966/2/6 970/2/6
f 967/2/6 968/2/6 971/2/6
f 971/2/6 968/2/6 972/2/6
f 973/2/6 974/2/6 975/2/6
f 975/2/6 974/2/6 976/2/6
f 977/2/6 978/2/6 979/2/6
f 979/2/6 978/2/6 980/2/6
f 981/4/6 982/4/6 983/4/6
f 983/4/6 982/4/6 984/4/6
f 985/4/6 986/4/6 987/4/6
f 987/4/6 986/4/6 988/4/6
f 989/2/6 990/2/6 991/2/6
f 991/2/6 990/2/6 992/2/6
