# MagicaVoxel @ Ephtracy

# group
o 

# material
mtllib lifeforce.mtl
usemtl palette

# normals
vn -1 0 0
vn 1 0 0
vn 0 0 1
vn 0 0 -1
vn 0 -1 0
vn 0 1 0

# texcoords
vt 0.517578 0.5
vt 0.521484 0.5
vt 0.541016 0.5
vt 0.693359 0.5

# verts
v -1.1 2.5 0.5
v -1.1 2.5 0.4
v -1.1 2.5 0
v -1.1 2.5 -0.1
v -1.1 2.6 0.4
v -1.1 2.6 0
v -1.1 2.6 -0.1
v -1.1 2.8 0.5
v -1.1 2.8 0.4
v -1.1 2.9 0.5
v -1.1 2.9 0.4
v -1 2.4 0.6
v -1 2.4 0.5
v -1 2.4 -0.2
v -1 2.5 0.6
v -1 2.5 0.5
v -1 2.5 0.4
v -1 2.5 0
v -1 2.5 -0.1
v -1 2.5 -0.2
v -0.9 2.3 0.6
v -0.9 2.3 0.5
v -0.9 2.3 -0.2
v -0.9 2.4 0.6
v -0.9 2.4 0.5
v -0.9 2.4 -0.2
v -0.9 2.6 0
v -0.9 2.6 -0.1
v -0.9 2.7 0
v -0.9 2.7 -0.1
v -0.8 1.6 0.4
v -0.8 1.6 -0.1
v -0.8 2.3 0.4
v -0.8 2.3 -0.1
v -0.8 2.7 0
v -0.8 2.7 -0.1
v -0.8 2.8 0
v -0.8 2.8 -0.1
v -0.7 1.1 0.4
v -0.7 1.1 0.3
v -0.7 1.2 0.5
v -0.7 1.2 0.4
v -0.7 1.2 0.3
v -0.7 1.2 0.2
v -0.7 1.3 0.6
v -0.7 1.3 0.5
v -0.7 1.3 0.2
v -0.7 1.3 0.1
v -0.7 1.4 0.7
v -0.7 1.4 0.6
v -0.7 1.4 0.1
v -0.7 1.4 0
v -0.7 1.5 0
v -0.7 1.5 -0.2
v -0.7 1.6 0.4
v -0.7 1.6 -0.1
v -0.7 1.7 0.6
v -0.7 1.7 0.5
v -0.7 2.3 0.7
v -0.7 2.3 0.6
v -0.7 2.3 0.5
v -0.7 2.3 0.4
v -0.7 2.3 -0.1
v -0.7 2.3 -0.2
v -0.7 2.8 0
v -0.7 2.8 -0.1
v -0.7 2.9 0
v -0.7 2.9 -0.1
v -0.6 1.5 -0.2
v -0.6 1.5 -0.3
v -0.6 1.7 0.6
v -0.6 1.7 0.5
v -0.6 2.3 0.6
v -0.6 2.3 0.5
v -0.6 2.5 -0.2
v -0.6 2.5 -0.3
v -0.6 2.6 0.3
v -0.6 2.6 0
v -0.6 2.8 0.3
v -0.6 2.8 0.2
v -0.6 2.9 0.2
v -0.6 2.9 0.1
v -0.6 2.9 0
v -0.6 3 0.1
v -0.6 3 0
v -0.5 1.3 0.7
v -0.5 1.3 0.6
v -0.5 1.5 0.6
v -0.5 1.5 -0.3
v -0.5 1.5 -0.4
v -0.5 2.2 0.2
v -0.5 2.2 -0.2
v -0.5 2.3 0.6
v -0.5 2.3 0.4
v -0.5 2.3 0.3
v -0.5 2.3 0.2
v -0.5 2.3 0
v -0.5 2.3 -0.2
v -0.5 2.3 -0.3
v -0.5 2.3 -0.4
v -0.5 2.4 0.7
v -0.5 2.4 0.6
v -0.5 2.4 0.4
v -0.5 2.4 0.3
v -0.5 2.5 0.7
v -0.5 2.5 0.6
v -0.5 2.5 0
v -0.5 2.5 -0.2
v -0.5 2.5 -0.3
v -0.5 2.5 -0.4
v -0.4 1.4 0.8
v -0.4 1.4 0.7
v -0.4 1.5 -0.4
v -0.4 1.5 -0.5
v -0.4 2.2 1
v -0.4 2.2 0.9
v -0.4 2.3 -0.4
v -0.4 2.4 1
v -0.4 2.4 0.9
v -0.4 2.4 0.8
v -0.4 2.4 0.7
v -0.4 2.5 0.8
v -0.4 2.5 0.7
v -0.4 2.5 0.6
v -0.4 2.5 -0.2
v -0.4 2.5 -0.3
v -0.4 2.5 -0.4
v -0.4 2.5 -0.5
v -0.4 2.8 0.7
v -0.4 2.8 0.6
v -0.4 2.9 -0.2
v -0.4 2.9 -0.3
v -0.3 1.1 0.9
v -0.3 1.1 0.8
v -0.3 1.2 1
v -0.3 1.2 0.9
v -0.3 1.4 0.8
v -0.3 1.5 1
v -0.3 1.5 0.9
v -0.3 1.5 -0.5
v -0.3 1.5 -0.6
v -0.3 1.7 1
v -0.3 1.7 0.9
v -0.3 2.1 1
v -0.3 2.1 0.9
v -0.3 2.2 0.9
v -0.3 2.4 0.9
v -0.3 2.4 0.8
v -0.3 2.5 0.9
v -0.3 2.5 0.8
v -0.3 2.5 0.7
v -0.3 2.5 -0.5
v -0.3 2.5 -0.6
v -0.3 2.6 0.8
v -0.3 2.6 0.7
v -0.2 1 0.9
v -0.2 1 0.8
v -0.2 1.1 1
v -0.2 1.1 0.9
v -0.2 1.1 0.8
v -0.2 1.2 1
v -0.2 1.2 0.9
v -0.2 1.4 -0.6
v -0.2 1.4 -0.7
v -0.2 1.5 1
v -0.2 1.5 0.9
v -0.2 1.5 -0.6
v -0.2 1.6 1
v -0.2 1.6 0.9
v -0.2 2.2 -0.3
v -0.2 2.2 -0.5
v -0.2 2.3 -0.3
v -0.2 2.3 -0.5
v -0.2 2.5 -0.6
v -0.2 2.5 -0.7
v -0.2 2.6 0.8
v -0.2 2.6 0.7
v -0.2 2.7 0.8
v -0.2 2.7 0.7
v -0.1 0.9 0.9
v -0.1 0.9 0.8
v -0.1 1 1
v -0.1 1 0.9
v -0.1 1 0.8
v -0.1 1.1 1
v -0.1 1.1 0.9
v -0.1 1.8 1.1
v -0.1 1.8 1
v -0.1 2 1.1
v -0.1 2 1
v 0 0.8 0.9
v 0 0.8 0.8
v 0 0.9 1
v 0 0.9 0.9
v 0 0.9 0.8
v 0 1 1
v 0 1 0.9
v 0 1.5 0
v 0 1.5 -0.3
v 0 1.8 -0.1
v 0 1.8 -0.3
v 0 2 0
v 0 2 -0.1
v 0 2.2 0.2
v 0 2.2 0
v 0 2.3 -0.3
v 0 2.3 -0.6
v 0 2.4 -0.3
v 0 2.4 -0.6
v 0 2.5 0.1
v 0 2.5 0
v 0 2.7 -0.2
v 0 2.7 -0.3
v 0 2.8 0.2
v 0 2.8 0.1
v 0 2.9 -0.2
v 0 2.9 -0.3
v 0.1 2.2 0.5
v 0.1 2.2 0.3
v 0.1 2.3 0.5
v 0.1 2.3 0.3
v 0.1 2.4 -0.3
v 0.1 2.4 -0.5
v 0.1 2.5 -0.3
v 0.1 2.5 -0.5
v 0.2 1.7 -0.3
v 0.2 1.7 -0.6
v 0.2 1.8 1.1
v 0.2 1.8 1
v 0.2 1.9 -0.3
v 0.2 1.9 -0.6
v 0.2 2 1.1
v 0.2 2 1
v 0.2 2.2 0.7
v 0.2 2.2 0.5
v 0.2 2.3 0.5
v 0.2 2.3 0.3
v 0.2 2.4 0.6
v 0.2 2.4 0.3
v 0.2 2.5 0.7
v 0.2 2.5 0.6
v 0.2 2.7 0.7
v 0.2 2.7 0.6
v 0.3 1.1 -0.5
v 0.3 1.1 -0.6
v 0.3 1.4 -0.6
v 0.3 1.7 -0.5
v 0.3 1.7 -0.6
v 0.3 2.2 1
v 0.3 2.2 0.9
v 0.3 2.4 1
v 0.3 2.4 0.9
v 0.3 2.4 -0.5
v 0.3 2.4 -0.6
v 0.3 2.5 -0.5
v 0.3 2.5 -0.6
v 0.3 2.7 0.7
v 0.3 2.7 0.6
v 0.3 3 0.7
v 0.3 3 0.6
v 0.4 1.2 0.8
v 0.4 1.2 0.7
v 0.4 1.2 -0.4
v 0.4 1.2 -0.5
v 0.4 2 0.8
v 0.4 2 0.7
v 0.4 2.1 -0.4
v 0.4 2.1 -0.5
v 0.4 2.2 0.8
v 0.4 2.2 0.7
v 0.4 2.4 0.8
v 0.4 2.4 0.7
v 0.4 2.5 0.8
v 0.4 2.5 0.7
v 0.5 1.4 0.7
v 0.5 1.4 0.6
v 0.5 1.5 -0.3
v 0.5 1.5 -0.4
v 0.5 2 0.7
v 0.5 2 0.6
v 0.5 2.1 -0.3
v 0.5 2.1 -0.4
v 0.5 2.2 0.7
v 0.5 2.2 0.6
v 0.5 2.2 -0.3
v 0.5 2.2 -0.4
v 0.5 2.3 0.2
v 0.5 2.3 0
v 0.5 2.4 0.7
v 0.5 2.5 0.7
v 0.5 2.5 0.6
v 0.5 2.5 -0.3
v 0.5 2.5 -0.4
v 0.5 2.7 0.2
v 0.5 2.7 0
v 0.6 1.4 0.6
v 0.6 1.4 0.5
v 0.6 2 0.6
v 0.6 2 0.5
v 0.6 2.2 0.6
v 0.6 2.2 0.5
v 0.6 2.2 -0.2
v 0.6 2.2 -0.3
v 0.6 2.3 0.5
v 0.6 2.3 0
v 0.6 2.3 -0.2
v 0.6 2.5 0.6
v 0.6 2.5 0.5
v 0.6 2.5 -0.3
v 0.6 2.6 0
v 0.6 2.6 -0.2
v 0.6 2.7 0
v 0.6 2.7 -0.2
v 0.6 2.7 -0.3
v 0.7 0.9 0.2
v 0.7 0.9 0.1
v 0.7 1 0.3
v 0.7 1 0.2
v 0.7 1 0.1
v 0.7 1 0
v 0.7 1.1 0.4
v 0.7 1.1 0.3
v 0.7 1.1 0
v 0.7 1.1 -0.1
v 0.7 1.2 0.5
v 0.7 1.2 0.4
v 0.7 1.2 -0.1
v 0.7 1.2 -0.2
v 0.7 1.4 0.5
v 0.7 1.5 0
v 0.7 1.5 -0.2
v 0.7 2 0.5
v 0.7 2 0.4
v 0.7 2 0
v 0.7 2.2 0.3
v 0.7 2.2 -0.2
v 0.7 2.3 0.5
v 0.7 2.3 0.4
v 0.7 2.3 0.3
v 0.7 2.3 0.2
v 0.7 2.3 -0.2
v 0.7 2.5 0.5
v 0.7 2.5 0.4
v 0.7 2.5 0.2
v 0.7 2.7 -0.1
v 0.7 2.7 -0.2
v 0.7 2.7 -0.3
v 0.7 2.8 -0.1
v 0.7 2.8 -0.2
v 0.7 3 -0.2
v 0.7 3 -0.3
v 0.8 2.5 0.3
v 0.8 2.5 0.2
v 0.8 2.6 0.3
v 0.8 2.6 0.2
v 0.8 2.7 0
v 0.8 2.7 -0.1
v 0.8 2.8 0
v 0.8 2.8 -0.1
v 1 2.7 0
v 1 2.7 -0.1
v 1 2.9 0
v 1 2.9 -0.1
v 1.1 2.6 0.1
v 1.1 2.6 0
v 1.1 2.7 0.1
v 1.1 2.7 0
v -1 2.8 0.5
v -1 2.8 0.4
v -1 2.9 0.5
v -1 2.9 0.4
v -0.9 2.7 0.5
v -0.9 2.7 0.4
v -0.9 2.8 0.5
v -0.9 2.8 0.4
v -0.8 2.6 0.5
v -0.8 2.6 0.4
v -0.8 2.7 0.5
v -0.8 2.7 0.4
v -0.6 1.1 0.4
v -0.6 1.1 0.3
v -0.6 1.2 0.5
v -0.6 1.2 0.4
v -0.6 1.2 0.3
v -0.6 1.2 0.2
v -0.6 1.3 0.6
v -0.6 1.3 0.5
v -0.6 1.3 0.2
v -0.6 1.3 0.1
v -0.6 1.4 0.7
v -0.6 1.4 0.6
v -0.6 1.4 0.1
v -0.6 1.4 0
v -0.6 1.5 0.6
v -0.6 1.5 0.5
v -0.6 1.5 0
v -0.6 1.5 -0.2
v -0.6 1.7 -0.1
v -0.6 1.7 -0.2
v -0.6 2 0.5
v -0.6 2 -0.1
v -0.6 2.2 0.2
v -0.6 2.2 -0.2
v -0.6 2.3 0.7
v -0.6 2.3 0.6
v -0.6 2.3 0.5
v -0.6 2.3 0.3
v -0.6 2.3 0.2
v -0.6 2.3 0
v -0.6 2.5 0.5
v -0.6 2.5 0.4
v -0.6 2.5 0.3
v -0.6 2.5 -0.1
v -0.6 2.5 -0.2
v -0.6 2.6 0.5
v -0.6 2.6 0.4
v -0.6 2.6 0.3
v -0.6 2.9 0
v -0.6 2.9 -0.1
v -0.5 1.5 0.6
v -0.5 1.5 0.5
v -0.5 1.5 -0.2
v -0.5 1.5 -0.3
v -0.5 1.7 -0.2
v -0.5 1.7 -0.3
v -0.5 2 0.6
v -0.5 2 0.5
v -0.5 2.2 0.6
v -0.5 2.2 0.5
v -0.5 2.3 0.6
v -0.5 2.3 0.5
v -0.5 2.4 0.6
v -0.5 2.4 0.3
v -0.5 2.4 0
v -0.5 2.5 0.6
v -0.5 2.5 0.5
v -0.5 2.5 0
v -0.5 2.8 0.3
v -0.5 2.8 0.2
v -0.5 2.9 0.2
v -0.5 2.9 0.1
v -0.5 2.9 0
v -0.5 3 0.1
v -0.5 3 0
v -0.4 1.3 0.7
v -0.4 1.3 0.6
v -0.4 1.4 0.7
v -0.4 1.5 -0.3
v -0.4 1.5 -0.4
v -0.4 1.7 -0.3
v -0.4 1.7 -0.4
v -0.4 2 0.7
v -0.4 2 0.6
v -0.4 2.2 -0.3
v -0.4 2.2 -0.4
v -0.4 2.3 -0.3
v -0.4 2.3 -0.4
v -0.4 2.5 -0.3
v -0.4 2.5 -0.4
v -0.3 1.4 0.8
v -0.3 1.4 0.7
v -0.3 1.5 -0.4
v -0.3 1.5 -0.5
v -0.3 1.7 -0.4
v -0.3 1.7 -0.5
v -0.3 2 0.8
v -0.3 2 0.7
v -0.3 2.2 0.2
v -0.3 2.2 0
v -0.3 2.2 -0.4
v -0.3 2.2 -0.5
v -0.3 2.3 0.7
v -0.3 2.3 0.6
v -0.3 2.3 0.4
v -0.3 2.3 0.2
v -0.3 2.4 0.7
v -0.3 2.4 0.6
v -0.3 2.4 0.4
v -0.3 2.4 0
v -0.3 2.5 0.7
v -0.3 2.5 0.6
v -0.3 2.5 -0.4
v -0.3 2.5 -0.5
v -0.3 2.6 0.7
v -0.3 2.7 -0.2
v -0.3 2.7 -0.3
v -0.3 2.8 0.7
v -0.3 2.8 0.6
v -0.3 2.9 -0.2
v -0.3 2.9 -0.3
v -0.2 1.5 -0.5
v -0.2 1.5 -0.6
v -0.2 1.7 -0.5
v -0.2 1.7 -0.6
v -0.2 2.2 1
v -0.2 2.2 0.9
v -0.2 2.2 0.5
v -0.2 2.2 0.2
v -0.2 2.3 0.5
v -0.2 2.3 0.2
v -0.2 2.3 -0.5
v -0.2 2.3 -0.6
v -0.2 2.4 1
v -0.2 2.4 0.9
v -0.2 2.5 -0.5
v -0.2 2.5 -0.6
v -0.1 1.7 -0.1
v -0.1 1.7 -0.6
v -0.1 1.8 -0.1
v -0.1 1.8 -0.3
v -0.1 1.9 -0.3
v -0.1 1.9 -0.6
v -0.1 2.2 0.8
v -0.1 2.2 0.6
v -0.1 2.3 0.7
v -0.1 2.3 0.6
v -0.1 2.5 0.8
v -0.1 2.7 0.8
v -0.1 2.7 0.7
v 0 1.8 1.1
v 0 1.8 1
v 0 2 1.1
v 0 2 1
v 0.1 0.8 0.9
v 0.1 0.8 0.8
v 0.1 0.9 1
v 0.1 0.9 0.9
v 0.1 0.9 0.8
v 0.1 1 1
v 0.1 1 0.9
v 0.1 2.4 0
v 0.1 2.4 -0.3
v 0.1 2.5 0
v 0.1 2.5 -0.2
v 0.1 2.5 -0.3
v 0.1 2.7 0.2
v 0.1 2.7 0.1
v 0.1 2.8 0.2
v 0.1 2.8 0.1
v 0.1 2.9 -0.2
v 0.1 2.9 -0.3
v 0.2 0.9 0.9
v 0.2 0.9 0.8
v 0.2 1 1
v 0.2 1 0.9
v 0.2 1 0.8
v 0.2 1.1 1
v 0.2 1.1 0.9
v 0.2 2.6 0.2
v 0.2 2.6 0.1
v 0.2 2.7 0.2
v 0.2 2.7 0.1
v 0.3 1 0.9
v 0.3 1 0.8
v 0.3 1.1 1
v 0.3 1.1 0.9
v 0.3 1.1 0.8
v 0.3 1.2 1
v 0.3 1.2 0.9
v 0.3 1.4 -0.6
v 0.3 1.4 -0.7
v 0.3 1.5 1
v 0.3 1.5 0.9
v 0.3 1.6 1
v 0.3 1.6 0.9
v 0.3 1.7 -0.3
v 0.3 1.7 -0.5
v 0.3 1.8 1.1
v 0.3 1.8 1
v 0.3 2 1.1
v 0.3 2 1
v 0.3 2.1 -0.3
v 0.3 2.1 -0.5
v 0.3 2.2 0.2
v 0.3 2.2 -0.3
v 0.3 2.4 0
v 0.3 2.4 -0.3
v 0.3 2.5 0.1
v 0.3 2.5 0
v 0.3 2.5 -0.6
v 0.3 2.5 -0.7
v 0.3 2.6 0.2
v 0.3 2.6 0.1
v 0.4 1.1 0.9
v 0.4 1.1 0.8
v 0.4 1.1 -0.5
v 0.4 1.1 -0.6
v 0.4 1.2 1
v 0.4 1.2 0.9
v 0.4 1.2 0.8
v 0.4 1.2 -0.5
v 0.4 1.5 1
v 0.4 1.5 0.9
v 0.4 1.7 1
v 0.4 1.7 0.9
v 0.4 2.1 1
v 0.4 2.1 0.9
v 0.4 2.2 0.9
v 0.4 2.2 0.8
v 0.4 2.2 0.7
v 0.4 2.2 0.5
v 0.4 2.2 -0.3
v 0.4 2.2 -0.4
v 0.4 2.3 0.5
v 0.4 2.3 0.3
v 0.4 2.4 0.9
v 0.4 2.4 0.8
v 0.4 2.4 0.7
v 0.4 2.4 0.6
v 0.4 2.4 0.3
v 0.4 2.5 0.9
v 0.4 2.5 0.8
v 0.4 2.5 0.7
v 0.4 2.5 0.6
v 0.4 2.5 -0.3
v 0.4 2.5 -0.4
v 0.4 2.5 -0.5
v 0.4 2.5 -0.6
v 0.4 3 0.7
v 0.4 3 0.6
v 0.5 1.2 0.8
v 0.5 1.2 0.7
v 0.5 1.2 -0.4
v 0.5 1.2 -0.5
v 0.5 1.4 0.7
v 0.5 1.5 -0.4
v 0.5 2.2 1
v 0.5 2.2 0.9
v 0.5 2.2 0.8
v 0.5 2.4 1
v 0.5 2.4 0.9
v 0.5 2.4 0.8
v 0.5 2.4 0.7
v 0.5 2.5 0.8
v 0.5 2.5 0.7
v 0.5 2.5 -0.4
v 0.5 2.5 -0.5
v 0.6 1.4 0.7
v 0.6 1.4 0.6
v 0.6 1.5 -0.3
v 0.6 1.5 -0.4
v 0.6 2.5 0.7
v 0.6 2.5 0.6
v 0.6 2.5 -0.3
v 0.6 2.5 -0.4
v 0.6 2.6 0.2
v 0.6 2.6 0
v 0.6 2.7 0.2
v 0.6 2.7 0
v 0.7 1.4 0.6
v 0.7 1.4 0.5
v 0.7 1.5 -0.2
v 0.7 1.5 -0.3
v 0.7 2.4 -0.2
v 0.7 2.4 -0.3
v 0.7 2.5 0.6
v 0.7 2.5 0.5
v 0.8 0.9 0.2
v 0.8 0.9 0.1
v 0.8 1 0.3
v 0.8 1 0.2
v 0.8 1 0.1
v 0.8 1 0
v 0.8 1.1 0.4
v 0.8 1.1 0.3
v 0.8 1.1 0
v 0.8 1.1 -0.1
v 0.8 1.2 0.5
v 0.8 1.2 0.4
v 0.8 1.2 -0.1
v 0.8 1.2 -0.2
v 0.8 1.6 0.4
v 0.8 1.6 0
v 0.8 2.4 -0.2
v 0.8 2.4 -0.3
v 0.8 2.5 0.5
v 0.8 2.5 0.4
v 0.8 2.5 0
v 0.8 2.6 0
v 0.8 2.6 -0.1
v 0.8 2.6 -0.2
v 0.8 2.7 -0.1
v 0.8 2.7 -0.2
v 0.8 2.8 -0.1
v 0.8 2.8 -0.2
v 0.8 3 -0.2
v 0.8 3 -0.3
v 0.9 1.6 0.4
v 0.9 1.6 0
v 0.9 2.2 0.4
v 0.9 2.2 0
v 0.9 2.7 0
v 0.9 2.7 -0.1
v 0.9 2.8 0
v 0.9 2.8 -0.1
v 1 2.2 0.4
v 1 2.2 0
v 1 2.3 0.4
v 1 2.3 0
v 1.1 2.3 0.4
v 1.1 2.3 0.3
v 1.1 2.5 0.4
v 1.1 2.5 0.3
v 1.1 2.5 0.2
v 1.1 2.6 0.3
v 1.1 2.6 0.2
v 1.1 2.7 0
v 1.1 2.7 -0.1
v 1.1 2.9 0
v 1.1 2.9 -0.1
v 1.2 2.3 0.3
v 1.2 2.3 0.2
v 1.2 2.5 0.3
v 1.2 2.5 0.2
v 1.2 2.5 0
v 1.2 2.6 0.2
v 1.2 2.6 0.1
v 1.2 2.6 0
v 1.2 2.6 -0.1
v 1.2 2.7 0.1
v 1.2 2.7 -0.1
v 1.3 2.3 0.2
v 1.3 2.3 0
v 1.3 2.5 0.2
v 1.3 2.5 0
v -0.1 1.8 1.1
v -0.1 2 1.1
v 0 1.8 1.1
v 0 2 1.1
v 0.2 1.8 1.1
v 0.2 2 1.1
v 0.3 1.8 1.1
v 0.3 2 1.1
v -0.4 2.2 1
v -0.4 2.4 1
v -0.3 1.2 1
v -0.3 1.5 1
v -0.3 1.7 1
v -0.3 2.1 1
v -0.2 1.1 1
v -0.2 1.2 1
v -0.2 1.5 1
v -0.2 1.6 1
v -0.2 2.2 1
v -0.2 2.4 1
v -0.1 1 1
v -0.1 1.1 1
v -0.1 1.8 1
v -0.1 2 1
v 0 0.9 1
v 0 1 1
v 0 1.8 1
v 0 2 1
v 0.1 0.9 1
v 0.1 1 1
v 0.2 1 1
v 0.2 1.1 1
v 0.2 1.8 1
v 0.2 2 1
v 0.3 1.1 1
v 0.3 1.2 1
v 0.3 1.5 1
v 0.3 1.6 1
v 0.3 1.8 1
v 0.3 2 1
v 0.3 2.2 1
v 0.3 2.4 1
v 0.4 1.2 1
v 0.4 1.5 1
v 0.4 1.7 1
v 0.4 2.1 1
v 0.5 2.2 1
v 0.5 2.4 1
v -0.3 1.1 0.9
v -0.3 1.2 0.9
v -0.3 1.5 0.9
v -0.3 1.7 0.9
v -0.3 2.1 0.9
v -0.3 2.2 0.9
v -0.3 2.4 0.9
v -0.3 2.5 0.9
v -0.2 1 0.9
v -0.2 1.1 0.9
v -0.2 1.2 0.9
v -0.2 1.5 0.9
v -0.2 1.6 0.9
v -0.2 2.2 0.9
v -0.2 2.4 0.9
v -0.1 0.9 0.9
v -0.1 1 0.9
v -0.1 1.1 0.9
v -0.1 2.2 0.9
v -0.1 2.4 0.9
v 0 0.8 0.9
v 0 0.9 0.9
v 0 1 0.9
v 0.1 0.8 0.9
v 0.1 0.9 0.9
v 0.1 1 0.9
v 0.2 0.9 0.9
v 0.2 1 0.9
v 0.2 1.1 0.9
v 0.2 2.2 0.9
v 0.2 2.4 0.9
v 0.3 1 0.9
v 0.3 1.1 0.9
v 0.3 1.2 0.9
v 0.3 1.5 0.9
v 0.3 1.6 0.9
v 0.3 2.2 0.9
v 0.3 2.4 0.9
v 0.3 2.5 0.9
v 0.4 1.1 0.9
v 0.4 1.2 0.9
v 0.4 1.5 0.9
v 0.4 1.7 0.9
v 0.4 2.1 0.9
v 0.4 2.2 0.9
v 0.4 2.4 0.9
v 0.4 2.5 0.9
v -0.4 1.4 0.8
v -0.4 2.4 0.8
v -0.4 2.5 0.8
v -0.3 1.4 0.8
v -0.3 2.4 0.8
v -0.3 2.5 0.8
v -0.3 2.6 0.8
v -0.2 2.6 0.8
v -0.2 2.7 0.8
v -0.1 2.5 0.8
v -0.1 2.7 0.8
v 0.4 1.2 0.8
v 0.4 2.2 0.8
v 0.4 2.4 0.8
v 0.4 2.5 0.8
v 0.5 1.2 0.8
v 0.5 2.2 0.8
v 0.5 2.4 0.8
v 0.5 2.5 0.8
v -0.7 1.4 0.7
v -0.7 2.3 0.7
v -0.6 1.4 0.7
v -0.6 2.3 0.7
v -0.5 1.3 0.7
v -0.5 2.4 0.7
v -0.5 2.5 0.7
v -0.4 1.3 0.7
v -0.4 1.4 0.7
v -0.4 2.4 0.7
v -0.4 2.5 0.7
v -0.4 2.8 0.7
v -0.3 2.5 0.7
v -0.3 2.6 0.7
v -0.3 2.8 0.7
v 0.2 2.2 0.7
v 0.2 2.5 0.7
v 0.2 2.7 0.7
v 0.3 2.7 0.7
v 0.3 3 0.7
v 0.4 2.2 0.7
v 0.4 2.4 0.7
v 0.4 2.5 0.7
v 0.4 3 0.7
v 0.5 1.4 0.7
v 0.5 2.4 0.7
v 0.5 2.5 0.7
v 0.6 1.4 0.7
v 0.6 2.5 0.7
v -1 2.4 0.6
v -1 2.5 0.6
v -0.9 2.3 0.6
v -0.9 2.4 0.6
v -0.7 1.3 0.6
v -0.7 1.4 0.6
v -0.7 2.3 0.6
v -0.6 1.3 0.6
v -0.6 1.4 0.6
v -0.6 1.5 0.6
v -0.6 2.3 0.6
v -0.6 2.4 0.6
v -0.5 1.5 0.6
v -0.5 2.3 0.6
v -0.5 2.4 0.6
v -0.5 2.5 0.6
v 0.6 1.4 0.6
v 0.6 2.5 0.6
v 0.7 1.4 0.6
v 0.7 2.5 0.6
v -1.1 2.5 0.5
v -1.1 2.8 0.5
v -1.1 2.9 0.5
v -1 2.5 0.5
v -1 2.7 0.5
v -1 2.8 0.5
v -1 2.9 0.5
v -0.9 2.6 0.5
v -0.9 2.7 0.5
v -0.9 2.8 0.5
v -0.8 2.6 0.5
v -0.8 2.7 0.5
v -0.7 1.2 0.5
v -0.7 1.3 0.5
v -0.7 1.7 0.5
v -0.7 2.3 0.5
v -0.6 1.2 0.5
v -0.6 1.3 0.5
v -0.6 1.7 0.5
v -0.6 2.3 0.5
v -0.6 2.5 0.5
v -0.6 2.6 0.5
v -0.5 2.2 0.5
v -0.5 2.3 0.5
v -0.2 2.2 0.5
v -0.2 2.3 0.5
v 0.1 2.2 0.5
v 0.1 2.3 0.5
v 0.2 2.2 0.5
v 0.2 2.3 0.5
v 0.4 2.2 0.5
v 0.4 2.3 0.5
v 0.6 2.2 0.5
v 0.6 2.3 0.5
v 0.7 1.2 0.5
v 0.7 1.4 0.5
v 0.7 2.5 0.5
v 0.8 1.2 0.5
v 0.8 2.5 0.5
v -0.8 1.6 0.4
v -0.8 2.3 0.4
v -0.7 1.1 0.4
v -0.7 1.2 0.4
v -0.7 1.6 0.4
v -0.7 2.3 0.4
v -0.6 1.1 0.4
v -0.6 1.2 0.4
v -0.5 2.3 0.4
v -0.5 2.4 0.4
v -0.3 2.3 0.4
v -0.3 2.4 0.4
v 0.7 1.1 0.4
v 0.7 1.2 0.4
v 0.8 1.1 0.4
v 0.8 1.2 0.4
v 0.8 1.6 0.4
v 0.8 2.5 0.4
v 0.9 1.6 0.4
v 0.9 2.2 0.4
v 0.9 2.3 0.4
v 1 2.2 0.4
v 1 2.3 0.4
v 1.1 2.3 0.4
v 1.1 2.5 0.4
v -0.6 2.3 0.3
v -0.6 2.5 0.3
v -0.6 2.6 0.3
v -0.6 2.8 0.3
v -0.5 2.3 0.3
v -0.5 2.4 0.3
v -0.5 2.8 0.3
v 0.7 1 0.3
v 0.7 1.1 0.3
v 0.8 1 0.3
v 0.8 1.1 0.3
v 0.8 2.5 0.3
v 0.8 2.6 0.3
v 1.1 2.3 0.3
v 1.1 2.5 0.3
v 1.1 2.6 0.3
v 1.2 2.3 0.3
v 1.2 2.5 0.3
v -0.6 2.8 0.2
v -0.6 2.9 0.2
v -0.5 2.8 0.2
v -0.5 2.9 0.2
v 0 2.2 0.2
v 0 2.8 0.2
v 0.1 2.7 0.2
v 0.1 2.8 0.2
v 0.2 2.6 0.2
v 0.2 2.7 0.2
v 0.3 2.2 0.2
v 0.3 2.6 0.2
v 0.5 2.3 0.2
v 0.5 2.7 0.2
v 0.6 2.5 0.2
v 0.6 2.6 0.2
v 0.6 2.7 0.2
v 0.7 0.9 0.2
v 0.7 1 0.2
v 0.7 2.3 0.2
v 0.7 2.5 0.2
v 0.8 0.9 0.2
v 0.8 1 0.2
v 0.8 2.5 0.2
v 0.8 2.6 0.2
v 1.1 2.5 0.2
v 1.1 2.6 0.2
v 1.2 2.3 0.2
v 1.2 2.5 0.2
v 1.2 2.6 0.2
v 1.3 2.3 0.2
v 1.3 2.5 0.2
v -0.6 2.9 0.1
v -0.6 3 0.1
v -0.5 2.9 0.1
v -0.5 3 0.1
v 1.1 2.6 0.1
v 1.1 2.7 0.1
v 1.2 2.6 0.1
v 1.2 2.7 0.1
v -0.9 2.6 0
v -0.9 2.7 0
v -0.8 2.7 0
v -0.8 2.8 0
v -0.7 2.6 0
v -0.7 2.8 0
v -0.7 2.9 0
v -0.6 2.6 0
v -0.6 2.9 0
v -0.5 2.4 0
v -0.5 2.5 0
v -0.3 2.2 0
v -0.3 2.4 0
v 0 1.5 0
v 0 2 0
v 0 2.2 0
v 0 2.5 0
v 0.6 2.6 0
v 0.6 2.7 0
v 0.7 1.5 0
v 0.7 2 0
v 0.8 2.6 0
v 0.8 2.7 0
v 0.8 2.8 0
v 0.9 2.7 0
v 0.9 2.8 0
v 1 2.7 0
v 1 2.9 0
v 1.1 2.6 0
v 1.1 2.7 0
v 1.1 2.9 0
v -0.6 1.7 -0.1
v -0.6 2 -0.1
v -0.1 1.7 -0.1
v -0.1 1.8 -0.1
v 0 1.8 -0.1
v 0 2 -0.1
v 0.7 2.7 -0.1
v 0.7 2.8 -0.1
v 0.8 2.7 -0.1
v 0.8 2.8 -0.1
v -0.6 1.5 -0.2
v -0.6 1.7 -0.2
v -0.6 2.2 -0.2
v -0.6 2.5 -0.2
v -0.5 1.5 -0.2
v -0.5 1.7 -0.2
v -0.5 2.2 -0.2
v -0.5 2.3 -0.2
v -0.5 2.5 -0.2
v -0.4 2.5 -0.2
v -0.4 2.9 -0.2
v -0.3 2.7 -0.2
v -0.3 2.9 -0.2
v 0 2.5 -0.2
v 0 2.7 -0.2
v 0 2.9 -0.2
v 0.1 2.5 -0.2
v 0.1 2.9 -0.2
v 0.6 2.2 -0.2
v 0.6 2.3 -0.2
v 0.7 2.2 -0.2
v 0.7 2.3 -0.2
v 0.7 2.8 -0.2
v 0.7 3 -0.2
v 0.8 2.8 -0.2
v 0.8 3 -0.2
v -0.5 1.5 -0.3
v -0.5 1.7 -0.3
v -0.4 1.5 -0.3
v -0.4 1.7 -0.3
v 0.1 2.4 -0.3
v 0.1 2.5 -0.3
v 0.3 2.2 -0.3
v 0.3 2.4 -0.3
v 0.4 2.2 -0.3
v 0.4 2.5 -0.3
v 0.5 2.2 -0.3
v 0.5 2.5 -0.3
v 0.6 2.2 -0.3
v 0.6 2.5 -0.3
v -0.4 1.5 -0.4
v -0.4 1.7 -0.4
v -0.4 2.2 -0.4
v -0.4 2.3 -0.4
v -0.4 2.5 -0.4
v -0.3 1.5 -0.4
v -0.3 1.7 -0.4
v -0.3 2.2 -0.4
v -0.3 2.5 -0.4
v 0.4 1.2 -0.4
v 0.4 2.1 -0.4
v 0.4 2.2 -0.4
v 0.4 2.5 -0.4
v 0.5 1.2 -0.4
v 0.5 1.5 -0.4
v 0.5 2.1 -0.4
v 0.5 2.2 -0.4
v 0.5 2.5 -0.4
v -0.3 1.5 -0.5
v -0.3 1.7 -0.5
v -0.3 2.2 -0.5
v -0.3 2.5 -0.5
v -0.2 1.5 -0.5
v -0.2 1.7 -0.5
v -0.2 2.2 -0.5
v -0.2 2.3 -0.5
v -0.2 2.5 -0.5
v 0.3 1.1 -0.5
v 0.3 1.7 -0.5
v 0.3 2.1 -0.5
v 0.4 1.1 -0.5
v 0.4 1.2 -0.5
v 0.4 2.1 -0.5
v -0.2 1.4 -0.6
v -0.2 1.5 -0.6
v -0.2 1.7 -0.6
v -0.2 2.3 -0.6
v -0.2 2.5 -0.6
v -0.1 1.7 -0.6
v -0.1 1.9 -0.6
v 0 2.3 -0.6
v 0 2.4 -0.6
v 0.2 1.7 -0.6
v 0.2 1.9 -0.6
v 0.3 1.4 -0.6
v 0.3 1.7 -0.6
v 0.3 2.4 -0.6
v 0.3 2.5 -0.6
v -0.4 2.2 0.9
v -0.4 2.4 0.9
v -0.3 2.2 0.9
v -0.3 2.4 0.9
v -0.3 1.1 0.8
v -0.3 1.4 0.8
v -0.3 2 0.8
v -0.2 1 0.8
v -0.2 1.1 0.8
v -0.1 0.9 0.8
v -0.1 1 0.8
v -0.1 2.2 0.8
v -0.1 2.5 0.8
v 0 0.8 0.8
v 0 0.9 0.8
v 0.1 0.8 0.8
v 0.1 0.9 0.8
v 0.2 0.9 0.8
v 0.2 1 0.8
v 0.2 2.2 0.8
v 0.2 2.4 0.8
v 0.3 1 0.8
v 0.3 1.1 0.8
v 0.3 2.2 0.8
v 0.3 2.4 0.8
v 0.3 2.5 0.8
v 0.4 1.1 0.8
v 0.4 1.2 0.8
v 0.4 2 0.8
v 0.4 2.2 0.8
v 0.4 2.4 0.8
v 0.4 2.5 0.8
v -0.4 1.4 0.7
v -0.4 2 0.7
v -0.3 1.4 0.7
v -0.3 2 0.7
v -0.3 2.3 0.7
v -0.3 2.4 0.7
v -0.3 2.5 0.7
v -0.3 2.6 0.7
v -0.2 2.6 0.7
v -0.2 2.7 0.7
v -0.1 2.3 0.7
v -0.1 2.7 0.7
v 0.4 1.2 0.7
v 0.4 2 0.7
v 0.4 2.2 0.7
v 0.4 2.4 0.7
v 0.4 2.5 0.7
v 0.5 1.2 0.7
v 0.5 1.4 0.7
v 0.5 2 0.7
v 0.5 2.2 0.7
v 0.5 2.4 0.7
v 0.5 2.5 0.7
v -0.7 1.7 0.6
v -0.7 2.3 0.6
v -0.6 1.7 0.6
v -0.6 2.3 0.6
v -0.5 1.3 0.6
v -0.5 1.5 0.6
v -0.5 2 0.6
v -0.5 2.2 0.6
v -0.5 2.3 0.6
v -0.5 2.4 0.6
v -0.5 2.5 0.6
v -0.4 1.3 0.6
v -0.4 2 0.6
v -0.4 2.5 0.6
v -0.4 2.8 0.6
v -0.3 2.3 0.6
v -0.3 2.4 0.6
v -0.3 2.5 0.6
v -0.3 2.8 0.6
v -0.1 2.2 0.6
v -0.1 2.3 0.6
v 0.2 2.4 0.6
v 0.2 2.5 0.6
v 0.2 2.7 0.6
v 0.3 2.7 0.6
v 0.3 3 0.6
v 0.4 2.4 0.6
v 0.4 2.5 0.6
v 0.4 3 0.6
v 0.5 1.4 0.6
v 0.5 2 0.6
v 0.5 2.2 0.6
v 0.5 2.5 0.6
v 0.6 1.4 0.6
v 0.6 2 0.6
v 0.6 2.2 0.6
v 0.6 2.5 0.6
v -0.6 1.5 0.5
v -0.6 2 0.5
v -0.6 2.3 0.5
v -0.6 2.5 0.5
v -0.5 1.5 0.5
v -0.5 2 0.5
v -0.5 2.3 0.5
v -0.5 2.5 0.5
v 0.6 1.4 0.5
v 0.6 2 0.5
v 0.6 2.3 0.5
v 0.6 2.5 0.5
v 0.7 1.4 0.5
v 0.7 2 0.5
v 0.7 2.3 0.5
v 0.7 2.5 0.5
v -1.1 2.6 0.4
v -1.1 2.8 0.4
v -1.1 2.9 0.4
v -1 2.7 0.4
v -1 2.8 0.4
v -1 2.9 0.4
v -0.9 2.6 0.4
v -0.9 2.7 0.4
v -0.9 2.8 0.4
v -0.8 2.6 0.4
v -0.8 2.7 0.4
v -0.7 1.1 0.3
v -0.7 1.2 0.3
v -0.6 1.1 0.3
v -0.6 1.2 0.3
v 0.1 2.2 0.3
v 0.1 2.3 0.3
v 0.2 2.3 0.3
v 0.2 2.4 0.3
v 0.4 2.3 0.3
v 0.4 2.4 0.3
v 0.7 2.2 0.3
v 0.7 2.3 0.3
v -0.7 1.2 0.2
v -0.7 1.3 0.2
v -0.6 1.2 0.2
v -0.6 1.3 0.2
v -0.6 2.2 0.2
v -0.6 2.3 0.2
v -0.5 2.2 0.2
v -0.5 2.3 0.2
v -0.3 2.2 0.2
v -0.3 2.3 0.2
v -0.2 2.2 0.2
v -0.2 2.3 0.2
v -0.7 1.3 0.1
v -0.7 1.4 0.1
v -0.6 1.3 0.1
v -0.6 1.4 0.1
v 0 2.5 0.1
v 0 2.8 0.1
v 0.1 2.7 0.1
v 0.1 2.8 0.1
v 0.2 2.6 0.1
v 0.2 2.7 0.1
v 0.3 2.5 0.1
v 0.3 2.6 0.1
v 0.7 0.9 0.1
v 0.7 1 0.1
v 0.8 0.9 0.1
v 0.8 1 0.1
v -0.7 1.4 0
v -0.7 1.5 0
v -0.6 1.4 0
v -0.6 1.5 0
v -0.6 2.3 0
v -0.6 2.9 0
v -0.6 3 0
v -0.5 2.3 0
v -0.5 2.5 0
v -0.5 2.9 0
v -0.5 3 0
v 0.1 2.4 0
v 0.1 2.5 0
v 0.3 2.4 0
v 0.3 2.5 0
v 0.5 2.3 0
v 0.5 2.7 0
v 0.6 2.3 0
v 0.6 2.6 0
v 0.6 2.7 0
v 0.7 1 0
v 0.7 1.1 0
v 0.8 1 0
v 0.8 1.1 0
v 0.8 1.6 0
v 0.8 2.5 0
v 0.8 2.6 0
v 0.9 1.6 0
v 0.9 2.2 0
v 0.9 2.3 0
v 1 2.2 0
v 1 2.3 0
v 1.1 2.5 0
v 1.1 2.6 0
v 1.2 2.5 0
v 1.2 2.6 0
v 1.3 2.3 0
v 1.3 2.5 0
v -1.1 2.5 -0.1
v -1.1 2.6 -0.1
v -1 2.5 -0.1
v -0.9 2.6 -0.1
v -0.9 2.7 -0.1
v -0.8 1.6 -0.1
v -0.8 2.3 -0.1
v -0.8 2.7 -0.1
v -0.8 2.8 -0.1
v -0.7 1.6 -0.1
v -0.7 2.3 -0.1
v -0.7 2.6 -0.1
v -0.7 2.8 -0.1
v -0.7 2.9 -0.1
v -0.6 2.5 -0.1
v -0.6 2.9 -0.1
v 0.7 1.1 -0.1
v 0.7 1.2 -0.1
v 0.8 1.1 -0.1
v 0.8 1.2 -0.1
v 0.8 2.6 -0.1
v 0.8 2.7 -0.1
v 0.8 2.8 -0.1
v 0.9 2.7 -0.1
v 0.9 2.8 -0.1
v 1 2.7 -0.1
v 1 2.9 -0.1
v 1.1 2.7 -0.1
v 1.1 2.9 -0.1
v 1.2 2.6 -0.1
v 1.2 2.7 -0.1
v -1 2.4 -0.2
v -1 2.5 -0.2
v -0.9 2.3 -0.2
v -0.9 2.4 -0.2
v -0.7 1.5 -0.2
v -0.7 2.3 -0.2
v -0.6 1.5 -0.2
v -0.6 2.5 -0.2
v 0.7 1.2 -0.2
v 0.7 1.5 -0.2
v 0.7 2.4 -0.2
v 0.8 1.2 -0.2
v 0.8 2.4 -0.2
v -0.6 1.5 -0.3
v -0.6 2.5 -0.3
v -0.5 1.5 -0.3
v -0.5 2.3 -0.3
v -0.5 2.5 -0.3
v -0.4 2.2 -0.3
v -0.4 2.3 -0.3
v -0.4 2.5 -0.3
v -0.4 2.9 -0.3
v -0.3 2.7 -0.3
v -0.3 2.9 -0.3
v -0.2 2.2 -0.3
v -0.2 2.3 -0.3
v -0.1 1.8 -0.3
v -0.1 1.9 -0.3
v 0 1.5 -0.3
v 0 1.8 -0.3
v 0 2.3 -0.3
v 0 2.4 -0.3
v 0 2.5 -0.3
v 0 2.7 -0.3
v 0 2.9 -0.3
v 0.1 2.4 -0.3
v 0.1 2.5 -0.3
v 0.1 2.9 -0.3
v 0.2 1.7 -0.3
v 0.2 1.9 -0.3
v 0.3 1.7 -0.3
v 0.3 2.1 -0.3
v 0.5 1.5 -0.3
v 0.5 2.1 -0.3
v 0.6 1.5 -0.3
v 0.6 2.5 -0.3
v 0.6 2.7 -0.3
v 0.7 1.5 -0.3
v 0.7 2.4 -0.3
v 0.7 2.7 -0.3
v 0.7 3 -0.3
v 0.8 2.4 -0.3
v 0.8 3 -0.3
v -0.5 1.5 -0.4
v -0.5 2.3 -0.4
v -0.5 2.5 -0.4
v -0.4 1.5 -0.4
v -0.4 2.3 -0.4
v -0.4 2.5 -0.4
v 0.5 1.5 -0.4
v 0.5 2.5 -0.4
v 0.6 1.5 -0.4
v 0.6 2.5 -0.4
v -0.4 1.5 -0.5
v -0.4 2.5 -0.5
v -0.3 1.5 -0.5
v -0.3 2.5 -0.5
v 0.1 2.4 -0.5
v 0.1 2.5 -0.5
v 0.3 2.4 -0.5
v 0.3 2.5 -0.5
v 0.4 1.2 -0.5
v 0.4 2.5 -0.5
v 0.5 1.2 -0.5
v 0.5 2.5 -0.5
v -0.3 1.5 -0.6
v -0.3 2.5 -0.6
v -0.2 1.5 -0.6
v -0.2 2.5 -0.6
v 0.3 1.1 -0.6
v 0.3 1.4 -0.6
v 0.3 2.5 -0.6
v 0.4 1.1 -0.6
v 0.4 2.5 -0.6
v -0.2 1.4 -0.7
v -0.2 2.5 -0.7
v 0.3 1.4 -0.7
v 0.3 2.5 -0.7
v 0 0.8 0.9
v 0.1 0.8 0.9
v 0 0.8 0.8
v 0.1 0.8 0.8
v 0 0.9 1
v 0.1 0.9 1
v -0.1 0.9 0.9
v 0 0.9 0.9
v 0.1 0.9 0.9
v 0.2 0.9 0.9
v -0.1 0.9 0.8
v 0 0.9 0.8
v 0.1 0.9 0.8
v 0.2 0.9 0.8
v 0.7 0.9 0.2
v 0.8 0.9 0.2
v 0.7 0.9 0.1
v 0.8 0.9 0.1
v -0.1 1 1
v 0 1 1
v 0.1 1 1
v 0.2 1 1
v -0.2 1 0.9
v -0.1 1 0.9
v 0 1 0.9
v 0.1 1 0.9
v 0.2 1 0.9
v 0.3 1 0.9
v -0.2 1 0.8
v -0.1 1 0.8
v 0.2 1 0.8
v 0.3 1 0.8
v 0.7 1 0.3
v 0.8 1 0.3
v 0.7 1 0.2
v 0.8 1 0.2
v 0.7 1 0.1
v 0.8 1 0.1
v 0.7 1 0
v 0.8 1 0
v -0.2 1.1 1
v -0.1 1.1 1
v 0.2 1.1 1
v 0.3 1.1 1
v -0.3 1.1 0.9
v -0.2 1.1 0.9
v -0.1 1.1 0.9
v 0.2 1.1 0.9
v 0.3 1.1 0.9
v 0.4 1.1 0.9
v -0.3 1.1 0.8
v -0.2 1.1 0.8
v 0.3 1.1 0.8
v 0.4 1.1 0.8
v -0.7 1.1 0.4
v -0.6 1.1 0.4
v 0.7 1.1 0.4
v 0.8 1.1 0.4
v -0.7 1.1 0.3
v -0.6 1.1 0.3
v 0.7 1.1 0.3
v 0.8 1.1 0.3
v 0.7 1.1 0
v 0.8 1.1 0
v 0.7 1.1 -0.1
v 0.8 1.1 -0.1
v 0.3 1.1 -0.5
v 0.4 1.1 -0.5
v 0.3 1.1 -0.6
v 0.4 1.1 -0.6
v -0.3 1.2 1
v -0.2 1.2 1
v 0.3 1.2 1
v 0.4 1.2 1
v -0.3 1.2 0.9
v -0.2 1.2 0.9
v 0.3 1.2 0.9
v 0.4 1.2 0.9
v 0.4 1.2 0.8
v 0.5 1.2 0.8
v 0.4 1.2 0.7
v 0.5 1.2 0.7
v -0.7 1.2 0.5
v -0.6 1.2 0.5
v 0.7 1.2 0.5
v 0.8 1.2 0.5
v -0.7 1.2 0.4
v -0.6 1.2 0.4
v 0.7 1.2 0.4
v 0.8 1.2 0.4
v -0.7 1.2 0.3
v -0.6 1.2 0.3
v -0.7 1.2 0.2
v -0.6 1.2 0.2
v 0.7 1.2 -0.1
v 0.8 1.2 -0.1
v 0.7 1.2 -0.2
v 0.8 1.2 -0.2
v 0.4 1.2 -0.4
v 0.5 1.2 -0.4
v 0.4 1.2 -0.5
v 0.5 1.2 -0.5
v -0.5 1.3 0.7
v -0.4 1.3 0.7
v -0.7 1.3 0.6
v -0.6 1.3 0.6
v -0.5 1.3 0.6
v -0.4 1.3 0.6
v -0.7 1.3 0.5
v -0.6 1.3 0.5
v -0.7 1.3 0.2
v -0.6 1.3 0.2
v -0.7 1.3 0.1
v -0.6 1.3 0.1
v -0.4 1.4 0.8
v -0.3 1.4 0.8
v -0.7 1.4 0.7
v -0.6 1.4 0.7
v -0.4 1.4 0.7
v -0.3 1.4 0.7
v 0.5 1.4 0.7
v 0.6 1.4 0.7
v -0.7 1.4 0.6
v -0.6 1.4 0.6
v 0.5 1.4 0.6
v 0.6 1.4 0.6
v 0.7 1.4 0.6
v 0.6 1.4 0.5
v 0.7 1.4 0.5
v -0.7 1.4 0.1
v -0.6 1.4 0.1
v -0.7 1.4 0
v -0.6 1.4 0
v -0.2 1.4 -0.6
v 0.3 1.4 -0.6
v -0.2 1.4 -0.7
v 0.3 1.4 -0.7
v -0.6 1.5 0.6
v -0.5 1.5 0.6
v -0.6 1.5 0.5
v -0.5 1.5 0.5
v -0.7 1.5 0
v -0.6 1.5 0
v 0 1.5 0
v 0.7 1.5 0
v -0.7 1.5 -0.2
v -0.6 1.5 -0.2
v -0.5 1.5 -0.2
v 0.7 1.5 -0.2
v -0.6 1.5 -0.3
v -0.5 1.5 -0.3
v -0.4 1.5 -0.3
v 0 1.5 -0.3
v 0.5 1.5 -0.3
v 0.6 1.5 -0.3
v 0.7 1.5 -0.3
v -0.5 1.5 -0.4
v -0.4 1.5 -0.4
v -0.3 1.5 -0.4
v 0.5 1.5 -0.4
v 0.6 1.5 -0.4
v -0.4 1.5 -0.5
v -0.3 1.5 -0.5
v -0.2 1.5 -0.5
v -0.3 1.5 -0.6
v -0.2 1.5 -0.6
v -0.8 1.6 0.4
v -0.7 1.6 0.4
v 0.8 1.6 0.4
v 0.9 1.6 0.4
v 0.8 1.6 0
v 0.9 1.6 0
v -0.8 1.6 -0.1
v -0.7 1.6 -0.1
v -0.3 1.7 1
v 0.4 1.7 1
v -0.3 1.7 0.9
v 0.4 1.7 0.9
v -0.6 1.7 -0.1
v -0.1 1.7 -0.1
v -0.6 1.7 -0.2
v -0.5 1.7 -0.2
v -0.5 1.7 -0.3
v -0.4 1.7 -0.3
v 0.2 1.7 -0.3
v 0.3 1.7 -0.3
v -0.4 1.7 -0.4
v -0.3 1.7 -0.4
v -0.3 1.7 -0.5
v -0.2 1.7 -0.5
v 0.3 1.7 -0.5
v -0.2 1.7 -0.6
v -0.1 1.7 -0.6
v 0.2 1.7 -0.6
v 0.3 1.7 -0.6
v -0.1 1.8 1.1
v 0 1.8 1.1
v 0.2 1.8 1.1
v 0.3 1.8 1.1
v -0.1 1.8 1
v 0 1.8 1
v 0.2 1.8 1
v 0.3 1.8 1
v -0.1 1.8 -0.1
v 0 1.8 -0.1
v -0.1 1.8 -0.3
v 0 1.8 -0.3
v -0.1 1.9 -0.3
v 0.2 1.9 -0.3
v -0.1 1.9 -0.6
v 0.2 1.9 -0.6
v -0.3 2 0.8
v 0.4 2 0.8
v -0.4 2 0.7
v -0.3 2 0.7
v 0.4 2 0.7
v 0.5 2 0.7
v -0.5 2 0.6
v -0.4 2 0.6
v 0.5 2 0.6
v 0.6 2 0.6
v -0.6 2 0.5
v -0.5 2 0.5
v 0.6 2 0.5
v 0.7 2 0.5
v 0.7 2 0.4
v 0 2 0
v 0.7 2 0
v -0.6 2 -0.1
v 0 2 -0.1
v 0.3 2.1 -0.3
v 0.5 2.1 -0.3
v 0.4 2.1 -0.4
v 0.5 2.1 -0.4
v 0.3 2.1 -0.5
v 0.4 2.1 -0.5
v -0.4 2.2 1
v -0.2 2.2 1
v 0.3 2.2 1
v 0.5 2.2 1
v -0.4 2.2 0.9
v -0.3 2.2 0.9
v -0.2 2.2 0.9
v 0.3 2.2 0.9
v 0.4 2.2 0.9
v 0.5 2.2 0.9
v 0.4 2.2 0.8
v 0.5 2.2 0.8
v 0.9 2.2 0.4
v 1 2.2 0.4
v 0.9 2.2 0
v 1 2.2 0
v -0.9 2.3 0.6
v -0.7 2.3 0.6
v -0.6 2.3 0.6
v -0.9 2.3 0.5
v -0.7 2.3 0.5
v -0.6 2.3 0.5
v -0.8 2.3 0.4
v -0.7 2.3 0.4
v 1 2.3 0.4
v 1.1 2.3 0.4
v 1.1 2.3 0.3
v 1.2 2.3 0.3
v -0.6 2.3 0.2
v -0.5 2.3 0.2
v 0.5 2.3 0.2
v 0.7 2.3 0.2
v 1.2 2.3 0.2
v 1.3 2.3 0.2
v -0.6 2.3 0
v -0.5 2.3 0
v 0.5 2.3 0
v 0.6 2.3 0
v 1 2.3 0
v 1.3 2.3 0
v -0.8 2.3 -0.1
v -0.7 2.3 -0.1
v -0.9 2.3 -0.2
v -0.7 2.3 -0.2
v 0.6 2.3 -0.2
v 0.7 2.3 -0.2
v -1 2.4 0.6
v -0.9 2.4 0.6
v -1 2.4 0.5
v -0.9 2.4 0.5
v -1 2.4 -0.2
v -0.9 2.4 -0.2
v 0.7 2.4 -0.2
v 0.8 2.4 -0.2
v 0.7 2.4 -0.3
v 0.8 2.4 -0.3
v -1.1 2.5 0.5
v -1 2.5 0.5
v -1.1 2.5 0.4
v -1 2.5 0.4
v -1.1 2.5 0
v -1 2.5 0
v -1.1 2.5 -0.1
v -1 2.5 -0.1
v 0.8 2.6 0
v 1.1 2.6 0
v 1.2 2.6 0
v 0.8 2.6 -0.1
v 1.2 2.6 -0.1
v -0.3 1.5 1
v -0.2 1.5 1
v 0.3 1.5 1
v 0.4 1.5 1
v -0.3 1.5 0.9
v -0.2 1.5 0.9
v 0.3 1.5 0.9
v 0.4 1.5 0.9
v -0.2 1.6 1
v 0.3 1.6 1
v -0.2 1.6 0.9
v 0.3 1.6 0.9
v -0.7 1.7 0.6
v -0.6 1.7 0.6
v -0.7 1.7 0.5
v -0.6 1.7 0.5
v -0.1 2 1.1
v 0 2 1.1
v 0.2 2 1.1
v 0.3 2 1.1
v -0.1 2 1
v 0 2 1
v 0.2 2 1
v 0.3 2 1
v -0.3 2.1 1
v 0.4 2.1 1
v -0.3 2.1 0.9
v 0.4 2.1 0.9
v -0.1 2.2 0.8
v 0.2 2.2 0.8
v 0.3 2.2 0.8
v 0.4 2.2 0.8
v 0.2 2.2 0.7
v 0.4 2.2 0.7
v 0.5 2.2 0.7
v -0.5 2.2 0.6
v -0.1 2.2 0.6
v 0.5 2.2 0.6
v 0.6 2.2 0.6
v -0.5 2.2 0.5
v -0.2 2.2 0.5
v 0.1 2.2 0.5
v 0.2 2.2 0.5
v 0.4 2.2 0.5
v 0.6 2.2 0.5
v 0.1 2.2 0.3
v 0.7 2.2 0.3
v -0.6 2.2 0.2
v -0.5 2.2 0.2
v -0.3 2.2 0.2
v -0.2 2.2 0.2
v 0 2.2 0.2
v 0.3 2.2 0.2
v -0.3 2.2 0
v 0 2.2 0
v -0.6 2.2 -0.2
v -0.5 2.2 -0.2
v 0.6 2.2 -0.2
v 0.7 2.2 -0.2
v -0.4 2.2 -0.3
v -0.2 2.2 -0.3
v 0.3 2.2 -0.3
v 0.4 2.2 -0.3
v 0.5 2.2 -0.3
v 0.6 2.2 -0.3
v -0.4 2.2 -0.4
v -0.3 2.2 -0.4
v 0.4 2.2 -0.4
v 0.5 2.2 -0.4
v -0.3 2.2 -0.5
v -0.2 2.2 -0.5
v -0.7 2.3 0.7
v -0.6 2.3 0.7
v -0.3 2.3 0.7
v -0.1 2.3 0.7
v -0.7 2.3 0.6
v -0.6 2.3 0.6
v -0.3 2.3 0.6
v -0.1 2.3 0.6
v -0.6 2.3 0.5
v -0.5 2.3 0.5
v -0.2 2.3 0.5
v 0.1 2.3 0.5
v 0.2 2.3 0.5
v 0.4 2.3 0.5
v 0.6 2.3 0.5
v 0.7 2.3 0.5
v -0.5 2.3 0.4
v -0.3 2.3 0.4
v 0.7 2.3 0.4
v -0.6 2.3 0.3
v -0.5 2.3 0.3
v 0.1 2.3 0.3
v 0.2 2.3 0.3
v 0.4 2.3 0.3
v 0.7 2.3 0.3
v -0.3 2.3 0.2
v -0.2 2.3 0.2
v -0.2 2.3 -0.3
v 0 2.3 -0.3
v -0.2 2.3 -0.5
v -0.2 2.3 -0.6
v 0 2.3 -0.6
v -0.4 2.4 1
v -0.2 2.4 1
v 0.3 2.4 1
v 0.5 2.4 1
v -0.4 2.4 0.9
v -0.3 2.4 0.9
v -0.2 2.4 0.9
v 0.3 2.4 0.9
v 0.4 2.4 0.9
v 0.5 2.4 0.9
v 0.4 2.4 0.8
v 0.5 2.4 0.8
v 0.2 2.4 0.6
v 0.4 2.4 0.6
v -0.5 2.4 0.4
v -0.3 2.4 0.4
v -0.5 2.4 0.3
v 0.2 2.4 0.3
v 0.4 2.4 0.3
v -0.5 2.4 0
v -0.3 2.4 0
v 0.1 2.4 0
v 0.3 2.4 0
v 0 2.4 -0.3
v 0.1 2.4 -0.3
v 0.3 2.4 -0.3
v 0.1 2.4 -0.5
v 0.3 2.4 -0.5
v 0 2.4 -0.6
v 0.3 2.4 -0.6
v -0.3 2.5 0.9
v 0.3 2.5 0.9
v 0.4 2.5 0.9
v -0.4 2.5 0.8
v -0.3 2.5 0.8
v -0.1 2.5 0.8
v 0.3 2.5 0.8
v 0.4 2.5 0.8
v 0.5 2.5 0.8
v -0.5 2.5 0.7
v -0.4 2.5 0.7
v -0.3 2.5 0.7
v 0.4 2.5 0.7
v 0.5 2.5 0.7
v 0.6 2.5 0.7
v -1 2.5 0.6
v -0.5 2.5 0.6
v -0.4 2.5 0.6
v 0.5 2.5 0.6
v 0.6 2.5 0.6
v 0.7 2.5 0.6
v -1 2.5 0.5
v -0.6 2.5 0.5
v -0.5 2.5 0.5
v 0.6 2.5 0.5
v 0.7 2.5 0.5
v 0.8 2.5 0.5
v 0.7 2.5 0.4
v 0.8 2.5 0.4
v 1.1 2.5 0.4
v 0.8 2.5 0.3
v 1.1 2.5 0.3
v 1.2 2.5 0.3
v 0.7 2.5 0.2
v 0.8 2.5 0.2
v 1.1 2.5 0.2
v 1.2 2.5 0.2
v 1.3 2.5 0.2
v 0 2.5 0.1
v 0.3 2.5 0.1
v -0.5 2.5 0
v 0 2.5 0
v 0.1 2.5 0
v 0.3 2.5 0
v 1.2 2.5 0
v 1.3 2.5 0
v -1 2.5 -0.1
v -0.6 2.5 -0.1
v -1 2.5 -0.2
v -0.6 2.5 -0.2
v -0.5 2.5 -0.2
v -0.4 2.5 -0.2
v 0 2.5 -0.2
v 0.1 2.5 -0.2
v -0.6 2.5 -0.3
v -0.5 2.5 -0.3
v -0.4 2.5 -0.3
v 0.1 2.5 -0.3
v 0.4 2.5 -0.3
v 0.5 2.5 -0.3
v 0.6 2.5 -0.3
v -0.5 2.5 -0.4
v -0.4 2.5 -0.4
v -0.3 2.5 -0.4
v 0.4 2.5 -0.4
v 0.5 2.5 -0.4
v 0.6 2.5 -0.4
v -0.4 2.5 -0.5
v -0.3 2.5 -0.5
v -0.2 2.5 -0.5
v 0.1 2.5 -0.5
v 0.3 2.5 -0.5
v 0.4 2.5 -0.5
v 0.5 2.5 -0.5
v -0.3 2.5 -0.6
v -0.2 2.5 -0.6
v 0.3 2.5 -0.6
v 0.4 2.5 -0.6
v -0.2 2.5 -0.7
v 0.3 2.5 -0.7
v -0.3 2.6 0.8
v -0.2 2.6 0.8
v -0.3 2.6 0.7
v -0.2 2.6 0.7
v -0.8 2.6 0.5
v -0.6 2.6 0.5
v -1.1 2.6 0.4
v -0.9 2.6 0.4
v -0.8 2.6 0.4
v -0.6 2.6 0.4
v -0.6 2.6 0.3
v 0.8 2.6 0.3
v 1.1 2.6 0.3
v 0.2 2.6 0.2
v 0.3 2.6 0.2
v 0.6 2.6 0.2
v 0.8 2.6 0.2
v 1.1 2.6 0.2
v 1.2 2.6 0.2
v 0.2 2.6 0.1
v 0.3 2.6 0.1
v 1.1 2.6 0.1
v 1.2 2.6 0.1
v -1.1 2.6 0
v -0.9 2.6 0
v -0.7 2.6 0
v -0.6 2.6 0
v 0.6 2.6 0
v 0.8 2.6 0
v 1.1 2.6 0
v -1.1 2.6 -0.1
v -0.9 2.6 -0.1
v -0.2 2.7 0.8
v -0.1 2.7 0.8
v -0.2 2.7 0.7
v -0.1 2.7 0.7
v 0.2 2.7 0.7
v 0.3 2.7 0.7
v 0.2 2.7 0.6
v 0.3 2.7 0.6
v -0.9 2.7 0.5
v -0.8 2.7 0.5
v -0.9 2.7 0.4
v -0.8 2.7 0.4
v 0.1 2.7 0.2
v 0.2 2.7 0.2
v 0.5 2.7 0.2
v 0.6 2.7 0.2
v 0.1 2.7 0.1
v 0.2 2.7 0.1
v 1.1 2.7 0.1
v 1.2 2.7 0.1
v -0.9 2.7 0
v -0.8 2.7 0
v 0.5 2.7 0
v 0.6 2.7 0
v 0.8 2.7 0
v 0.9 2.7 0
v 1 2.7 0
v 1.1 2.7 0
v -0.9 2.7 -0.1
v -0.8 2.7 -0.1
v 0.7 2.7 -0.1
v 0.8 2.7 -0.1
v 0.9 2.7 -0.1
v 1 2.7 -0.1
v 1.1 2.7 -0.1
v 1.2 2.7 -0.1
v -0.3 2.7 -0.2
v 0 2.7 -0.2
v 0.6 2.7 -0.2
v 0.7 2.7 -0.2
v -0.3 2.7 -0.3
v 0 2.7 -0.3
v 0.6 2.7 -0.3
v 0.7 2.7 -0.3
v -0.4 2.8 0.7
v -0.3 2.8 0.7
v -0.4 2.8 0.6
v -0.3 2.8 0.6
v -1 2.8 0.5
v -0.9 2.8 0.5
v -1 2.8 0.4
v -0.9 2.8 0.4
v -0.6 2.8 0.3
v -0.5 2.8 0.3
v -0.6 2.8 0.2
v -0.5 2.8 0.2
v 0 2.8 0.2
v 0.1 2.8 0.2
v 0 2.8 0.1
v 0.1 2.8 0.1
v -0.8 2.8 0
v -0.7 2.8 0
v 0.8 2.8 0
v 0.9 2.8 0
v -0.8 2.8 -0.1
v -0.7 2.8 -0.1
v 0.7 2.8 -0.1
v 0.8 2.8 -0.1
v 0.9 2.8 -0.1
v 0.7 2.8 -0.2
v 0.8 2.8 -0.2
v -1.1 2.9 0.5
v -1 2.9 0.5
v -1.1 2.9 0.4
v -1 2.9 0.4
v -0.6 2.9 0.2
v -0.5 2.9 0.2
v -0.6 2.9 0.1
v -0.5 2.9 0.1
v -0.7 2.9 0
v -0.6 2.9 0
v 1 2.9 0
v 1.1 2.9 0
v -0.7 2.9 -0.1
v -0.6 2.9 -0.1
v 1 2.9 -0.1
v 1.1 2.9 -0.1
v -0.4 2.9 -0.2
v -0.3 2.9 -0.2
v 0 2.9 -0.2
v 0.1 2.9 -0.2
v -0.4 2.9 -0.3
v -0.3 2.9 -0.3
v 0 2.9 -0.3
v 0.1 2.9 -0.3
v 0.3 3 0.7
v 0.4 3 0.7
v 0.3 3 0.6
v 0.4 3 0.6
v -0.6 3 0.1
v -0.5 3 0.1
v -0.6 3 0
v -0.5 3 0
v 0.7 3 -0.2
v 0.8 3 -0.2
v 0.7 3 -0.3
v 0.8 3 -0.3

# faces
f 5/1/1 2/1/1 1/1/1
f 5/2/1 3/2/1 2/2/1
f 6/1/1 4/1/1 3/1/1
f 6/2/1 3/2/1 5/2/1
f 7/1/1 4/1/1 6/1/1
f 8/1/1 5/1/1 1/1/1
f 9/1/1 5/1/1 8/1/1
f 10/3/1 9/3/1 8/3/1
f 11/3/1 9/3/1 10/3/1
f 15/2/1 13/2/1 12/2/1
f 16/1/1 14/1/1 13/1/1
f 16/2/1 13/2/1 15/2/1
f 17/1/1 14/1/1 16/1/1
f 18/1/1 14/1/1 17/1/1
f 19/1/1 14/1/1 18/1/1
f 20/1/1 14/1/1 19/1/1
f 24/3/1 22/3/1 21/3/1
f 25/1/1 23/1/1 22/1/1
f 25/3/1 22/3/1 24/3/1
f 26/1/1 23/1/1 25/1/1
f 29/3/1 28/3/1 27/3/1
f 30/3/1 28/3/1 29/3/1
f 33/1/1 32/1/1 31/1/1
f 34/1/1 32/1/1 33/1/1
f 37/3/1 36/3/1 35/3/1
f 38/3/1 36/3/1 37/3/1
f 42/1/1 40/1/1 39/1/1
f 43/1/1 40/1/1 42/1/1
f 46/1/1 42/1/1 41/1/1
f 46/1/1 44/1/1 43/1/1
f 46/1/1 43/1/1 42/1/1
f 47/1/1 44/1/1 46/1/1
f 50/1/1 46/1/1 45/1/1
f 50/1/1 48/1/1 47/1/1
f 50/1/1 47/1/1 46/1/1
f 51/1/1 48/1/1 50/1/1
f 53/1/1 50/1/1 49/1/1
f 53/1/1 52/1/1 51/1/1
f 53/1/1 51/1/1 50/1/1
f 55/1/1 53/1/1 49/1/1
f 55/1/1 54/1/1 53/1/1
f 56/1/1 54/1/1 55/1/1
f 57/1/1 55/1/1 49/1/1
f 58/1/1 55/1/1 57/1/1
f 59/1/1 57/1/1 49/1/1
f 60/1/1 57/1/1 59/1/1
f 61/1/1 55/1/1 58/1/1
f 62/1/1 55/1/1 61/1/1
f 63/1/1 54/1/1 56/1/1
f 64/1/1 54/1/1 63/1/1
f 67/1/1 66/1/1 65/1/1
f 68/1/1 66/1/1 67/1/1
f 73/1/1 72/1/1 71/1/1
f 74/1/1 72/1/1 73/1/1
f 75/1/1 70/1/1 69/1/1
f 76/1/1 70/1/1 75/1/1
f 79/1/1 78/1/1 77/1/1
f 80/1/1 78/1/1 79/1/1
f 81/1/1 78/1/1 80/1/1
f 82/1/1 78/1/1 81/1/1
f 83/1/1 78/1/1 82/1/1
f 84/3/1 83/3/1 82/3/1
f 85/3/1 83/3/1 84/3/1
f 88/1/1 87/1/1 86/1/1
f 93/1/1 88/1/1 86/1/1
f 96/1/1 92/1/1 91/1/1
f 97/1/1 92/1/1 96/1/1
f 98/1/1 92/1/1 97/1/1
f 99/1/1 90/1/1 89/1/1
f 100/1/1 90/1/1 99/1/1
f 101/1/1 93/1/1 86/1/1
f 102/1/1 93/1/1 101/1/1
f 103/1/1 95/1/1 94/1/1
f 104/1/1 95/1/1 103/1/1
f 105/3/1 102/3/1 101/3/1
f 106/3/1 102/3/1 105/3/1
f 107/2/1 98/2/1 97/2/1
f 108/2/1 98/2/1 107/2/1
f 109/2/1 100/2/1 99/2/1
f 110/2/1 100/2/1 109/2/1
f 117/1/1 114/1/1 113/1/1
f 118/4/1 116/4/1 115/4/1
f 119/4/1 116/4/1 118/4/1
f 120/1/1 112/1/1 111/1/1
f 121/1/1 112/1/1 120/1/1
f 122/3/1 121/3/1 120/3/1
f 123/3/1 121/3/1 122/3/1
f 127/1/1 114/1/1 117/1/1
f 128/1/1 114/1/1 127/1/1
f 129/1/1 124/1/1 123/1/1
f 130/1/1 124/1/1 129/1/1
f 131/1/1 126/1/1 125/1/1
f 132/1/1 126/1/1 131/1/1
f 136/1/1 134/1/1 133/1/1
f 137/1/1 134/1/1 136/1/1
f 138/3/1 136/3/1 135/3/1
f 139/1/1 137/1/1 136/1/1
f 139/3/1 136/3/1 138/3/1
f 143/1/1 137/1/1 139/1/1
f 144/1/1 143/1/1 142/1/1
f 145/1/1 137/1/1 143/1/1
f 145/1/1 143/1/1 144/1/1
f 146/1/1 137/1/1 145/1/1
f 147/1/1 137/1/1 146/1/1
f 148/1/1 137/1/1 147/1/1
f 149/1/1 148/1/1 147/1/1
f 150/1/1 148/1/1 149/1/1
f 152/1/1 141/1/1 140/1/1
f 153/1/1 141/1/1 152/1/1
f 154/1/1 151/1/1 150/1/1
f 155/1/1 151/1/1 154/1/1
f 159/1/1 157/1/1 156/1/1
f 160/1/1 157/1/1 159/1/1
f 161/3/1 159/3/1 158/3/1
f 162/3/1 159/3/1 161/3/1
f 167/1/1 164/1/1 163/1/1
f 168/3/1 166/3/1 165/3/1
f 169/3/1 166/3/1 168/3/1
f 172/1/1 171/1/1 170/1/1
f 173/1/1 171/1/1 172/1/1
f 174/1/1 164/1/1 167/1/1
f 175/1/1 164/1/1 174/1/1
f 178/1/1 177/1/1 176/1/1
f 179/1/1 177/1/1 178/1/1
f 183/1/1 181/1/1 180/1/1
f 184/1/1 181/1/1 183/1/1
f 185/3/1 183/3/1 182/3/1
f 186/3/1 183/3/1 185/3/1
f 189/4/1 188/4/1 187/4/1
f 190/4/1 188/4/1 189/4/1
f 194/1/1 192/1/1 191/1/1
f 195/1/1 192/1/1 194/1/1
f 196/3/1 194/3/1 193/3/1
f 197/3/1 194/3/1 196/3/1
f 200/1/1 199/1/1 198/1/1
f 201/1/1 199/1/1 200/1/1
f 202/1/1 200/1/1 198/1/1
f 203/1/1 200/1/1 202/1/1
f 208/1/1 207/1/1 206/1/1
f 209/1/1 207/1/1 208/1/1
f 210/1/1 205/1/1 204/1/1
f 211/1/1 205/1/1 210/1/1
f 214/1/1 210/1/1 204/1/1
f 215/1/1 210/1/1 214/1/1
f 216/1/1 213/1/1 212/1/1
f 217/1/1 213/1/1 216/1/1
f 220/1/1 219/1/1 218/1/1
f 221/1/1 219/1/1 220/1/1
f 224/1/1 223/1/1 222/1/1
f 225/1/1 223/1/1 224/1/1
f 230/1/1 227/1/1 226/1/1
f 231/1/1 227/1/1 230/1/1
f 232/4/1 229/4/1 228/4/1
f 233/4/1 229/4/1 232/4/1
f 236/1/1 235/1/1 234/1/1
f 238/1/1 236/1/1 234/1/1
f 238/1/1 237/1/1 236/1/1
f 239/1/1 237/1/1 238/1/1
f 240/1/1 238/1/1 234/1/1
f 241/1/1 238/1/1 240/1/1
f 242/3/1 241/3/1 240/3/1
f 243/3/1 241/3/1 242/3/1
f 246/1/1 245/1/1 244/1/1
f 247/1/1 246/1/1 244/1/1
f 248/1/1 246/1/1 247/1/1
f 251/4/1 250/4/1 249/4/1
f 252/4/1 250/4/1 251/4/1
f 255/1/1 254/1/1 253/1/1
f 256/1/1 254/1/1 255/1/1
f 259/3/1 258/3/1 257/3/1
f 260/3/1 258/3/1 259/3/1
f 265/1/1 262/1/1 261/1/1
f 266/1/1 262/1/1 265/1/1
f 267/1/1 264/1/1 263/1/1
f 268/1/1 264/1/1 267/1/1
f 271/1/1 270/1/1 269/1/1
f 272/1/1 270/1/1 271/1/1
f 273/3/1 272/3/1 271/3/1
f 274/3/1 272/3/1 273/3/1
f 279/1/1 276/1/1 275/1/1
f 280/1/1 276/1/1 279/1/1
f 281/1/1 278/1/1 277/1/1
f 282/1/1 278/1/1 281/1/1
f 289/1/1 284/1/1 283/1/1
f 290/1/1 284/1/1 289/1/1
f 291/1/1 284/1/1 290/1/1
f 292/1/1 286/1/1 285/1/1
f 293/1/1 286/1/1 292/1/1
f 294/1/1 288/1/1 287/1/1
f 295/1/1 288/1/1 294/1/1
f 298/1/1 297/1/1 296/1/1
f 299/1/1 297/1/1 298/1/1
f 304/1/1 301/1/1 300/1/1
f 306/1/1 303/1/1 302/1/1
f 307/1/1 304/1/1 300/1/1
f 308/1/1 304/1/1 307/1/1
f 309/1/1 306/1/1 305/1/1
f 309/1/1 303/1/1 306/1/1
f 310/1/1 309/1/1 305/1/1
f 311/1/1 309/1/1 310/1/1
f 312/2/1 311/2/1 310/2/1
f 313/1/1 309/1/1 311/1/1
f 313/2/1 311/2/1 312/2/1
f 314/1/1 309/1/1 313/1/1
f 318/1/1 316/1/1 315/1/1
f 319/1/1 316/1/1 318/1/1
f 322/1/1 318/1/1 317/1/1
f 322/1/1 320/1/1 319/1/1
f 322/1/1 319/1/1 318/1/1
f 323/1/1 320/1/1 322/1/1
f 326/1/1 322/1/1 321/1/1
f 326/1/1 324/1/1 323/1/1
f 326/1/1 323/1/1 322/1/1
f 327/1/1 324/1/1 326/1/1
f 329/3/1 326/3/1 325/3/1
f 330/1/1 328/1/1 327/1/1
f 330/1/1 327/1/1 326/1/1
f 331/1/1 328/1/1 330/1/1
f 332/3/1 326/3/1 329/3/1
f 333/1/1 330/1/1 326/1/1
f 333/3/1 326/3/1 332/3/1
f 334/1/1 330/1/1 333/1/1
f 339/1/1 336/1/1 335/1/1
f 340/1/1 336/1/1 339/1/1
f 341/1/1 336/1/1 340/1/1
f 342/3/1 338/3/1 337/3/1
f 343/1/1 339/1/1 338/1/1
f 343/3/1 338/3/1 342/3/1
f 343/1/1 340/1/1 339/1/1
f 344/1/1 340/1/1 343/1/1
f 348/1/1 346/1/1 345/1/1
f 348/1/1 347/1/1 346/1/1
f 349/1/1 347/1/1 348/1/1
f 350/1/1 347/1/1 349/1/1
f 351/1/1 347/1/1 350/1/1
f 354/2/1 353/2/1 352/2/1
f 355/2/1 353/2/1 354/2/1
f 358/3/1 357/3/1 356/3/1
f 359/3/1 357/3/1 358/3/1
f 362/1/1 361/1/1 360/1/1
f 363/1/1 361/1/1 362/1/1
f 366/1/1 365/1/1 364/1/1
f 367/1/1 365/1/1 366/1/1
f 368/3/2 369/3/2 370/3/2
f 370/3/2 369/3/2 371/3/2
f 372/3/2 373/3/2 374/3/2
f 374/3/2 373/3/2 375/3/2
f 376/3/2 377/3/2 378/3/2
f 378/3/2 377/3/2 379/3/2
f 380/1/2 381/1/2 383/1/2
f 383/1/2 381/1/2 384/1/2
f 382/1/2 383/1/2 387/1/2
f 384/1/2 385/1/2 387/1/2
f 383/1/2 384/1/2 387/1/2
f 387/1/2 385/1/2 388/1/2
f 386/1/2 387/1/2 391/1/2
f 388/1/2 389/1/2 391/1/2
f 387/1/2 388/1/2 391/1/2
f 391/1/2 389/1/2 392/1/2
f 390/1/2 391/1/2 394/1/2
f 392/1/2 393/1/2 394/1/2
f 391/1/2 392/1/2 394/1/2
f 394/1/2 393/1/2 395/1/2
f 395/1/2 393/1/2 396/1/2
f 396/1/2 397/1/2 398/1/2
f 395/1/2 396/1/2 398/1/2
f 398/1/2 397/1/2 399/1/2
f 395/1/2 398/1/2 400/1/2
f 400/1/2 398/1/2 401/1/2
f 390/1/2 394/1/2 404/1/2
f 404/1/2 394/1/2 405/1/2
f 402/1/2 403/1/2 408/1/2
f 408/1/2 403/1/2 409/1/2
f 406/1/2 407/1/2 410/1/2
f 410/1/2 407/1/2 411/1/2
f 411/1/2 407/1/2 412/1/2
f 409/1/2 403/1/2 413/1/2
f 413/1/2 403/1/2 414/1/2
f 410/1/2 411/1/2 415/1/2
f 411/2/2 412/2/2 416/2/2
f 415/1/2 411/1/2 416/1/2
f 416/2/2 412/2/2 417/2/2
f 409/1/2 413/1/2 418/1/2
f 418/1/2 413/1/2 419/1/2
f 422/1/2 423/1/2 424/1/2
f 424/1/2 423/1/2 425/1/2
f 420/1/2 421/1/2 426/1/2
f 426/1/2 421/1/2 427/1/2
f 428/1/2 429/1/2 430/1/2
f 430/1/2 429/1/2 431/1/2
f 430/2/2 431/2/2 432/2/2
f 432/2/2 431/2/2 435/2/2
f 435/2/2 431/2/2 436/2/2
f 433/1/2 434/1/2 437/1/2
f 433/1/2 437/1/2 438/1/2
f 438/1/2 437/1/2 439/1/2
f 439/1/2 437/1/2 440/1/2
f 440/1/2 437/1/2 441/1/2
f 441/1/2 437/1/2 442/1/2
f 441/3/2 442/3/2 443/3/2
f 443/3/2 442/3/2 444/3/2
f 445/1/2 446/1/2 447/1/2
f 448/1/2 449/1/2 450/1/2
f 450/1/2 449/1/2 451/1/2
f 447/1/2 446/1/2 452/1/2
f 452/1/2 446/1/2 453/1/2
f 454/1/2 455/1/2 456/1/2
f 456/1/2 455/1/2 457/1/2
f 456/2/2 457/2/2 458/2/2
f 458/2/2 457/2/2 459/2/2
f 462/1/2 463/1/2 464/1/2
f 464/1/2 463/1/2 465/1/2
f 460/1/2 461/1/2 466/1/2
f 466/1/2 461/1/2 467/1/2
f 468/1/2 469/1/2 475/1/2
f 472/1/2 473/1/2 476/1/2
f 476/1/2 473/1/2 477/1/2
f 474/1/2 475/1/2 478/1/2
f 475/1/2 469/1/2 479/1/2
f 478/1/2 475/1/2 479/1/2
f 476/3/2 477/3/2 480/3/2
f 480/3/2 477/3/2 481/3/2
f 470/1/2 471/1/2 482/1/2
f 482/1/2 471/1/2 483/1/2
f 480/1/2 481/1/2 484/1/2
f 484/1/2 481/1/2 487/1/2
f 487/1/2 481/1/2 488/1/2
f 485/1/2 486/1/2 489/1/2
f 489/1/2 486/1/2 490/1/2
f 491/1/2 492/1/2 493/1/2
f 493/1/2 492/1/2 494/1/2
f 497/1/2 498/1/2 499/1/2
f 499/1/2 498/1/2 500/1/2
f 495/4/2 496/4/2 503/4/2
f 503/4/2 496/4/2 504/4/2
f 501/1/2 502/1/2 505/1/2
f 505/1/2 502/1/2 506/1/2
f 507/1/2 508/1/2 509/1/2
f 509/1/2 508/1/2 510/1/2
f 510/1/2 508/1/2 511/1/2
f 511/1/2 508/1/2 512/1/2
f 513/1/2 514/1/2 515/1/2
f 515/1/2 514/1/2 516/1/2
f 513/1/2 515/1/2 517/1/2
f 517/1/2 515/1/2 518/1/2
f 518/1/2 515/1/2 519/1/2
f 520/4/2 521/4/2 522/4/2
f 522/4/2 521/4/2 523/4/2
f 524/1/2 525/1/2 527/1/2
f 527/1/2 525/1/2 528/1/2
f 526/3/2 527/3/2 529/3/2
f 529/3/2 527/3/2 530/3/2
f 531/1/2 532/1/2 533/1/2
f 533/1/2 532/1/2 534/1/2
f 534/1/2 532/1/2 535/1/2
f 536/1/2 537/1/2 538/1/2
f 538/1/2 537/1/2 539/1/2
f 534/1/2 535/1/2 540/1/2
f 540/1/2 535/1/2 541/1/2
f 542/1/2 543/1/2 545/1/2
f 545/1/2 543/1/2 546/1/2
f 544/3/2 545/3/2 547/3/2
f 547/3/2 545/3/2 548/3/2
f 549/1/2 550/1/2 551/1/2
f 551/1/2 550/1/2 552/1/2
f 553/1/2 554/1/2 556/1/2
f 556/1/2 554/1/2 557/1/2
f 555/3/2 556/3/2 558/3/2
f 558/3/2 556/3/2 559/3/2
f 562/3/2 563/3/2 564/3/2
f 564/3/2 563/3/2 565/3/2
f 568/4/2 569/4/2 570/4/2
f 570/4/2 569/4/2 571/4/2
f 566/1/2 567/1/2 572/1/2
f 572/1/2 567/1/2 573/1/2
f 574/1/2 575/1/2 576/1/2
f 576/1/2 575/1/2 577/1/2
f 574/1/2 576/1/2 578/1/2
f 578/1/2 576/1/2 579/1/2
f 560/1/2 561/1/2 580/1/2
f 580/1/2 561/1/2 581/1/2
f 574/1/2 578/1/2 582/1/2
f 582/1/2 578/1/2 583/1/2
f 584/1/2 585/1/2 589/1/2
f 589/1/2 585/1/2 590/1/2
f 586/1/2 587/1/2 591/1/2
f 588/3/2 589/3/2 592/3/2
f 589/1/2 590/1/2 593/1/2
f 592/3/2 589/3/2 593/3/2
f 593/1/2 590/1/2 595/1/2
f 594/1/2 595/1/2 596/1/2
f 595/1/2 590/1/2 597/1/2
f 596/1/2 595/1/2 597/1/2
f 597/1/2 590/1/2 598/1/2
f 598/1/2 590/1/2 599/1/2
f 600/1/2 601/1/2 604/1/2
f 600/1/2 604/1/2 608/1/2
f 604/1/2 605/1/2 608/1/2
f 608/1/2 605/1/2 609/1/2
f 609/1/2 605/1/2 610/1/2
f 606/3/2 607/3/2 611/3/2
f 611/3/2 607/3/2 612/3/2
f 608/1/2 609/1/2 613/1/2
f 613/1/2 609/1/2 614/1/2
f 602/1/2 603/1/2 615/1/2
f 615/1/2 603/1/2 616/1/2
f 591/1/2 587/1/2 617/1/2
f 617/1/2 587/1/2 618/1/2
f 613/3/2 614/3/2 619/3/2
f 619/3/2 614/3/2 620/3/2
f 621/1/2 622/1/2 625/1/2
f 623/1/2 624/1/2 626/1/2
f 621/1/2 625/1/2 629/1/2
f 627/4/2 628/4/2 630/4/2
f 628/1/2 629/1/2 631/1/2
f 630/4/2 628/4/2 631/4/2
f 629/1/2 625/1/2 632/1/2
f 631/1/2 629/1/2 632/1/2
f 632/1/2 625/1/2 633/1/2
f 632/3/2 633/3/2 634/3/2
f 634/3/2 633/3/2 635/3/2
f 626/1/2 624/1/2 636/1/2
f 636/1/2 624/1/2 637/1/2
f 638/1/2 639/1/2 642/1/2
f 642/1/2 639/1/2 643/1/2
f 640/1/2 641/1/2 644/1/2
f 644/1/2 641/1/2 645/1/2
f 646/1/2 647/1/2 648/1/2
f 648/1/2 647/1/2 649/1/2
f 652/1/2 653/1/2 654/1/2
f 654/1/2 653/1/2 655/1/2
f 650/1/2 651/1/2 656/1/2
f 656/1/2 651/1/2 657/1/2
f 658/1/2 659/1/2 661/1/2
f 661/1/2 659/1/2 662/1/2
f 660/1/2 661/1/2 665/1/2
f 662/1/2 663/1/2 665/1/2
f 661/1/2 662/1/2 665/1/2
f 665/1/2 663/1/2 666/1/2
f 664/1/2 665/1/2 669/1/2
f 666/1/2 667/1/2 669/1/2
f 665/1/2 666/1/2 669/1/2
f 669/1/2 667/1/2 670/1/2
f 668/3/2 669/3/2 672/3/2
f 670/1/2 671/1/2 672/1/2
f 669/1/2 670/1/2 672/1/2
f 672/1/2 671/1/2 673/1/2
f 673/1/2 671/1/2 674/1/2
f 668/3/2 672/3/2 676/3/2
f 676/3/2 672/3/2 677/3/2
f 674/1/2 675/1/2 678/1/2
f 673/1/2 674/1/2 678/1/2
f 678/1/2 675/1/2 679/1/2
f 679/1/2 675/1/2 680/1/2
f 680/1/2 675/1/2 681/1/2
f 680/2/2 681/2/2 682/2/2
f 681/1/2 675/1/2 683/1/2
f 682/2/2 681/2/2 683/2/2
f 682/1/2 683/1/2 684/1/2
f 683/1/2 675/1/2 685/1/2
f 684/1/2 683/1/2 685/1/2
f 685/1/2 675/1/2 686/1/2
f 686/1/2 675/1/2 687/1/2
f 688/1/2 689/1/2 690/1/2
f 690/1/2 689/1/2 691/1/2
f 692/3/2 693/3/2 694/3/2
f 694/3/2 693/3/2 695/3/2
f 696/2/2 697/2/2 698/2/2
f 698/2/2 697/2/2 699/2/2
f 700/1/2 701/1/2 702/1/2
f 702/1/2 701/1/2 703/1/2
f 703/2/2 704/2/2 705/2/2
f 705/2/2 704/2/2 706/2/2
f 707/1/2 708/1/2 709/1/2
f 709/1/2 708/1/2 710/1/2
f 711/1/2 712/1/2 713/1/2
f 713/1/2 712/1/2 714/1/2
f 714/1/2 715/1/2 716/1/2
f 716/1/2 715/1/2 717/1/2
f 717/1/2 715/1/2 718/1/2
f 718/1/2 719/1/2 720/1/2
f 717/1/2 718/1/2 720/1/2
f 720/1/2 719/1/2 721/1/2
f 722/1/2 723/1/2 724/1/2
f 724/1/2 723/1/2 725/1/2
f 728/4/3 727/4/3 726/4/3
f 729/4/3 727/4/3 728/4/3
f 732/4/3 731/4/3 730/4/3
f 733/4/3 731/4/3 732/4/3
f 741/3/3 737/3/3 736/3/3
f 742/3/3 737/3/3 741/3/3
f 744/4/3 735/4/3 734/4/3
f 745/4/3 735/4/3 744/4/3
f 747/3/3 743/3/3 742/3/3
f 747/3/3 741/3/3 740/3/3
f 747/3/3 742/3/3 741/3/3
f 748/1/3 739/1/3 738/1/3
f 749/1/3 739/1/3 748/1/3
f 751/3/3 747/3/3 746/3/3
f 752/1/3 748/1/3 738/1/3
f 753/1/3 739/1/3 749/1/3
f 754/3/3 751/3/3 750/3/3
f 755/3/3 747/3/3 751/3/3
f 755/3/3 751/3/3 754/3/3
f 756/3/3 747/3/3 755/3/3
f 757/3/3 743/3/3 747/3/3
f 757/3/3 747/3/3 756/3/3
f 758/1/3 752/1/3 738/1/3
f 758/1/3 753/1/3 752/1/3
f 759/1/3 739/1/3 753/1/3
f 759/1/3 753/1/3 758/1/3
f 760/3/3 743/3/3 757/3/3
f 761/3/3 743/3/3 760/3/3
f 762/3/3 743/3/3 761/3/3
f 763/3/3 743/3/3 762/3/3
f 764/1/3 758/1/3 738/1/3
f 765/1/3 739/1/3 759/1/3
f 768/3/3 762/3/3 761/3/3
f 769/3/3 762/3/3 768/3/3
f 770/1/3 764/1/3 738/1/3
f 770/1/3 765/1/3 764/1/3
f 771/1/3 739/1/3 765/1/3
f 771/1/3 765/1/3 770/1/3
f 772/4/3 767/4/3 766/4/3
f 773/4/3 767/4/3 772/4/3
f 783/1/3 775/1/3 774/1/3
f 784/1/3 775/1/3 783/1/3
f 785/1/3 777/1/3 776/1/3
f 786/1/3 777/1/3 785/1/3
f 787/1/3 779/1/3 778/1/3
f 788/1/3 781/1/3 780/1/3
f 790/1/3 783/1/3 782/1/3
f 791/1/3 783/1/3 790/1/3
f 792/1/3 787/1/3 778/1/3
f 792/3/3 788/3/3 787/3/3
f 793/1/3 781/1/3 788/1/3
f 793/3/3 788/3/3 792/3/3
f 795/1/3 790/1/3 789/1/3
f 796/1/3 790/1/3 795/1/3
f 797/1/3 795/1/3 794/1/3
f 798/1/3 795/1/3 797/1/3
f 800/1/3 799/1/3 798/1/3
f 801/1/3 799/1/3 800/1/3
f 803/1/3 793/1/3 792/1/3
f 803/1/3 792/1/3 778/1/3
f 804/1/3 781/1/3 793/1/3
f 804/1/3 793/1/3 803/1/3
f 805/1/3 802/1/3 801/1/3
f 806/1/3 802/1/3 805/1/3
f 809/1/3 777/1/3 786/1/3
f 810/1/3 803/1/3 778/1/3
f 810/3/3 804/3/3 803/3/3
f 811/1/3 781/1/3 804/1/3
f 811/3/3 804/3/3 810/3/3
f 812/1/3 781/1/3 811/1/3
f 813/1/3 807/1/3 806/1/3
f 814/1/3 807/1/3 813/1/3
f 815/1/3 809/1/3 808/1/3
f 816/1/3 777/1/3 809/1/3
f 816/1/3 809/1/3 815/1/3
f 817/1/3 810/1/3 778/1/3
f 818/1/3 810/1/3 817/1/3
f 819/3/3 812/3/3 811/3/3
f 820/3/3 812/3/3 819/3/3
f 824/1/3 822/1/3 821/1/3
f 825/3/3 823/3/3 822/3/3
f 825/1/3 822/1/3 824/1/3
f 826/3/3 823/3/3 825/3/3
f 828/1/3 827/1/3 826/1/3
f 830/1/3 828/1/3 826/1/3
f 830/1/3 829/1/3 828/1/3
f 831/1/3 829/1/3 830/1/3
f 836/1/3 833/1/3 832/1/3
f 837/1/3 833/1/3 836/1/3
f 838/3/3 835/3/3 834/3/3
f 839/3/3 835/3/3 838/3/3
f 842/1/3 841/1/3 840/1/3
f 843/1/3 841/1/3 842/1/3
f 847/1/3 845/1/3 844/1/3
f 848/1/3 845/1/3 847/1/3
f 849/3/3 846/3/3 845/3/3
f 849/1/3 845/1/3 848/1/3
f 850/3/3 846/3/3 849/3/3
f 852/1/3 851/1/3 850/1/3
f 853/1/3 851/1/3 852/1/3
f 854/1/3 851/1/3 853/1/3
f 858/3/3 857/3/3 856/3/3
f 860/1/3 856/1/3 855/1/3
f 861/1/3 856/1/3 860/1/3
f 862/3/3 858/3/3 856/3/3
f 862/1/3 856/1/3 861/1/3
f 862/3/3 859/3/3 858/3/3
f 863/3/3 859/3/3 862/3/3
f 867/1/3 865/1/3 864/1/3
f 867/1/3 866/1/3 865/1/3
f 868/1/3 866/1/3 867/1/3
f 872/2/3 870/2/3 869/2/3
f 875/3/3 872/3/3 871/3/3
f 876/1/3 874/1/3 873/1/3
f 877/1/3 874/1/3 876/1/3
f 879/3/3 872/3/3 875/3/3
f 880/2/3 870/2/3 872/2/3
f 880/3/3 872/3/3 879/3/3
f 881/1/3 879/1/3 878/1/3
f 882/2/3 880/2/3 879/2/3
f 882/1/3 879/1/3 881/1/3
f 883/2/3 870/2/3 880/2/3
f 883/2/3 880/2/3 882/2/3
f 884/2/3 870/2/3 883/2/3
f 887/1/3 886/1/3 885/1/3
f 888/1/3 886/1/3 887/1/3
f 892/1/3 890/1/3 889/1/3
f 893/1/3 890/1/3 892/1/3
f 894/3/3 891/3/3 890/3/3
f 894/1/3 890/1/3 893/1/3
f 895/3/3 891/3/3 894/3/3
f 896/1/3 893/1/3 892/1/3
f 897/3/3 894/3/3 893/3/3
f 897/1/3 893/1/3 896/1/3
f 898/3/3 894/3/3 897/3/3
f 899/1/3 896/1/3 892/1/3
f 899/3/3 897/3/3 896/3/3
f 900/3/3 897/3/3 899/3/3
f 905/1/3 902/1/3 901/1/3
f 906/1/3 902/1/3 905/1/3
f 907/1/3 904/1/3 903/1/3
f 908/1/3 904/1/3 907/1/3
f 909/1/3 899/1/3 892/1/3
f 910/1/3 899/1/3 909/1/3
f 913/1/3 912/1/3 911/1/3
f 914/1/3 912/1/3 913/1/3
f 917/1/3 916/1/3 915/1/3
f 918/1/3 916/1/3 917/1/3
f 921/1/3 920/1/3 919/1/3
f 922/1/3 920/1/3 921/1/3
f 926/3/3 924/3/3 923/3/3
f 926/3/3 925/3/3 924/3/3
f 927/3/3 925/3/3 926/3/3
f 932/1/3 929/1/3 928/1/3
f 933/1/3 929/1/3 932/1/3
f 934/1/3 931/1/3 930/1/3
f 935/1/3 931/1/3 934/1/3
f 938/1/3 937/1/3 936/1/3
f 939/1/3 937/1/3 938/1/3
f 942/1/3 941/1/3 940/1/3
f 943/1/3 941/1/3 942/1/3
f 946/1/3 945/1/3 944/1/3
f 947/1/3 945/1/3 946/1/3
f 948/1/3 945/1/3 947/1/3
f 949/2/3 948/2/3 947/2/3
f 950/1/3 945/1/3 948/1/3
f 950/2/3 948/2/3 949/2/3
f 951/1/3 945/1/3 950/1/3
f 952/1/3 945/1/3 951/1/3
f 957/1/3 954/1/3 953/1/3
f 957/1/3 956/1/3 955/1/3
f 957/1/3 955/1/3 954/1/3
f 958/1/3 956/1/3 957/1/3
f 959/1/3 956/1/3 958/1/3
f 962/1/3 961/1/3 960/1/3
f 963/1/3 961/1/3 962/1/3
f 967/2/3 965/2/3 964/2/3
f 968/2/3 965/2/3 967/2/3
f 969/1/3 967/1/3 966/1/3
f 970/1/3 967/1/3 969/1/3
f 973/1/3 972/1/3 971/1/3
f 974/1/3 972/1/3 973/1/3
f 977/1/3 976/1/3 975/1/3
f 978/1/3 976/1/3 977/1/3
f 979/1/3 977/1/3 975/1/3
f 980/1/3 977/1/3 979/1/3
f 981/1/3 979/1/3 975/1/3
f 982/1/3 979/1/3 981/1/3
f 985/1/3 984/1/3 983/1/3
f 986/1/3 984/1/3 985/1/3
f 987/1/3 984/1/3 986/1/3
f 990/1/3 985/1/3 983/1/3
f 991/2/3 986/2/3 985/2/3
f 991/1/3 985/1/3 990/1/3
f 992/1/3 989/1/3 988/1/3
f 993/1/3 989/1/3 992/1/3
f 994/2/3 986/2/3 991/2/3
f 995/2/3 986/2/3 994/2/3
f 999/1/3 997/1/3 996/1/3
f 1000/1/3 997/1/3 999/1/3
f 1001/1/3 999/1/3 998/1/3
f 1002/1/3 999/1/3 1001/1/3
f 1005/3/3 1004/3/3 1003/3/3
f 1006/3/3 1004/3/3 1005/3/3
f 1009/1/3 1008/1/3 1007/1/3
f 1010/1/3 1008/1/3 1009/1/3
f 1013/3/3 1012/3/3 1011/3/3
f 1015/3/3 1013/3/3 1011/3/3
f 1015/3/3 1014/3/3 1013/3/3
f 1016/3/3 1014/3/3 1015/3/3
f 1018/1/3 1016/1/3 1015/1/3
f 1018/1/3 1017/1/3 1016/1/3
f 1019/1/3 1017/1/3 1018/1/3
f 1023/2/3 1021/2/3 1020/2/3
f 1026/2/3 1023/2/3 1022/2/3
f 1027/2/3 1021/2/3 1023/2/3
f 1027/2/3 1023/2/3 1026/2/3
f 1030/1/3 1025/1/3 1024/1/3
f 1031/1/3 1025/1/3 1030/1/3
f 1032/2/3 1029/2/3 1028/2/3
f 1033/2/3 1029/2/3 1032/2/3
f 1035/1/3 1033/1/3 1032/1/3
f 1035/3/3 1034/3/3 1033/3/3
f 1036/3/3 1034/3/3 1035/3/3
f 1037/1/3 1035/1/3 1032/1/3
f 1039/1/3 1037/1/3 1032/1/3
f 1039/1/3 1038/1/3 1037/1/3
f 1040/1/3 1038/1/3 1039/1/3
f 1041/1/3 1038/1/3 1040/1/3
f 1044/1/3 1043/1/3 1042/1/3
f 1045/1/3 1043/1/3 1044/1/3
f 1046/1/3 1043/1/3 1045/1/3
f 1047/1/3 1043/1/3 1046/1/3
f 1050/1/3 1049/1/3 1048/1/3
f 1051/1/3 1049/1/3 1050/1/3
f 1056/1/3 1053/1/3 1052/1/3
f 1057/1/3 1053/1/3 1056/1/3
f 1058/1/3 1055/1/3 1054/1/3
f 1059/1/3 1055/1/3 1058/1/3
f 1060/1/3 1055/1/3 1059/1/3
f 1063/1/3 1062/1/3 1061/1/3
f 1064/1/3 1062/1/3 1063/1/3
f 1065/1/3 1063/1/3 1061/1/3
f 1066/1/3 1063/1/3 1065/1/3
f 1068/1/3 1066/1/3 1065/1/3
f 1068/1/3 1067/1/3 1066/1/3
f 1069/1/3 1067/1/3 1068/1/3
f 1072/1/3 1071/1/3 1070/1/3
f 1073/1/3 1071/1/3 1072/1/3
f 1076/1/3 1075/1/3 1074/1/3
f 1077/1/3 1075/1/3 1076/1/3
f 1080/1/3 1079/1/3 1078/1/3
f 1081/1/3 1079/1/3 1080/1/3
f 1085/1/3 1083/1/3 1082/1/3
f 1086/1/3 1085/1/3 1084/1/3
f 1087/1/3 1083/1/3 1085/1/3
f 1087/1/3 1085/1/3 1086/1/3
f 1090/1/3 1089/1/3 1088/1/3
f 1091/1/3 1089/1/3 1090/1/3
f 1097/1/3 1093/1/3 1092/1/3
f 1098/1/3 1093/1/3 1097/1/3
f 1099/1/3 1096/1/3 1095/1/3
f 1099/1/3 1095/1/3 1094/1/3
f 1100/1/3 1096/1/3 1099/1/3
f 1105/1/3 1102/1/3 1101/1/3
f 1106/1/3 1102/1/3 1105/1/3
f 1107/1/3 1102/1/3 1106/1/3
f 1108/1/3 1104/1/3 1103/1/3
f 1109/1/3 1104/1/3 1108/1/3
f 1114/1/3 1111/1/3 1110/1/3
f 1115/1/3 1111/1/3 1114/1/3
f 1116/1/3 1113/1/3 1112/1/3
f 1117/1/3 1113/1/3 1116/1/3
f 1118/1/3 1113/1/3 1117/1/3
f 1122/1/3 1120/1/3 1119/1/3
f 1122/1/3 1121/1/3 1120/1/3
f 1123/1/3 1121/1/3 1122/1/3
f 1124/1/3 1121/1/3 1123/1/3
f 1130/1/3 1126/1/3 1125/1/3
f 1130/1/3 1127/1/3 1126/1/3
f 1132/1/3 1129/1/3 1128/1/3
f 1133/1/3 1129/1/3 1132/1/3
f 1134/1/3 1131/1/3 1130/1/3
f 1134/1/3 1130/1/3 1125/1/3
f 1135/1/3 1131/1/3 1134/1/3
f 1136/1/3 1134/1/3 1125/1/3
f 1137/1/3 1134/1/3 1136/1/3
f 1138/1/3 1129/1/3 1133/1/3
f 1139/1/3 1129/1/3 1138/1/3
f 1140/4/4 1141/4/4 1142/4/4
f 1142/4/4 1141/4/4 1143/4/4
f 1144/1/4 1145/1/4 1148/1/4
f 1145/1/4 1146/1/4 1148/1/4
f 1147/1/4 1148/1/4 1150/1/4
f 1149/1/4 1150/1/4 1154/1/4
f 1153/1/4 1154/1/4 1155/1/4
f 1154/1/4 1150/1/4 1156/1/4
f 1155/1/4 1154/1/4 1156/1/4
f 1156/1/4 1150/1/4 1157/1/4
f 1150/1/4 1148/1/4 1158/1/4
f 1157/1/4 1150/1/4 1158/1/4
f 1151/1/4 1152/1/4 1159/1/4
f 1159/1/4 1152/1/4 1160/1/4
f 1158/1/4 1148/1/4 1161/1/4
f 1148/1/4 1146/1/4 1162/1/4
f 1161/1/4 1148/1/4 1162/1/4
f 1159/3/4 1160/3/4 1163/3/4
f 1160/1/4 1152/1/4 1164/1/4
f 1163/3/4 1160/3/4 1164/3/4
f 1164/1/4 1152/1/4 1165/1/4
f 1162/1/4 1146/1/4 1166/1/4
f 1166/1/4 1146/1/4 1167/1/4
f 1167/1/4 1146/1/4 1168/1/4
f 1163/1/4 1164/1/4 1169/1/4
f 1164/3/4 1165/3/4 1170/3/4
f 1169/1/4 1164/1/4 1170/1/4
f 1170/3/4 1165/3/4 1171/3/4
f 1172/1/4 1173/1/4 1174/1/4
f 1174/1/4 1173/1/4 1175/1/4
f 1178/1/4 1179/1/4 1180/1/4
f 1177/1/4 1178/1/4 1180/1/4
f 1176/1/4 1177/1/4 1180/1/4
f 1176/1/4 1180/1/4 1182/1/4
f 1180/1/4 1181/1/4 1182/1/4
f 1182/1/4 1181/1/4 1183/1/4
f 1184/1/4 1185/1/4 1189/1/4
f 1189/1/4 1185/1/4 1190/1/4
f 1190/1/4 1185/1/4 1191/1/4
f 1186/1/4 1187/1/4 1192/1/4
f 1187/3/4 1188/3/4 1193/3/4
f 1192/1/4 1187/1/4 1193/1/4
f 1193/3/4 1188/3/4 1194/3/4
f 1195/1/4 1196/1/4 1197/1/4
f 1197/1/4 1196/1/4 1198/1/4
f 1199/1/4 1200/1/4 1206/1/4
f 1200/1/4 1201/1/4 1206/1/4
f 1206/1/4 1201/1/4 1207/1/4
f 1204/3/4 1205/3/4 1208/3/4
f 1202/1/4 1203/1/4 1210/1/4
f 1203/1/4 1204/1/4 1210/1/4
f 1204/3/4 1208/3/4 1211/3/4
f 1210/1/4 1204/1/4 1211/1/4
f 1208/1/4 1209/1/4 1212/1/4
f 1211/3/4 1208/3/4 1212/3/4
f 1212/1/4 1209/1/4 1213/1/4
f 1202/1/4 1210/1/4 1214/1/4
f 1214/1/4 1210/1/4 1215/1/4
f 1217/3/4 1218/3/4 1219/3/4
f 1216/1/4 1217/1/4 1221/1/4
f 1217/3/4 1219/3/4 1222/3/4
f 1221/1/4 1217/1/4 1222/1/4
f 1219/3/4 1220/3/4 1222/3/4
f 1222/3/4 1220/3/4 1223/3/4
f 1224/1/4 1225/1/4 1228/1/4
f 1228/1/4 1225/1/4 1229/1/4
f 1226/1/4 1227/1/4 1230/1/4
f 1230/1/4 1227/1/4 1231/1/4
f 1232/1/4 1233/1/4 1236/1/4
f 1236/1/4 1233/1/4 1237/1/4
f 1234/2/4 1235/2/4 1238/2/4
f 1238/2/4 1235/2/4 1239/2/4
f 1240/1/4 1241/1/4 1244/1/4
f 1244/1/4 1241/1/4 1245/1/4
f 1242/1/4 1243/1/4 1246/1/4
f 1246/1/4 1243/1/4 1247/1/4
f 1248/1/4 1249/1/4 1251/1/4
f 1249/3/4 1250/3/4 1252/3/4
f 1251/1/4 1249/1/4 1252/1/4
f 1252/3/4 1250/3/4 1253/3/4
f 1248/1/4 1251/1/4 1254/1/4
f 1251/3/4 1252/3/4 1255/3/4
f 1254/1/4 1251/1/4 1255/1/4
f 1255/3/4 1252/3/4 1256/3/4
f 1254/3/4 1255/3/4 1257/3/4
f 1257/3/4 1255/3/4 1258/3/4
f 1259/1/4 1260/1/4 1261/1/4
f 1261/1/4 1260/1/4 1262/1/4
f 1263/1/4 1264/1/4 1265/1/4
f 1263/1/4 1265/1/4 1267/1/4
f 1265/1/4 1266/1/4 1267/1/4
f 1267/1/4 1266/1/4 1268/1/4
f 1263/1/4 1267/1/4 1269/1/4
f 1269/1/4 1267/1/4 1270/1/4
f 1271/1/4 1272/1/4 1273/1/4
f 1273/1/4 1272/1/4 1274/1/4
f 1275/1/4 1276/1/4 1277/1/4
f 1277/1/4 1276/1/4 1278/1/4
f 1279/1/4 1280/1/4 1281/1/4
f 1281/1/4 1280/1/4 1282/1/4
f 1283/1/4 1284/1/4 1285/1/4
f 1285/1/4 1284/1/4 1286/1/4
f 1287/1/4 1288/1/4 1289/1/4
f 1289/1/4 1288/1/4 1290/1/4
f 1287/1/4 1289/1/4 1291/1/4
f 1291/1/4 1289/1/4 1292/1/4
f 1287/1/4 1291/1/4 1293/1/4
f 1293/1/4 1291/1/4 1294/1/4
f 1295/1/4 1296/1/4 1297/1/4
f 1297/1/4 1296/1/4 1298/1/4
f 1299/1/4 1300/1/4 1301/1/4
f 1301/1/4 1300/1/4 1302/1/4
f 1303/1/4 1304/1/4 1306/1/4
f 1306/1/4 1304/1/4 1307/1/4
f 1304/3/4 1305/3/4 1308/3/4
f 1307/1/4 1304/1/4 1308/1/4
f 1308/3/4 1305/3/4 1309/3/4
f 1310/1/4 1311/1/4 1312/1/4
f 1312/1/4 1311/1/4 1313/1/4
f 1314/1/4 1315/1/4 1316/1/4
f 1316/1/4 1315/1/4 1317/1/4
f 1317/1/4 1315/1/4 1318/1/4
f 1319/1/4 1320/1/4 1321/1/4
f 1321/1/4 1320/1/4 1322/1/4
f 1323/1/4 1324/1/4 1326/1/4
f 1326/1/4 1324/1/4 1327/1/4
f 1327/1/4 1324/1/4 1328/1/4
f 1327/2/4 1328/2/4 1329/2/4
f 1328/1/4 1324/1/4 1330/1/4
f 1329/2/4 1328/2/4 1330/2/4
f 1324/2/4 1325/2/4 1331/2/4
f 1330/1/4 1324/1/4 1331/1/4
f 1331/2/4 1325/2/4 1332/2/4
f 1330/1/4 1331/1/4 1333/1/4
f 1331/1/4 1332/1/4 1333/1/4
f 1333/1/4 1332/1/4 1334/1/4
f 1330/1/4 1333/1/4 1335/1/4
f 1335/1/4 1333/1/4 1336/1/4
f 1337/1/4 1338/1/4 1339/1/4
f 1339/1/4 1338/1/4 1340/1/4
f 1340/3/4 1341/3/4 1344/3/4
f 1342/1/4 1343/1/4 1346/1/4
f 1346/1/4 1343/1/4 1347/1/4
f 1339/1/4 1340/1/4 1348/1/4
f 1344/3/4 1345/3/4 1348/3/4
f 1340/3/4 1344/3/4 1348/3/4
f 1348/3/4 1345/3/4 1349/3/4
f 1349/1/4 1350/1/4 1351/1/4
f 1348/1/4 1349/1/4 1351/1/4
f 1339/1/4 1348/1/4 1351/1/4
f 1351/1/4 1350/1/4 1352/1/4
f 1353/1/4 1354/1/4 1355/1/4
f 1355/1/4 1354/1/4 1356/1/4
f 1358/3/4 1359/3/4 1360/3/4
f 1357/1/4 1358/1/4 1360/1/4
f 1360/3/4 1359/3/4 1361/3/4
f 1357/1/4 1360/1/4 1362/1/4
f 1357/1/4 1362/1/4 1364/1/4
f 1362/1/4 1363/1/4 1364/1/4
f 1364/1/4 1363/1/4 1365/1/4
f 1357/1/4 1364/1/4 1366/1/4
f 1366/1/4 1364/1/4 1367/1/4
f 1368/1/4 1369/1/4 1371/1/4
f 1370/1/4 1371/1/4 1373/1/4
f 1372/1/4 1373/1/4 1374/1/4
f 1371/1/4 1369/1/4 1375/1/4
f 1374/1/4 1373/1/4 1375/1/4
f 1373/1/4 1371/1/4 1375/1/4
f 1376/1/4 1377/1/4 1379/1/4
f 1377/1/4 1378/1/4 1379/1/4
f 1379/1/4 1378/1/4 1380/1/4
f 1381/1/4 1382/1/4 1383/1/4
f 1383/1/4 1382/1/4 1384/1/4
f 1384/1/4 1382/1/4 1385/1/4
f 1388/1/4 1389/1/4 1390/1/4
f 1390/1/4 1389/1/4 1391/1/4
f 1386/1/4 1387/1/4 1392/1/4
f 1387/2/4 1388/2/4 1393/2/4
f 1392/1/4 1387/1/4 1393/1/4
f 1394/1/4 1395/1/4 1397/1/4
f 1393/2/4 1388/2/4 1398/2/4
f 1398/2/4 1388/2/4 1399/2/4
f 1388/1/4 1390/1/4 1400/1/4
f 1399/2/4 1388/2/4 1400/2/4
f 1400/1/4 1390/1/4 1401/1/4
f 1401/1/4 1402/1/4 1403/1/4
f 1400/1/4 1401/1/4 1403/1/4
f 1399/1/4 1400/1/4 1403/1/4
f 1403/1/4 1402/1/4 1404/1/4
f 1404/1/4 1402/1/4 1405/1/4
f 1396/1/4 1397/1/4 1406/1/4
f 1397/1/4 1395/1/4 1407/1/4
f 1406/1/4 1397/1/4 1407/1/4
f 1396/1/4 1406/1/4 1408/1/4
f 1396/1/4 1408/1/4 1410/1/4
f 1408/1/4 1409/1/4 1410/1/4
f 1410/1/4 1409/1/4 1411/1/4
f 1412/1/4 1413/1/4 1415/1/4
f 1413/1/4 1414/1/4 1415/1/4
f 1415/1/4 1414/1/4 1416/1/4
f 1416/1/4 1414/1/4 1417/1/4
f 1416/1/4 1417/1/4 1419/1/4
f 1417/1/4 1418/1/4 1419/1/4
f 1419/1/4 1418/1/4 1420/1/4
f 1421/1/4 1422/1/4 1424/1/4
f 1422/2/4 1423/2/4 1425/2/4
f 1424/1/4 1422/1/4 1425/1/4
f 1425/2/4 1423/2/4 1426/2/4
f 1427/1/4 1428/1/4 1429/1/4
f 1429/1/4 1428/1/4 1430/1/4
f 1431/1/4 1432/1/4 1433/1/4
f 1433/1/4 1432/1/4 1434/1/4
f 1435/1/4 1436/1/4 1437/1/4
f 1437/1/4 1436/1/4 1438/1/4
f 1439/1/4 1440/1/4 1441/1/4
f 1441/1/4 1440/1/4 1442/1/4
f 1443/1/4 1444/1/4 1445/1/4
f 1445/1/4 1444/1/4 1446/1/4
f 1447/1/4 1448/1/4 1450/1/4
f 1448/1/4 1449/1/4 1450/1/4
f 1450/1/4 1449/1/4 1451/1/4
f 1452/1/4 1453/1/4 1454/1/4
f 1454/1/4 1453/1/4 1455/1/4
f 1458/1/5 1457/1/5 1456/1/5
f 1459/1/5 1457/1/5 1458/1/5
f 1463/3/5 1461/3/5 1460/3/5
f 1464/3/5 1461/3/5 1463/3/5
f 1466/1/5 1463/1/5 1462/1/5
f 1467/1/5 1463/1/5 1466/1/5
f 1468/1/5 1465/1/5 1464/1/5
f 1469/1/5 1465/1/5 1468/1/5
f 1472/1/5 1471/1/5 1470/1/5
f 1473/1/5 1471/1/5 1472/1/5
f 1479/3/5 1475/3/5 1474/3/5
f 1480/3/5 1475/3/5 1479/3/5
f 1481/3/5 1477/3/5 1476/3/5
f 1482/3/5 1477/3/5 1481/3/5
f 1484/1/5 1479/1/5 1478/1/5
f 1485/1/5 1479/1/5 1484/1/5
f 1486/1/5 1483/1/5 1482/1/5
f 1487/1/5 1483/1/5 1486/1/5
f 1490/1/5 1489/1/5 1488/1/5
f 1491/1/5 1489/1/5 1490/1/5
f 1494/1/5 1493/1/5 1492/1/5
f 1495/1/5 1493/1/5 1494/1/5
f 1501/3/5 1497/3/5 1496/3/5
f 1502/3/5 1497/3/5 1501/3/5
f 1503/3/5 1499/3/5 1498/3/5
f 1504/3/5 1499/3/5 1503/3/5
f 1506/1/5 1501/1/5 1500/1/5
f 1507/1/5 1501/1/5 1506/1/5
f 1508/1/5 1505/1/5 1504/1/5
f 1509/1/5 1505/1/5 1508/1/5
f 1514/1/5 1511/1/5 1510/1/5
f 1515/1/5 1511/1/5 1514/1/5
f 1516/1/5 1513/1/5 1512/1/5
f 1517/1/5 1513/1/5 1516/1/5
f 1520/1/5 1519/1/5 1518/1/5
f 1521/1/5 1519/1/5 1520/1/5
f 1524/1/5 1523/1/5 1522/1/5
f 1525/1/5 1523/1/5 1524/1/5
f 1530/3/5 1527/3/5 1526/3/5
f 1531/3/5 1527/3/5 1530/3/5
f 1532/3/5 1529/3/5 1528/3/5
f 1533/3/5 1529/3/5 1532/3/5
f 1536/1/5 1535/1/5 1534/1/5
f 1537/1/5 1535/1/5 1536/1/5
f 1542/1/5 1539/1/5 1538/1/5
f 1543/1/5 1539/1/5 1542/1/5
f 1544/3/5 1541/3/5 1540/3/5
f 1545/3/5 1541/3/5 1544/3/5
f 1548/1/5 1547/1/5 1546/1/5
f 1549/1/5 1547/1/5 1548/1/5
f 1552/1/5 1551/1/5 1550/1/5
f 1553/1/5 1551/1/5 1552/1/5
f 1556/1/5 1555/1/5 1554/1/5
f 1557/1/5 1555/1/5 1556/1/5
f 1562/1/5 1559/1/5 1558/1/5
f 1563/1/5 1559/1/5 1562/1/5
f 1564/1/5 1561/1/5 1560/1/5
f 1565/1/5 1561/1/5 1564/1/5
f 1568/1/5 1567/1/5 1566/1/5
f 1569/1/5 1567/1/5 1568/1/5
f 1574/1/5 1571/1/5 1570/1/5
f 1575/1/5 1571/1/5 1574/1/5
f 1578/1/5 1573/1/5 1572/1/5
f 1579/1/5 1573/1/5 1578/1/5
f 1580/1/5 1577/1/5 1576/1/5
f 1581/1/5 1577/1/5 1580/1/5
f 1583/1/5 1582/1/5 1581/1/5
f 1584/1/5 1582/1/5 1583/1/5
f 1587/1/5 1586/1/5 1585/1/5
f 1588/1/5 1586/1/5 1587/1/5
f 1591/1/5 1590/1/5 1589/1/5
f 1592/1/5 1590/1/5 1591/1/5
f 1595/1/5 1594/1/5 1593/1/5
f 1596/1/5 1594/1/5 1595/1/5
f 1601/1/5 1598/1/5 1597/1/5
f 1602/1/5 1598/1/5 1601/1/5
f 1604/1/5 1600/1/5 1599/1/5
f 1605/1/5 1603/1/5 1602/1/5
f 1606/1/5 1603/1/5 1605/1/5
f 1608/1/5 1604/1/5 1599/1/5
f 1609/1/5 1604/1/5 1608/1/5
f 1610/1/5 1604/1/5 1609/1/5
f 1611/1/5 1604/1/5 1610/1/5
f 1612/1/5 1607/1/5 1606/1/5
f 1613/1/5 1607/1/5 1612/1/5
f 1615/1/5 1610/1/5 1609/1/5
f 1616/1/5 1610/1/5 1615/1/5
f 1617/1/5 1614/1/5 1613/1/5
f 1618/1/5 1614/1/5 1617/1/5
f 1620/1/5 1619/1/5 1618/1/5
f 1621/1/5 1619/1/5 1620/1/5
f 1626/1/5 1625/1/5 1624/1/5
f 1627/1/5 1625/1/5 1626/1/5
f 1628/1/5 1623/1/5 1622/1/5
f 1629/1/5 1623/1/5 1628/1/5
f 1632/1/5 1631/1/5 1630/1/5
f 1633/1/5 1631/1/5 1632/1/5
f 1636/1/5 1635/1/5 1634/1/5
f 1637/1/5 1635/1/5 1636/1/5
f 1638/1/5 1635/1/5 1637/1/5
f 1639/1/5 1635/1/5 1638/1/5
f 1642/1/5 1635/1/5 1639/1/5
f 1643/1/5 1635/1/5 1642/1/5
f 1644/1/5 1635/1/5 1643/1/5
f 1645/1/5 1635/1/5 1644/1/5
f 1646/1/5 1641/1/5 1640/1/5
f 1647/1/5 1635/1/5 1645/1/5
f 1648/1/5 1635/1/5 1647/1/5
f 1649/1/5 1646/1/5 1640/1/5
f 1650/1/5 1646/1/5 1649/1/5
f 1655/4/5 1652/4/5 1651/4/5
f 1656/4/5 1652/4/5 1655/4/5
f 1657/4/5 1654/4/5 1653/4/5
f 1658/4/5 1654/4/5 1657/4/5
f 1661/1/5 1660/1/5 1659/1/5
f 1662/1/5 1660/1/5 1661/1/5
f 1665/1/5 1664/1/5 1663/1/5
f 1666/1/5 1664/1/5 1665/1/5
f 1670/1/5 1668/1/5 1667/1/5
f 1671/1/5 1668/1/5 1670/1/5
f 1674/1/5 1670/1/5 1669/1/5
f 1674/1/5 1672/1/5 1671/1/5
f 1674/1/5 1671/1/5 1670/1/5
f 1675/1/5 1672/1/5 1674/1/5
f 1678/1/5 1674/1/5 1673/1/5
f 1678/1/5 1676/1/5 1675/1/5
f 1678/1/5 1675/1/5 1674/1/5
f 1679/1/5 1676/1/5 1678/1/5
f 1681/1/5 1678/1/5 1677/1/5
f 1681/1/5 1680/1/5 1679/1/5
f 1681/1/5 1679/1/5 1678/1/5
f 1682/1/5 1681/1/5 1677/1/5
f 1683/1/5 1681/1/5 1682/1/5
f 1684/1/5 1682/1/5 1677/1/5
f 1685/1/5 1682/1/5 1684/1/5
f 1688/1/5 1687/1/5 1686/1/5
f 1689/1/5 1687/1/5 1688/1/5
f 1690/1/5 1688/1/5 1686/1/5
f 1691/1/5 1688/1/5 1690/1/5
f 1696/4/5 1693/4/5 1692/4/5
f 1697/4/5 1693/4/5 1696/4/5
f 1698/4/5 1693/4/5 1697/4/5
f 1699/4/5 1695/4/5 1694/4/5
f 1700/4/5 1695/4/5 1699/4/5
f 1701/4/5 1695/4/5 1700/4/5
f 1702/1/5 1701/1/5 1700/1/5
f 1703/1/5 1701/1/5 1702/1/5
f 1706/2/5 1705/2/5 1704/2/5
f 1707/2/5 1705/2/5 1706/2/5
f 1711/3/5 1709/3/5 1708/3/5
f 1711/3/5 1710/3/5 1709/3/5
f 1712/3/5 1710/3/5 1711/3/5
f 1713/3/5 1710/3/5 1712/3/5
f 1714/1/5 1712/1/5 1711/1/5
f 1715/1/5 1712/1/5 1714/1/5
f 1718/1/5 1717/1/5 1716/1/5
f 1724/1/5 1719/1/5 1718/1/5
f 1726/1/5 1721/1/5 1720/1/5
f 1727/1/5 1721/1/5 1726/1/5
f 1728/1/5 1723/1/5 1722/1/5
f 1729/1/5 1723/1/5 1728/1/5
f 1730/1/5 1718/1/5 1716/1/5
f 1730/1/5 1725/1/5 1724/1/5
f 1730/1/5 1724/1/5 1718/1/5
f 1731/1/5 1725/1/5 1730/1/5
f 1732/1/5 1714/1/5 1711/1/5
f 1734/1/5 1732/1/5 1711/1/5
f 1734/1/5 1733/1/5 1732/1/5
f 1735/1/5 1733/1/5 1734/1/5
f 1736/1/5 1723/1/5 1729/1/5
f 1737/1/5 1723/1/5 1736/1/5
f 1740/2/5 1739/2/5 1738/2/5
f 1741/2/5 1739/2/5 1740/2/5
f 1742/1/5 1741/1/5 1740/1/5
f 1743/1/5 1741/1/5 1742/1/5
f 1746/1/5 1745/1/5 1744/1/5
f 1747/1/5 1745/1/5 1746/1/5
f 1750/1/5 1749/1/5 1748/1/5
f 1751/1/5 1749/1/5 1750/1/5
f 1752/2/5 1751/2/5 1750/2/5
f 1753/2/5 1751/2/5 1752/2/5
f 1754/1/5 1753/1/5 1752/1/5
f 1755/1/5 1753/1/5 1754/1/5
f 1759/1/5 1757/1/5 1756/1/5
f 1759/1/5 1758/1/5 1757/1/5
f 1760/1/5 1758/1/5 1759/1/5
f 1761/3/6 1762/3/6 1765/3/6
f 1765/3/6 1762/3/6 1766/3/6
f 1763/3/6 1764/3/6 1767/3/6
f 1767/3/6 1764/3/6 1768/3/6
f 1769/3/6 1770/3/6 1771/3/6
f 1771/3/6 1770/3/6 1772/3/6
f 1773/1/6 1774/1/6 1775/1/6
f 1775/1/6 1774/1/6 1776/1/6
f 1777/4/6 1778/4/6 1781/4/6
f 1781/4/6 1778/4/6 1782/4/6
f 1779/4/6 1780/4/6 1783/4/6
f 1783/4/6 1780/4/6 1784/4/6
f 1785/1/6 1786/1/6 1787/1/6
f 1787/1/6 1786/1/6 1788/1/6
f 1789/1/6 1790/1/6 1793/1/6
f 1791/1/6 1792/1/6 1793/1/6
f 1790/1/6 1791/1/6 1793/1/6
f 1793/1/6 1792/1/6 1794/1/6
f 1789/1/6 1793/1/6 1797/1/6
f 1794/1/6 1795/1/6 1798/1/6
f 1796/1/6 1797/1/6 1800/1/6
f 1800/1/6 1797/1/6 1801/1/6
f 1797/1/6 1793/1/6 1802/1/6
f 1801/1/6 1797/1/6 1802/1/6
f 1802/1/6 1793/1/6 1803/1/6
f 1798/1/6 1799/1/6 1804/1/6
f 1794/1/6 1798/1/6 1804/1/6
f 1804/1/6 1799/1/6 1805/1/6
f 1801/1/6 1802/1/6 1806/1/6
f 1801/1/6 1806/1/6 1811/1/6
f 1806/1/6 1807/1/6 1811/1/6
f 1811/1/6 1807/1/6 1812/1/6
f 1812/1/6 1807/1/6 1813/1/6
f 1810/1/6 1811/1/6 1814/1/6
f 1811/1/6 1812/1/6 1814/1/6
f 1814/1/6 1812/1/6 1815/1/6
f 1808/1/6 1809/1/6 1816/1/6
f 1816/1/6 1809/1/6 1817/1/6
f 1813/1/6 1807/1/6 1818/1/6
f 1818/1/6 1807/1/6 1819/1/6
f 1813/1/6 1818/1/6 1822/1/6
f 1822/1/6 1818/1/6 1823/1/6
f 1823/1/6 1818/1/6 1824/1/6
f 1824/1/6 1818/1/6 1825/1/6
f 1820/1/6 1821/1/6 1826/1/6
f 1826/1/6 1821/1/6 1827/1/6
f 1823/1/6 1824/1/6 1828/1/6
f 1828/1/6 1824/1/6 1829/1/6
f 1827/1/6 1821/1/6 1830/1/6
f 1830/1/6 1821/1/6 1831/1/6
f 1832/1/6 1833/1/6 1836/1/6
f 1836/1/6 1833/1/6 1837/1/6
f 1834/1/6 1835/1/6 1838/1/6
f 1838/1/6 1835/1/6 1839/1/6
f 1841/1/6 1842/1/6 1848/1/6
f 1840/1/6 1841/1/6 1848/1/6
f 1848/1/6 1842/1/6 1849/1/6
f 1846/1/6 1847/1/6 1850/1/6
f 1845/1/6 1846/1/6 1850/1/6
f 1840/1/6 1848/1/6 1851/1/6
f 1851/1/6 1848/1/6 1852/1/6
f 1843/1/6 1844/1/6 1853/1/6
f 1853/1/6 1844/1/6 1854/1/6
f 1845/1/6 1850/1/6 1855/1/6
f 1855/1/6 1850/1/6 1856/1/6
f 1849/1/6 1842/1/6 1857/1/6
f 1857/1/6 1842/1/6 1858/1/6
f 1859/1/6 1860/1/6 1861/1/6
f 1861/1/6 1860/1/6 1862/1/6
f 1862/1/6 1860/1/6 1863/1/6
f 1864/4/6 1865/4/6 1868/4/6
f 1868/4/6 1865/4/6 1869/4/6
f 1869/4/6 1865/4/6 1870/4/6
f 1866/4/6 1867/4/6 1871/4/6
f 1871/4/6 1867/4/6 1872/4/6
f 1872/4/6 1867/4/6 1873/4/6
f 1872/1/6 1873/1/6 1874/1/6
f 1874/1/6 1873/1/6 1875/1/6
f 1878/1/6 1879/1/6 1880/1/6
f 1876/1/6 1877/1/6 1881/1/6
f 1881/1/6 1877/1/6 1882/1/6
f 1880/1/6 1879/1/6 1883/1/6
f 1883/1/6 1879/1/6 1884/1/6
f 1885/1/6 1886/1/6 1888/1/6
f 1888/1/6 1886/1/6 1889/1/6
f 1887/1/6 1888/1/6 1890/1/6
f 1887/1/6 1890/1/6 1892/1/6
f 1890/1/6 1891/1/6 1892/1/6
f 1892/1/6 1891/1/6 1893/1/6
f 1894/1/6 1895/1/6 1898/1/6
f 1898/1/6 1895/1/6 1899/1/6
f 1895/3/6 1896/3/6 1900/3/6
f 1899/1/6 1895/1/6 1900/1/6
f 1900/3/6 1896/3/6 1901/3/6
f 1897/3/6 1898/3/6 1904/3/6
f 1904/3/6 1898/3/6 1905/3/6
f 1901/3/6 1902/3/6 1906/3/6
f 1906/3/6 1902/3/6 1907/3/6
f 1903/3/6 1904/3/6 1910/3/6
f 1910/3/6 1904/3/6 1911/3/6
f 1907/1/6 1908/1/6 1912/1/6
f 1912/1/6 1908/1/6 1913/1/6
f 1909/2/6 1910/2/6 1915/2/6
f 1915/2/6 1910/2/6 1916/2/6
f 1916/2/6 1910/2/6 1917/2/6
f 1913/1/6 1914/1/6 1918/1/6
f 1918/1/6 1914/1/6 1919/1/6
f 1919/3/6 1920/3/6 1921/3/6
f 1921/3/6 1920/3/6 1922/3/6
f 1921/1/6 1922/1/6 1924/1/6
f 1922/1/6 1923/1/6 1924/1/6
f 1924/1/6 1923/1/6 1925/1/6
f 1921/1/6 1924/1/6 1927/1/6
f 1927/1/6 1924/1/6 1928/1/6
f 1925/1/6 1926/1/6 1929/1/6
f 1929/1/6 1926/1/6 1930/1/6
f 1932/1/6 1933/1/6 1935/1/6
f 1935/1/6 1933/1/6 1936/1/6
f 1936/1/6 1933/1/6 1937/1/6
f 1930/1/6 1931/1/6 1938/1/6
f 1938/1/6 1931/1/6 1939/1/6
f 1940/1/6 1941/1/6 1942/1/6
f 1942/1/6 1941/1/6 1943/1/6
f 1934/2/6 1935/2/6 1944/2/6
f 1944/2/6 1935/2/6 1945/2/6
f 1935/1/6 1936/1/6 1946/1/6
f 1945/2/6 1935/2/6 1946/2/6
f 1946/1/6 1936/1/6 1947/1/6
f 1943/1/6 1944/1/6 1948/1/6
f 1944/2/6 1945/2/6 1949/2/6
f 1948/1/6 1944/1/6 1949/1/6
f 1949/2/6 1945/2/6 1950/2/6
f 1949/2/6 1950/2/6 1955/2/6
f 1955/2/6 1950/2/6 1956/2/6
f 1951/1/6 1952/1/6 1958/1/6
f 1953/1/6 1954/1/6 1959/1/6
f 1959/1/6 1954/1/6 1960/1/6
f 1956/1/6 1957/1/6 1961/1/6
f 1961/1/6 1957/1/6 1962/1/6
f 1951/1/6 1958/1/6 1964/1/6
f 1958/1/6 1959/1/6 1964/1/6
f 1964/1/6 1959/1/6 1965/1/6
f 1965/1/6 1959/1/6 1966/1/6
f 1966/1/6 1959/1/6 1967/1/6
f 1962/1/6 1963/1/6 1968/1/6
f 1968/1/6 1963/1/6 1969/1/6
f 1965/1/6 1966/1/6 1970/1/6
f 1970/1/6 1966/1/6 1971/1/6
f 1969/1/6 1970/1/6 1972/1/6
f 1972/1/6 1970/1/6 1973/1/6
f 1974/1/6 1975/1/6 1976/1/6
f 1976/1/6 1975/1/6 1977/1/6
f 1978/1/6 1979/1/6 1982/1/6
f 1982/1/6 1979/1/6 1983/1/6
f 1980/2/6 1981/2/6 1984/2/6
f 1981/2/6 1982/2/6 1984/2/6
f 1982/2/6 1983/2/6 1984/2/6
f 1985/2/6 1986/2/6 1990/2/6
f 1990/2/6 1986/2/6 1991/2/6
f 1987/1/6 1988/1/6 1993/1/6
f 1993/1/6 1988/1/6 1994/1/6
f 1991/1/6 1992/1/6 1995/1/6
f 1989/2/6 1990/2/6 1995/2/6
f 1990/2/6 1991/2/6 1995/2/6
f 1995/1/6 1992/1/6 1996/1/6
f 1980/2/6 1984/2/6 1997/2/6
f 1997/2/6 1984/2/6 1998/2/6
f 1998/2/6 1984/2/6 1999/2/6
f 1999/2/6 1984/2/6 2000/2/6
f 1989/2/6 1995/2/6 2001/2/6
f 2001/2/6 1995/2/6 2002/2/6
f 2002/2/6 1995/2/6 2003/2/6
f 1997/1/6 1998/1/6 2004/1/6
f 2004/1/6 1998/1/6 2005/1/6
f 2006/1/6 2007/1/6 2008/1/6
f 2008/1/6 2007/1/6 2009/1/6
f 2010/3/6 2011/3/6 2012/3/6
f 2012/3/6 2011/3/6 2013/3/6
f 2014/3/6 2015/3/6 2016/3/6
f 2016/3/6 2015/3/6 2017/3/6
f 2018/1/6 2019/1/6 2022/1/6
f 2022/1/6 2019/1/6 2023/1/6
f 2020/1/6 2021/1/6 2028/1/6
f 2028/1/6 2021/1/6 2029/1/6
f 2024/1/6 2025/1/6 2033/1/6
f 2026/3/6 2027/3/6 2034/3/6
f 2034/3/6 2027/3/6 2035/3/6
f 2029/2/6 2030/2/6 2036/2/6
f 2036/2/6 2030/2/6 2037/2/6
f 2031/1/6 2032/1/6 2038/1/6
f 2038/1/6 2032/1/6 2039/1/6
f 2033/1/6 2025/1/6 2040/1/6
f 2040/1/6 2025/1/6 2041/1/6
f 2029/2/6 2036/2/6 2044/2/6
f 2044/2/6 2036/2/6 2045/2/6
f 2042/1/6 2043/1/6 2046/1/6
f 2046/1/6 2043/1/6 2047/1/6
f 2044/1/6 2045/1/6 2048/1/6
f 2048/1/6 2045/1/6 2049/1/6
f 2050/1/6 2051/1/6 2052/1/6
f 2052/1/6 2051/1/6 2053/1/6
f 2054/3/6 2055/3/6 2056/3/6
f 2056/3/6 2055/3/6 2057/3/6
f 2058/1/6 2059/1/6 2060/1/6
f 2060/1/6 2059/1/6 2061/1/6
f 2062/1/6 2063/1/6 2064/1/6
f 2064/1/6 2063/1/6 2065/1/6
f 2066/3/6 2067/3/6 2070/3/6
f 2070/3/6 2067/3/6 2071/3/6
f 2068/3/6 2069/3/6 2073/3/6
f 2073/3/6 2069/3/6 2074/3/6
f 2072/1/6 2073/1/6 2075/1/6
f 2075/1/6 2073/1/6 2076/1/6
f 2077/3/6 2078/3/6 2079/3/6
f 2079/3/6 2078/3/6 2080/3/6
f 2081/1/6 2082/1/6 2083/1/6
f 2083/1/6 2082/1/6 2084/1/6
f 2085/1/6 2086/1/6 2089/1/6
f 2089/1/6 2086/1/6 2090/1/6
f 2087/1/6 2088/1/6 2091/1/6
f 2091/1/6 2088/1/6 2092/1/6
f 2093/1/6 2094/1/6 2097/1/6
f 2097/1/6 2094/1/6 2098/1/6
f 2095/1/6 2096/1/6 2099/1/6
f 2099/1/6 2096/1/6 2100/1/6
f 2101/3/6 2102/3/6 2103/3/6
f 2103/3/6 2102/3/6 2104/3/6
f 2105/3/6 2106/3/6 2107/3/6
f 2107/3/6 2106/3/6 2108/3/6
f 2109/1/6 2110/1/6 2111/1/6
f 2111/1/6 2110/1/6 2112/1/6
