# MagicaVoxel @ Ephtracy

# group
o 

# material
mtllib snake_trenchcoat.mtl
usemtl palette

# normals
vn -1 0 0
vn 1 0 0
vn 0 0 1
vn 0 0 -1
vn 0 -1 0
vn 0 1 0

# texcoords
vt 0.0253906 0.5
vt 0.369141 0.5
vt 0.373047 0.5
vt 0.513672 0.5
vt 0.533203 0.5
vt 0.650391 0.5
vt 0.841797 0.5
vt 0.849609 0.5
vt 0.876953 0.5
vt 0.892578 0.5
vt 0.904297 0.5
vt 0.931641 0.5
vt 0.935547 0.5
vt 0.970703 0.5
vt 0.974609 0.5
vt 0.982422 0.5

# verts
v -1.7 -1.8 -1.19209e-007
v -1.7 -1.8 -0.6
v -1.7 -1.7 -1.19209e-007
v -1.7 -1.7 -0.6
v -1.6 -1.7 -1.19209e-007
v -1.6 -1.7 -0.4
v -1.6 -1.6 -1.19209e-007
v -1.6 -1.6 -0.4
v -1.5 -1.7 -0.4
v -1.5 -1.7 -0.5
v -1.5 -1.6 -0.4
v -1.5 -1.6 -0.5
v -1.1 0.0999999 -0.5
v -1.1 0.0999999 -0.7
v -1.1 0.2 -0.5
v -1.1 0.2 -0.7
v -1 -1.8 0.6
v -1 -1.8 -0.4
v -1 -1.8 -0.6
v -1 -1.8 -0.7
v -1 -1.7 -0.4
v -1 -1.7 -0.5
v -1 -1.7 -0.6
v -1 -1.6 -0.4
v -1 -1.6 -0.5
v -1 -1.1 -0.6
v -1 -1.1 -0.7
v -1 -0.6 0.7
v -1 -0.6 0.6
v -1 -0.4 0.8
v -1 -0.4 0.7
v -1 -1.19209e-007 -0.6
v -1 -1.19209e-007 -0.7
v -1 0.0999999 0.8
v -1 0.0999999 0.6
v -1 0.0999999 0.4
v -1 0.0999999 -0.5
v -1 0.0999999 -0.6
v -1 0.0999999 -0.7
v -1 0.2 0.6
v -1 0.2 0.4
v -1 0.2 -0.3
v -1 0.2 -0.5
v -1 0.2 -0.7
v -1 0.3 -0.5
v -1 0.3 -0.7
v -1 0.4 0.4
v -1 0.4 -0.3
v -1 0.5 1.4
v -1 0.5 1.2
v -1 0.7 1.4
v -1 0.7 1.2
v -0.9 -1.8 0.7
v -0.9 -1.8 0.6
v -0.9 -1.1 -0.6
v -0.9 -1.1 -0.7
v -0.9 -0.7 -0.7
v -0.9 -0.7 -0.9
v -0.9 -0.6 0.8
v -0.9 -0.6 0.7
v -0.9 -0.6 0.6
v -0.9 -0.6 -0.7
v -0.9 -0.6 -0.8
v -0.9 -0.6 -0.9
v -0.9 -0.4 0.8
v -0.9 -0.4 0.7
v -0.9 -0.4 -0.7
v -0.9 -0.4 -0.8
v -0.9 -0.4 -0.9
v -0.9 -0.1 -0.9
v -0.9 -0.1 -1
v -0.9 -1.19209e-007 -0.6
v -0.9 -1.19209e-007 -0.7
v -0.9 -1.19209e-007 -0.8
v -0.9 -1.19209e-007 -1
v -0.9 0.0999999 0.7
v -0.9 0.0999999 0.6
v -0.9 0.0999999 -0.7
v -0.9 0.0999999 -0.8
v -0.9 0.2 0.7
v -0.9 0.2 0.6
v -0.9 0.2 0.5
v -0.9 0.2 0.4
v -0.9 0.2 -0.3
v -0.9 0.2 -0.4
v -0.9 0.3 -0.3
v -0.9 0.3 -0.4
v -0.9 0.4 1.1
v -0.9 0.4 0.9
v -0.9 0.4 0.5
v -0.9 0.4 0.4
v -0.9 0.4 -0.3
v -0.9 0.4 -0.4
v -0.9 0.5 1.2
v -0.9 0.5 1.1
v -0.9 0.7 1.3
v -0.9 0.7 1.2
v -0.9 0.8 1.3
v -0.9 0.8 0.9
v -0.8 0.2 1
v -0.8 0.2 0.9
v -0.8 0.3 1.2
v -0.8 0.3 1.1
v -0.8 0.3 1
v -0.8 0.3 0.9
v -0.8 0.3 0.8
v -0.8 0.3 -0.4
v -0.8 0.3 -0.5
v -0.8 0.3 -0.7
v -0.8 0.4 1.1
v -0.8 0.4 0.9
v -0.8 0.4 -0.4
v -0.8 0.4 -0.5
v -0.8 0.5 1.5
v -0.8 0.5 1.4
v -0.8 0.5 1.2
v -0.8 0.5 1.1
v -0.8 0.6 -0.7
v -0.8 0.6 -0.8
v -0.8 0.7 1.5
v -0.8 0.7 1.4
v -0.8 0.7 1.3
v -0.8 0.7 -0.8
v -0.8 0.7 -0.9
v -0.8 0.8 1.4
v -0.8 0.8 1.3
v -0.8 0.8 1.2
v -0.8 0.8 0.9
v -0.8 0.8 0.8
v -0.8 0.8 -0.8
v -0.8 0.8 -0.9
v -0.8 0.9 1.3
v -0.8 0.9 1.2
v -0.8 1.7 -0.5
v -0.8 1.7 -0.8
v -0.7 -1.8 -1.4
v -0.7 -1.8 -1.5
v -0.7 -1.8 -1.9
v -0.7 -1.7 -1.5
v -0.7 -1.7 -1.9
v -0.7 -1.6 -1.4
v -0.7 -1.6 -1.5
v -0.7 -0.3 0.9
v -0.7 -0.3 0.8
v -0.7 -0.2 1
v -0.7 -0.2 0.9
v -0.7 -0.1 1.1
v -0.7 -0.1 1
v -0.7 -1.19209e-007 1.2
v -0.7 -1.19209e-007 1.1
v -0.7 -1.19209e-007 0.9
v -0.7 -1.19209e-007 0.8
v -0.7 0.0999999 1.2
v -0.7 0.0999999 1
v -0.7 0.0999999 0.9
v -0.7 0.2 1.3
v -0.7 0.2 1.2
v -0.7 0.2 1
v -0.7 0.3 1.3
v -0.7 0.3 1.2
v -0.7 0.3 1.1
v -0.7 0.3 1
v -0.7 0.4 0.8
v -0.7 0.4 0.7
v -0.7 0.4 -0.4
v -0.7 0.4 -0.5
v -0.7 0.7 0.8
v -0.7 0.7 0.7
v -0.7 0.8 1.2
v -0.7 0.8 0.9
v -0.7 0.8 -0.8
v -0.7 0.8 -0.9
v -0.7 0.9 1.2
v -0.7 0.9 0.9
v -0.7 1 -0.3
v -0.7 1 -0.4
v -0.7 1.6 -0.3
v -0.7 1.6 -0.4
v -0.7 1.6 -0.8
v -0.7 1.6 -0.9
v -0.7 1.7 -0.4
v -0.7 1.7 -0.5
v -0.6 -0.6 -0.8
v -0.6 -0.6 -0.9
v -0.6 -0.1 -0.8
v -0.6 -0.1 -0.9
v -0.6 0.3 0.5
v -0.6 0.3 0.4
v -0.6 0.4 0.5
v -0.6 0.4 0.4
v -0.6 0.4 0.2
v -0.6 1.7 -0.4
v -0.6 1.7 -0.8
v -0.6 1.8 0.4
v -0.6 1.8 0.2
v -0.6 1.8 -0.4
v -0.6 1.8 -0.8
v -0.5 -1.8 1.7
v -0.5 -1.8 0.7
v -0.5 -1.8 -0.7
v -0.5 -1.8 -1.4
v -0.5 -1.7 1.7
v -0.5 -1.7 0.7
v -0.5 -1.6 1.7
v -0.5 -1.6 0.7
v -0.5 -1.6 -0.7
v -0.5 -1.6 -1.4
v -0.5 -0.7 -0.8
v -0.5 -0.7 -0.9
v -0.5 -0.6 -0.8
v -0.5 -0.6 -0.9
v -0.5 0.4 0.5
v -0.5 0.4 0.4
v -0.5 0.4 0.2
v -0.5 0.4 0.0999999
v -0.5 1.8 0.4
v -0.5 1.8 0.2
v -0.5 1.8 -0.4
v -0.5 1.8 -0.8
v -0.5 1.9 0.5
v -0.5 1.9 0.0999999
v -0.5 1.9 -0.4
v -0.5 1.9 -0.8
v -0.4 0.4 -0.1
v -0.4 0.4 -0.2
v -0.4 0.4 -0.3
v -0.4 0.4 -0.4
v -0.4 0.5 -0.1
v -0.4 0.5 -0.2
v -0.4 0.5 -0.4
v -0.4 0.5 -0.5
v -0.4 1.1 -0.1
v -0.4 1.1 -0.3
v -0.4 1.1 -0.5
v -0.4 1.9 0.4
v -0.4 1.9 0.2
v -0.4 2 0.4
v -0.4 2 0.2
v -0.3 -1.2 -0.2
v -0.3 -1.2 -0.5
v -0.3 -1.1 -0.2
v -0.3 -1.1 -0.5
v -0.3 -0.6 -0.8
v -0.3 -0.6 -0.9
v -0.3 -0.4 -0.8
v -0.3 -0.4 -0.9
v -0.3 -0.1 -0.8
v -0.3 -0.1 -0.9
v -0.3 0.3 0.5
v -0.3 0.3 0.4
v -0.3 0.4 0.5
v -0.3 0.4 0.4
v -0.3 0.5 -0.5
v -0.3 0.5 -0.6
v -0.3 1 -0.5
v -0.3 1 -0.6
v -0.3 1.7 0.5
v -0.3 1.7 0.4
v -0.3 1.8 0.5
v -0.3 1.8 0.4
v -0.2 -0.8 -0.9
v -0.2 -0.8 -1.1
v -0.2 -0.7 -0.9
v -0.2 -0.7 -1.1
v -0.2 -0.5 -0.9
v -0.2 -0.5 -1.1
v -0.2 0.4 -1.19209e-007
v -0.2 0.4 -0.1
v -0.2 0.5 -0.1
v -0.2 0.8 -0.6
v -0.2 0.8 -1.2
v -0.2 0.9 -0.6
v -0.2 0.9 -1.2
v -0.2 1 -1.19209e-007
v -0.2 1 -0.1
v -0.2 1.4 -0.5
v -0.2 1.4 -0.7
v -0.2 1.5 -0.5
v -0.2 1.5 -0.7
v -0.2 1.7 0.7
v -0.2 1.7 0.5
v -0.2 1.8 0.8
v -0.2 1.8 0.7
v -0.2 1.8 0.5
v -0.2 1.8 0.4
v -0.2 1.9 0.9
v -0.2 1.9 0.8
v -0.2 2 0.9
v -0.2 2 0.8
v -0.2 2 0.7
v -0.2 2 0.4
v -0.2 2.1 0.7
v -0.2 2.1 0.4
v -0.0999999 -1 -0.5
v -0.0999999 -1 -0.6
v -0.0999999 -0.9 -0.3
v -0.0999999 -0.9 -0.4
v -0.0999999 -0.9 -0.5
v -0.0999999 -0.9 -0.6
v -0.0999999 -0.5 -0.3
v -0.0999999 -0.5 -0.4
v -0.0999999 0.2 -0.4
v -0.0999999 0.2 -0.5
v -0.0999999 0.3 -0.4
v -0.0999999 0.3 -0.5
v -0.0999999 1.7 0.8
v -0.0999999 1.7 0.7
v -0.0999999 1.8 0.9
v -0.0999999 1.8 0.8
v -0.0999999 1.8 0.7
v -0.0999999 1.9 0.9
v -0.0999999 1.9 0.8
v -0.0999999 2 0.8
v -0.0999999 2 0.7
v -0.0999999 2.1 0.8
v -0.0999999 2.1 0.7
v 1.19209e-007 -1.8 0.7
v 1.19209e-007 -1.8 0.6
v 1.19209e-007 -1.7 0.7
v 1.19209e-007 -1.7 0.6
v 1.19209e-007 1.3 -0.5
v 1.19209e-007 1.3 -0.7
v 1.19209e-007 1.4 -0.5
v 1.19209e-007 1.4 -0.7
v 1.19209e-007 1.8 1.2
v 1.19209e-007 1.8 0.9
v 1.19209e-007 1.9 1.2
v 1.19209e-007 1.9 0.9
v 0.1 -1.8 -1.19209e-007
v 0.1 -1.8 -0.1
v 0.1 -1.7 -1.19209e-007
v 0.1 -1.7 -0.1
v 0.1 -1.6 -1.19209e-007
v 0.1 -1.6 -0.1
v 0.1 -0.5 -0.9
v 0.1 -0.5 -1.1
v 0.1 -0.4 -0.9
v 0.1 -0.4 -1.1
v 0.2 -0.7 -0.8
v 0.2 -0.7 -0.9
v 0.2 -0.7 -1.1
v 0.2 -0.7 -1.2
v 0.2 -0.4 -0.8
v 0.2 -0.4 -0.9
v 0.2 -0.4 -1.1
v 0.2 -0.4 -1.2
v 0.2 -0.3 -0.9
v 0.2 -0.3 -1.1
v 0.4 -1.8 1.3
v 0.4 -1.8 0.7
v 0.4 -1.7 1.3
v 0.4 -1.7 0.7
v 0.5 -1.7 1.3
v 0.5 -1.7 0.6
v 0.5 -1.6 1.3
v 0.5 -1.6 0.6
v 0.5 -0.8 -0.9
v 0.5 -0.8 -1.1
v 0.5 -0.7 -0.9
v 0.5 -0.7 -1.1
v 0.6 -0.9 -0.9
v 0.6 -0.9 -1.1
v 0.6 -0.8 -0.9
v 0.6 -0.8 -1.1
v 0.7 -1.8 -0.3
v 0.7 -1.8 -1
v 0.7 -1.7 -0.3
v 0.7 -1.7 -1
v 0.8 -1.7 -0.1
v 0.8 -1.7 -0.8
v 0.8 -1.6 -0.1
v 0.8 -1.6 -0.8
v 0.9 -1.7 -0.8
v 0.9 -1.7 -0.9
v 0.9 -1.6 -0.8
v 0.9 -1.6 -0.9
v -1.5 -1.8 -1.19209e-007
v -1.5 -1.8 -0.4
v -1.5 -1.7 -1.19209e-007
v -1.5 -1.7 -0.4
v -1.5 -1.6 -1.19209e-007
v -1.5 -1.6 -0.4
v -0.8 0.3 0.5
v -0.8 0.3 0.4
v -0.8 0.4 0.5
v -0.8 0.4 0.4
v -0.7 -0.7 -0.8
v -0.7 -0.7 -0.9
v -0.7 -0.6 -0.8
v -0.7 -0.6 -0.9
v -0.7 -0.4 -0.8
v -0.7 -0.4 -0.9
v -0.7 -0.1 -0.8
v -0.7 -0.1 -0.9
v -0.7 0.2 -0.5
v -0.7 0.2 -0.7
v -0.7 0.3 -0.5
v -0.7 0.3 -0.7
v -0.6 0.3 -0.4
v -0.6 0.3 -0.7
v -0.6 0.4 -0.4
v -0.6 0.6 -0.7
v -0.6 0.6 -0.8
v -0.6 0.7 -0.8
v -0.6 0.7 -0.9
v -0.6 0.9 -0.4
v -0.6 0.9 -0.9
v -0.5 -1.8 -1.6
v -0.5 -1.8 -1.9
v -0.5 -1.7 -1.4
v -0.5 -1.7 -1.5
v -0.5 -1.7 -1.6
v -0.5 -1.7 -1.9
v -0.5 -1.6 -1.4
v -0.5 -1.6 -1.5
v -0.5 0.9 -0.4
v -0.5 0.9 -0.9
v -0.5 1 -0.3
v -0.5 1 -0.4
v -0.5 1.1 -0.3
v -0.5 1.1 -0.9
v -0.4 -1.7 1.7
v -0.4 -1.7 0.7
v -0.4 -1.7 -0.7
v -0.4 -1.7 -1.4
v -0.4 -1.6 1.7
v -0.4 -1.6 0.7
v -0.4 -1.6 -0.7
v -0.4 -1.6 -1.4
v -0.4 -1.2 -0.2
v -0.4 -1.2 -0.5
v -0.4 -1.1 -0.2
v -0.4 -1.1 -0.5
v -0.4 -0.6 -0.8
v -0.4 -0.6 -0.9
v -0.4 -0.1 -0.8
v -0.4 -0.1 -0.9
v -0.4 0.3 0.5
v -0.4 0.3 0.4
v -0.4 0.4 0.5
v -0.4 0.4 0.4
v -0.4 1.1 -0.3
v -0.4 1.1 -0.4
v -0.4 1.1 -0.8
v -0.4 1.1 -0.9
v -0.4 1.5 -0.4
v -0.4 1.5 -0.8
v -0.4 1.6 -0.3
v -0.4 1.6 -0.4
v -0.4 1.6 -0.8
v -0.4 1.6 -0.9
v -0.4 1.9 0.5
v -0.4 1.9 0.4
v -0.3 0.5 1.5
v -0.3 0.5 1.4
v -0.3 0.7 1.5
v -0.3 0.7 1.4
v -0.3 0.8 1.2
v -0.3 0.8 0.9
v -0.3 0.9 1.2
v -0.3 0.9 0.9
v -0.3 1.1 -0.4
v -0.3 1.1 -0.5
v -0.3 1.1 -0.8
v -0.3 1.5 -0.4
v -0.3 1.5 -0.5
v -0.3 1.5 -0.7
v -0.3 1.5 -0.8
v -0.3 1.6 -0.4
v -0.3 1.6 -0.5
v -0.3 1.6 -0.7
v -0.3 1.6 -0.8
v -0.2 -1.8 1.7
v -0.2 -1.8 0.7
v -0.2 -1.8 0.6
v -0.2 -1.8 -0.7
v -0.2 -1.8 -1.6
v -0.2 -1.7 1.7
v -0.2 -1.7 0.7
v -0.2 -1.7 -0.7
v -0.2 -1.7 -1.6
v -0.2 -1 -0.5
v -0.2 -1 -0.6
v -0.2 -0.9 -0.3
v -0.2 -0.9 -0.4
v -0.2 -0.9 -0.5
v -0.2 -0.9 -0.6
v -0.2 -0.6 0.7
v -0.2 -0.6 0.6
v -0.2 -0.5 -0.3
v -0.2 -0.5 -0.4
v -0.2 -0.3 0.9
v -0.2 -0.3 0.8
v -0.2 -0.2 1
v -0.2 -0.2 0.9
v -0.2 -0.1 1.1
v -0.2 -0.1 1
v -0.2 -1.19209e-007 1.2
v -0.2 -1.19209e-007 1.1
v -0.2 -1.19209e-007 0.9
v -0.2 -1.19209e-007 0.8
v -0.2 0.0999999 1.2
v -0.2 0.0999999 1
v -0.2 0.0999999 0.9
v -0.2 0.2 1.3
v -0.2 0.2 1.2
v -0.2 0.2 1
v -0.2 0.2 0.9
v -0.2 0.3 1.3
v -0.2 0.3 1.2
v -0.2 0.3 1
v -0.2 0.3 0.9
v -0.2 0.3 0.8
v -0.2 0.4 0.9
v -0.2 0.4 0.8
v -0.2 0.4 0.7
v -0.2 0.4 0.5
v -0.2 0.4 0.4
v -0.2 0.4 0.2
v -0.2 0.4 0.0999999
v -0.2 0.5 1.4
v -0.2 0.5 1.3
v -0.2 0.7 1.2
v -0.2 0.7 0.8
v -0.2 0.7 0.7
v -0.2 0.8 1.4
v -0.2 0.8 1.3
v -0.2 0.8 1.2
v -0.2 0.8 0.8
v -0.2 0.9 1.3
v -0.2 0.9 1.2
v -0.2 1.6 -0.4
v -0.2 1.6 -0.5
v -0.2 1.6 -0.7
v -0.2 1.6 -0.8
v -0.2 1.7 0.5
v -0.2 1.7 0.4
v -0.2 1.8 0.2
v -0.2 1.8 0.0999999
v -0.2 1.8 -0.4
v -0.2 1.8 -0.5
v -0.2 1.8 -0.7
v -0.2 1.8 -0.8
v -0.2 1.9 -0.5
v -0.2 1.9 -0.7
v -0.0999999 -1.8 -1.19209e-007
v -0.0999999 -1.8 -0.1
v -0.0999999 -1.6 -1.19209e-007
v -0.0999999 -1.6 -0.1
v -0.0999999 -0.6 -0.8
v -0.0999999 -0.6 -0.9
v -0.0999999 -0.5 -0.9
v -0.0999999 -0.4 0.8
v -0.0999999 -0.4 0.7
v -0.0999999 -0.4 -0.8
v -0.0999999 -0.4 -0.9
v -0.0999999 -1.19209e-007 0.8
v -0.0999999 -1.19209e-007 0.7
v -0.0999999 -1.19209e-007 0.0999999
v -0.0999999 -1.19209e-007 -1.19209e-007
v -0.0999999 -1.19209e-007 -0.1
v -0.0999999 -1.19209e-007 -0.2
v -0.0999999 0.0999999 0.7
v -0.0999999 0.0999999 0.6
v -0.0999999 0.0999999 0.2
v -0.0999999 0.0999999 0.0999999
v -0.0999999 0.0999999 -0.2
v -0.0999999 0.0999999 -0.3
v -0.0999999 0.2 1.2
v -0.0999999 0.2 1
v -0.0999999 0.2 0.7
v -0.0999999 0.2 0.6
v -0.0999999 0.2 0.5
v -0.0999999 0.2 0.4
v -0.0999999 0.2 0.3
v -0.0999999 0.2 0.2
v -0.0999999 0.2 -0.3
v -0.0999999 0.2 -0.4
v -0.0999999 0.3 1
v -0.0999999 0.3 0.9
v -0.0999999 0.3 0.4
v -0.0999999 0.3 0.3
v -0.0999999 0.3 -0.4
v -0.0999999 0.4 0.9
v -0.0999999 0.4 0.8
v -0.0999999 0.4 0.5
v -0.0999999 0.4 0.4
v -0.0999999 0.4 0.2
v -0.0999999 0.4 -1.19209e-007
v -0.0999999 0.4 -0.3
v -0.0999999 0.4 -0.4
v -0.0999999 0.5 1.3
v -0.0999999 0.5 1.2
v -0.0999999 0.5 1
v -0.0999999 0.5 -0.3
v -0.0999999 0.5 -0.4
v -0.0999999 0.7 1.2
v -0.0999999 0.7 1
v -0.0999999 0.7 0.8
v -0.0999999 0.8 1.3
v -0.0999999 0.8 1.2
v -0.0999999 1 -0.1
v -0.0999999 1 -0.5
v -0.0999999 1.1 -0.1
v -0.0999999 1.1 -0.5
v -0.0999999 1.5 -0.5
v -0.0999999 1.5 -0.7
v -0.0999999 1.6 -0.5
v -0.0999999 1.6 -0.7
v -0.0999999 1.7 0.4
v -0.0999999 1.7 0.2
v -0.0999999 1.8 -0.4
v -0.0999999 1.8 -0.5
v -0.0999999 1.8 -0.7
v -0.0999999 1.8 -0.8
v -0.0999999 1.9 -0.4
v -0.0999999 1.9 -0.5
v -0.0999999 1.9 -0.7
v -0.0999999 1.9 -0.8
v 1.19209e-007 -1.8 0.5
v 1.19209e-007 -1.8 -1.19209e-007
v 1.19209e-007 -1.7 0.5
v 1.19209e-007 -1.7 -1.19209e-007
v 1.19209e-007 -0.7 -0.7
v 1.19209e-007 -0.7 -0.9
v 1.19209e-007 -0.6 0.8
v 1.19209e-007 -0.6 0.6
v 1.19209e-007 -0.6 -0.7
v 1.19209e-007 -0.6 -0.8
v 1.19209e-007 -0.6 -0.9
v 1.19209e-007 -0.4 0.8
v 1.19209e-007 -0.4 0.7
v 1.19209e-007 -0.4 -0.8
v 1.19209e-007 -0.4 -0.9
v 1.19209e-007 -0.1 -0.9
v 1.19209e-007 -0.1 -1
v 1.19209e-007 -1.19209e-007 0.8
v 1.19209e-007 -1.19209e-007 0.7
v 1.19209e-007 -1.19209e-007 -0.6
v 1.19209e-007 -1.19209e-007 -0.7
v 1.19209e-007 -1.19209e-007 -0.8
v 1.19209e-007 -1.19209e-007 -1
v 1.19209e-007 0.0999999 0.8
v 1.19209e-007 0.0999999 0.6
v 1.19209e-007 0.0999999 0.5
v 1.19209e-007 0.0999999 0.3
v 1.19209e-007 0.0999999 -0.5
v 1.19209e-007 0.0999999 -0.6
v 1.19209e-007 0.0999999 -0.7
v 1.19209e-007 0.0999999 -0.8
v 1.19209e-007 0.2 0.6
v 1.19209e-007 0.2 0.5
v 1.19209e-007 0.2 0.4
v 1.19209e-007 0.2 0.3
v 1.19209e-007 0.2 -0.4
v 1.19209e-007 0.2 -0.5
v 1.19209e-007 0.2 -0.7
v 1.19209e-007 0.3 -0.4
v 1.19209e-007 0.3 -0.5
v 1.19209e-007 0.4 -1.19209e-007
v 1.19209e-007 0.4 -0.1
v 1.19209e-007 0.4 -0.2
v 1.19209e-007 0.4 -0.3
v 1.19209e-007 0.5 1.2
v 1.19209e-007 0.5 1
v 1.19209e-007 0.5 -1.19209e-007
v 1.19209e-007 0.5 -0.1
v 1.19209e-007 0.5 -0.2
v 1.19209e-007 0.5 -0.3
v 1.19209e-007 0.5 -0.6
v 1.19209e-007 0.6 -0.2
v 1.19209e-007 0.6 -0.4
v 1.19209e-007 0.7 1.2
v 1.19209e-007 0.7 1
v 1.19209e-007 0.7 -0.4
v 1.19209e-007 0.7 -0.5
v 1.19209e-007 0.8 -0.6
v 1.19209e-007 0.8 -1.2
v 1.19209e-007 0.9 -0.1
v 1.19209e-007 0.9 -0.5
v 1.19209e-007 0.9 -0.6
v 1.19209e-007 0.9 -1.2
v 1.19209e-007 1 -1.19209e-007
v 1.19209e-007 1 -0.6
v 0.1 -1.8 -0.3
v 0.1 -1.8 -0.6
v 0.1 -1.8 -0.7
v 0.1 -1.7 0.5
v 0.1 -1.7 -1.19209e-007
v 0.1 -1.7 -0.1
v 0.1 -1.7 -0.3
v 0.1 -1.6 0.6
v 0.1 -1.6 0.5
v 0.1 -1.6 -1.19209e-007
v 0.1 -1.6 -0.1
v 0.1 -0.1 0.0999999
v 0.1 -0.1 -1.19209e-007
v 0.1 -0.1 -0.1
v 0.1 -0.1 -0.2
v 0.1 -1.19209e-007 0.2
v 0.1 -1.19209e-007 0.0999999
v 0.1 -1.19209e-007 -1.19209e-007
v 0.1 -1.19209e-007 -0.1
v 0.1 -1.19209e-007 -0.2
v 0.1 -1.19209e-007 -0.3
v 0.1 -1.19209e-007 -0.6
v 0.1 -1.19209e-007 -0.7
v 0.1 0.0999999 0.6
v 0.1 0.0999999 0.5
v 0.1 0.0999999 0.3
v 0.1 0.0999999 0.2
v 0.1 0.0999999 0.0999999
v 0.1 0.0999999 -0.2
v 0.1 0.0999999 -0.3
v 0.1 0.0999999 -0.4
v 0.1 0.0999999 -0.5
v 0.1 0.0999999 -0.6
v 0.1 0.2 0.4
v 0.1 0.2 0.3
v 0.1 0.2 0.2
v 0.1 0.2 -0.3
v 0.1 0.2 -0.4
v 0.1 0.2 -0.5
v 0.1 0.3 0.4
v 0.1 0.3 0.3
v 0.1 0.4 -0.1
v 0.1 0.4 -0.2
v 0.1 0.5 -0.1
v 0.1 0.5 -0.2
v 0.1 0.6 -0.2
v 0.1 0.6 -0.4
v 0.1 0.7 -0.4
v 0.1 0.7 -0.5
v 0.1 0.8 -0.2
v 0.1 0.8 -0.3
v 0.1 0.9 -0.1
v 0.1 0.9 -0.2
v 0.1 0.9 -0.3
v 0.1 0.9 -0.5
v 0.1 1.4 -0.5
v 0.1 1.4 -0.7
v 0.1 1.5 -0.5
v 0.1 1.5 -0.7
v 0.1 1.7 0.3
v 0.1 1.7 0.2
v 0.1 1.8 1.1
v 0.1 1.8 0.9
v 0.1 1.8 0.2
v 0.1 1.8 0.0999999
v 0.1 1.9 1.1
v 0.1 1.9 0.9
v 0.1 1.9 0.2
v 0.1 1.9 0.0999999
v 0.1 2 0.3
v 0.1 2 0.2
v 0.2 -0.8 -0.9
v 0.2 -0.8 -1.1
v 0.2 -0.7 -0.9
v 0.2 -0.7 -1.1
v 0.2 0.8 -0.2
v 0.2 0.8 -0.3
v 0.2 0.9 -0.2
v 0.2 0.9 -0.3
v 0.2 1.3 -0.5
v 0.2 1.3 -0.7
v 0.2 1.4 -0.5
v 0.2 1.4 -0.7
v 0.2 1.7 0.8
v 0.2 1.7 0.3
v 0.2 1.8 0.9
v 0.2 1.8 0.8
v 0.2 1.8 0.4
v 0.2 1.9 0.9
v 0.2 1.9 0.8
v 0.2 2 0.8
v 0.2 2 0.4
v 0.2 2 0.3
v 0.2 2.1 0.8
v 0.2 2.1 0.4
v 0.3 1.8 1.2
v 0.3 1.8 1.1
v 0.3 1.8 0.8
v 0.3 1.8 0.4
v 0.3 1.9 1.2
v 0.3 1.9 1.1
v 0.3 1.9 0.9
v 0.3 1.9 0.8
v 0.3 2 0.9
v 0.3 2 0.8
v 0.3 2 0.4
v 0.4 -0.7 -0.8
v 0.4 -0.7 -0.9
v 0.4 -0.7 -1.1
v 0.4 -0.7 -1.2
v 0.4 -0.5 -0.8
v 0.4 -0.5 -0.9
v 0.4 -0.5 -1.1
v 0.4 -0.5 -1.2
v 0.4 -0.4 -0.9
v 0.4 -0.4 -1.1
v 0.4 -0.3 -0.9
v 0.4 -0.3 -1.1
v 0.5 -1.7 0.6
v 0.5 -1.7 0.5
v 0.5 -1.6 0.6
v 0.5 -1.6 0.5
v 0.5 -0.6 -0.9
v 0.5 -0.6 -1.1
v 0.5 -0.5 -0.8
v 0.5 -0.5 -0.9
v 0.5 -0.5 -1.1
v 0.5 -0.5 -1.2
v 0.5 -0.4 -0.8
v 0.5 -0.4 -0.9
v 0.5 -0.4 -1.1
v 0.5 -0.4 -1.2
v 0.6 -1.8 1.3
v 0.6 -1.8 0.5
v 0.6 -1.7 1.3
v 0.6 -1.7 0.6
v 0.6 -1.7 0.5
v 0.6 -1.6 1.3
v 0.6 -1.6 0.6
v 0.6 -0.7 -0.9
v 0.6 -0.7 -1.1
v 0.6 -0.6 -0.9
v 0.6 -0.6 -1.1
v 0.7 -0.8 -0.9
v 0.7 -0.8 -1.1
v 0.7 -0.7 -0.9
v 0.7 -0.7 -1.1
v 0.8 -1.7 -1.19209e-007
v 0.8 -1.7 -0.1
v 0.8 -1.6 -1.19209e-007
v 0.8 -1.6 -0.1
v 0.8 -0.9 -0.9
v 0.8 -0.9 -1.1
v 0.8 -0.8 -0.9
v 0.8 -0.8 -1.1
v 0.9 -1.8 -1.19209e-007
v 0.9 -1.8 -0.8
v 0.9 -1.7 -1.19209e-007
v 0.9 -1.7 -0.1
v 0.9 -1.7 -0.8
v 0.9 -1.6 -0.1
v 0.9 -1.6 -0.8
v 1.2 -1.8 -0.8
v 1.2 -1.8 -1
v 1.2 -1.7 -0.8
v 1.2 -1.7 -0.9
v 1.2 -1.7 -1
v 1.2 -1.6 -0.8
v 1.2 -1.6 -0.9
v -0.5 -1.8 1.7
v -0.5 -1.7 1.7
v -0.5 -1.6 1.7
v -0.4 -1.7 1.7
v -0.4 -1.6 1.7
v -0.2 -1.8 1.7
v -0.2 -1.7 1.7
v -0.8 0.5 1.5
v -0.8 0.7 1.5
v -0.3 0.5 1.5
v -0.3 0.7 1.5
v -1 0.5 1.4
v -1 0.7 1.4
v -0.9 0.5 1.4
v -0.9 0.7 1.4
v -0.8 0.5 1.4
v -0.8 0.7 1.4
v -0.8 0.8 1.4
v -0.3 0.5 1.4
v -0.3 0.7 1.4
v -0.2 0.5 1.4
v -0.2 0.8 1.4
v -0.9 0.7 1.3
v -0.9 0.8 1.3
v -0.8 0.7 1.3
v -0.8 0.8 1.3
v -0.8 0.9 1.3
v -0.7 0.2 1.3
v -0.7 0.3 1.3
v -0.2 0.2 1.3
v -0.2 0.3 1.3
v -0.2 0.5 1.3
v -0.2 0.8 1.3
v -0.2 0.9 1.3
v -0.0999999 0.5 1.3
v -0.0999999 0.8 1.3
v 0.4 -1.8 1.3
v 0.4 -1.7 1.3
v 0.5 -1.7 1.3
v 0.5 -1.6 1.3
v 0.6 -1.8 1.3
v 0.6 -1.7 1.3
v 0.6 -1.6 1.3
v -0.8 0.3 1.2
v -0.8 0.5 1.2
v -0.7 -1.19209e-007 1.2
v -0.7 0.0999999 1.2
v -0.7 0.2 1.2
v -0.7 0.3 1.2
v -0.2 -1.19209e-007 1.2
v -0.2 0.0999999 1.2
v -0.2 0.2 1.2
v -0.2 0.3 1.2
v -0.2 0.5 1.2
v -0.0999999 0.2 1.2
v -0.0999999 0.5 1.2
v -0.0999999 0.7 1.2
v 1.19209e-007 0.5 1.2
v 1.19209e-007 0.7 1.2
v 1.19209e-007 1.8 1.2
v 1.19209e-007 1.9 1.2
v 0.3 1.8 1.2
v 0.3 1.9 1.2
v -0.9 0.4 1.1
v -0.9 0.5 1.1
v -0.8 0.4 1.1
v -0.8 0.5 1.1
v -0.7 -0.1 1.1
v -0.7 -1.19209e-007 1.1
v -0.2 -0.1 1.1
v -0.2 -1.19209e-007 1.1
v -0.8 0.2 1
v -0.8 0.3 1
v -0.7 -0.2 1
v -0.7 -0.1 1
v -0.7 0.2 1
v -0.7 0.3 1
v -0.2 -0.2 1
v -0.2 -0.1 1
v -0.7 -0.3 0.9
v -0.7 -0.2 0.9
v -0.2 -0.3 0.9
v -0.2 -0.2 0.9
v -0.2 1.9 0.9
v -0.2 2 0.9
v -0.0999999 1.8 0.9
v -0.0999999 1.9 0.9
v -0.0999999 2 0.9
v 1.19209e-007 1.8 0.9
v 1.19209e-007 1.9 0.9
v 0.1 1.8 0.9
v 0.1 1.9 0.9
v 0.2 1.8 0.9
v 0.2 1.9 0.9
v 0.2 2 0.9
v 0.3 1.9 0.9
v 0.3 2 0.9
v -1 -0.4 0.8
v -1 0.0999999 0.8
v -0.9 -0.6 0.8
v -0.9 -0.4 0.8
v -0.8 -0.4 0.8
v -0.8 0.0999999 0.8
v -0.7 -0.3 0.8
v -0.7 -1.19209e-007 0.8
v -0.2 -0.3 0.8
v -0.2 -1.19209e-007 0.8
v -0.2 1.8 0.8
v -0.2 1.9 0.8
v -0.0999999 -0.4 0.8
v -0.0999999 -1.19209e-007 0.8
v -0.0999999 0.0999999 0.8
v -0.0999999 1.7 0.8
v -0.0999999 1.8 0.8
v -0.0999999 1.9 0.8
v -0.0999999 2 0.8
v -0.0999999 2.1 0.8
v 1.19209e-007 -0.6 0.8
v 1.19209e-007 -0.4 0.8
v 1.19209e-007 -1.19209e-007 0.8
v 1.19209e-007 0.0999999 0.8
v 0.2 1.7 0.8
v 0.2 1.8 0.8
v 0.2 1.9 0.8
v 0.2 2 0.8
v 0.2 2.1 0.8
v 0.3 1.8 0.8
v 0.3 1.9 0.8
v -1 -0.6 0.7
v -1 -0.4 0.7
v -0.9 -1.8 0.7
v -0.9 -0.6 0.7
v -0.9 -0.4 0.7
v -0.9 0.0999999 0.7
v -0.9 0.2 0.7
v -0.8 0.0999999 0.7
v -0.5 -1.8 0.7
v -0.5 -1.7 0.7
v -0.5 -1.6 0.7
v -0.4 -1.7 0.7
v -0.4 -1.6 0.7
v -0.2 -1.7 0.7
v -0.2 -0.6 0.7
v -0.2 1.7 0.7
v -0.2 1.8 0.7
v -0.2 2 0.7
v -0.2 2.1 0.7
v -0.0999999 -0.4 0.7
v -0.0999999 -1.19209e-007 0.7
v -0.0999999 0.0999999 0.7
v -0.0999999 0.2 0.7
v -0.0999999 1.7 0.7
v -0.0999999 1.8 0.7
v -0.0999999 2 0.7
v -0.0999999 2.1 0.7
v 1.19209e-007 -1.8 0.7
v 1.19209e-007 -1.7 0.7
v 1.19209e-007 -0.4 0.7
v 1.19209e-007 -1.19209e-007 0.7
v 0.1 -1.8 0.7
v 0.1 -1.7 0.7
v 0.4 -1.8 0.7
v 0.4 -1.7 0.7
v -1 -1.8 0.6
v -1 -0.6 0.6
v -1 0.0999999 0.6
v -1 0.2 0.6
v -0.9 -1.8 0.6
v -0.9 -0.6 0.6
v -0.9 0.0999999 0.6
v -0.9 0.2 0.6
v -0.2 -1.8 0.6
v -0.2 -0.6 0.6
v -0.0999999 0.0999999 0.6
v -0.0999999 0.2 0.6
v 1.19209e-007 -1.8 0.6
v 1.19209e-007 -1.7 0.6
v 1.19209e-007 -0.6 0.6
v 1.19209e-007 0.0999999 0.6
v 1.19209e-007 0.2 0.6
v 0.1 -1.7 0.6
v 0.1 -1.6 0.6
v 0.1 0.0999999 0.6
v 0.5 -1.7 0.6
v 0.5 -1.6 0.6
v -0.9 0.2 0.5
v -0.9 0.4 0.5
v -0.8 0.3 0.5
v -0.8 0.4 0.5
v -0.6 0.3 0.5
v -0.6 0.4 0.5
v -0.5 0.3 0.5
v -0.5 0.4 0.5
v -0.5 1.9 0.5
v -0.4 0.3 0.5
v -0.4 0.4 0.5
v -0.4 1.9 0.5
v -0.3 0.3 0.5
v -0.3 0.4 0.5
v -0.3 1.7 0.5
v -0.3 1.8 0.5
v -0.2 0.3 0.5
v -0.2 0.4 0.5
v -0.2 1.7 0.5
v -0.2 1.8 0.5
v -0.0999999 0.2 0.5
v -0.0999999 0.4 0.5
v -1 0.2 0.4
v -1 0.4 0.4
v -0.9 0.2 0.4
v -0.9 0.4 0.4
v -0.8 0.3 0.4
v -0.8 0.4 0.4
v -0.6 0.3 0.4
v -0.6 0.4 0.4
v -0.6 1.8 0.4
v -0.5 0.4 0.4
v -0.5 1.8 0.4
v -0.4 0.3 0.4
v -0.4 0.4 0.4
v -0.4 1.9 0.4
v -0.4 2 0.4
v -0.3 0.3 0.4
v -0.3 0.4 0.4
v -0.3 1.7 0.4
v -0.3 1.8 0.4
v -0.2 0.4 0.4
v -0.2 1.7 0.4
v -0.2 1.8 0.4
v -0.2 2 0.4
v -0.0999999 0.2 0.4
v -0.0999999 0.3 0.4
v -0.0999999 0.4 0.4
v -0.0999999 1.7 0.4
v 1.19209e-007 0.2 0.4
v 0.1 0.2 0.4
v 0.1 0.3 0.4
v 1.19209e-007 0.0999999 0.3
v 1.19209e-007 0.2 0.3
v 0.1 0.0999999 0.3
v 0.1 0.2 0.3
v -1.7 -1.8 -1.19209e-007
v -1.7 -1.7 -1.19209e-007
v -1.6 -1.7 -1.19209e-007
v -1.6 -1.6 -1.19209e-007
v -1.5 -1.8 -1.19209e-007
v -1.5 -1.7 -1.19209e-007
v -1.5 -1.6 -1.19209e-007
v -0.2 0.4 -1.19209e-007
v -0.2 1 -1.19209e-007
v -0.0999999 0.4 -1.19209e-007
v -0.0999999 0.5 -1.19209e-007
v 1.19209e-007 0.4 -1.19209e-007
v 1.19209e-007 0.5 -1.19209e-007
v 1.19209e-007 1 -1.19209e-007
v 0.1 -1.8 -1.19209e-007
v 0.1 -1.7 -1.19209e-007
v 0.1 -1.6 -1.19209e-007
v 0.8 -1.7 -1.19209e-007
v 0.8 -1.6 -1.19209e-007
v 0.9 -1.8 -1.19209e-007
v 0.9 -1.7 -1.19209e-007
v -0.4 0.4 -0.1
v -0.4 0.5 -0.1
v -0.4 1.1 -0.1
v -0.2 0.4 -0.1
v -0.2 0.5 -0.1
v -0.2 1 -0.1
v -0.0999999 -1.8 -0.1
v -0.0999999 -1.6 -0.1
v -0.0999999 -1.19209e-007 -0.1
v -0.0999999 1 -0.1
v -0.0999999 1.1 -0.1
v 1.19209e-007 -1.8 -0.1
v 1.19209e-007 -1.7 -0.1
v 1.19209e-007 -0.1 -0.1
v 1.19209e-007 0.4 -0.1
v 1.19209e-007 0.5 -0.1
v 1.19209e-007 0.9 -0.1
v 0.1 -1.8 -0.1
v 0.1 -1.7 -0.1
v 0.1 -1.6 -0.1
v 0.1 -0.1 -0.1
v 0.1 -1.19209e-007 -0.1
v 0.1 0.4 -0.1
v 0.1 0.5 -0.1
v 0.1 0.9 -0.1
v 0.8 -1.7 -0.1
v 0.8 -1.6 -0.1
v 0.9 -1.7 -0.1
v 0.9 -1.6 -0.1
v -0.0999999 -1.19209e-007 -0.2
v -0.0999999 0.0999999 -0.2
v 0.1 -1.19209e-007 -0.2
v 0.1 0.0999999 -0.2
v 0.1 0.8 -0.2
v 0.1 0.9 -0.2
v 0.2 0.8 -0.2
v 0.2 0.9 -0.2
v -0.7 1 -0.3
v -0.7 1.6 -0.3
v -0.5 1 -0.3
v -0.5 1.1 -0.3
v -0.4 1.1 -0.3
v -0.4 1.6 -0.3
v -0.0999999 0.0999999 -0.3
v -0.0999999 0.2 -0.3
v 0.1 0.0999999 -0.3
v 0.1 0.2 -0.3
v -1.5 -1.8 -0.4
v -1.5 -1.7 -0.4
v -1.5 -1.6 -0.4
v -1 -1.8 -0.4
v -1 -1.7 -0.4
v -1 -1.6 -0.4
v -0.7 0.4 -0.4
v -0.7 1 -0.4
v -0.7 1.6 -0.4
v -0.7 1.7 -0.4
v -0.6 0.4 -0.4
v -0.6 0.9 -0.4
v -0.6 1.7 -0.4
v -0.6 1.8 -0.4
v -0.5 0.9 -0.4
v -0.5 1 -0.4
v -0.5 1.8 -0.4
v -0.5 1.9 -0.4
v -0.4 1.1 -0.4
v -0.4 1.5 -0.4
v -0.4 1.6 -0.4
v -0.3 1.1 -0.4
v -0.3 1.5 -0.4
v -0.3 1.6 -0.4
v -0.2 -0.9 -0.4
v -0.2 -0.5 -0.4
v -0.2 1.6 -0.4
v -0.2 1.8 -0.4
v -0.2 1.9 -0.4
v -0.0999999 -0.9 -0.4
v -0.0999999 -0.5 -0.4
v -0.0999999 0.2 -0.4
v -0.0999999 0.3 -0.4
v -0.0999999 1.8 -0.4
v -0.0999999 1.9 -0.4
v 1.19209e-007 0.2 -0.4
v 1.19209e-007 0.3 -0.4
v -1.1 0.0999999 -0.5
v -1.1 0.2 -0.5
v -1 0.0999999 -0.5
v -1 0.2 -0.5
v -1 0.3 -0.5
v -0.9 0.2 -0.5
v -0.8 0.3 -0.5
v -0.8 0.4 -0.5
v -0.8 1.7 -0.5
v -0.7 0.2 -0.5
v -0.7 0.3 -0.5
v -0.7 0.4 -0.5
v -0.7 1.7 -0.5
v -0.4 -1.2 -0.5
v -0.4 -1.1 -0.5
v -0.3 -1.2 -0.5
v -0.3 -1.1 -0.5
v -0.3 1.5 -0.5
v -0.3 1.6 -0.5
v -0.2 1.4 -0.5
v -0.2 1.5 -0.5
v -0.2 1.6 -0.5
v -0.0999999 1.5 -0.5
v -0.0999999 1.6 -0.5
v 1.19209e-007 1.3 -0.5
v 1.19209e-007 1.4 -0.5
v 1.19209e-007 1.5 -0.5
v 0.1 1.3 -0.5
v 0.1 1.4 -0.5
v 0.1 1.5 -0.5
v 0.2 1.3 -0.5
v 0.2 1.4 -0.5
v -0.2 -1 -0.6
v -0.2 -0.9 -0.6
v -0.0999999 -1 -0.6
v -0.0999999 -0.9 -0.6
v -0.2 1.8 -0.7
v -0.2 1.9 -0.7
v -0.0999999 1.8 -0.7
v -0.0999999 1.9 -0.7
v 0.2 -0.7 -0.8
v 0.2 -0.4 -0.8
v 0.4 -0.7 -0.8
v 0.4 -0.5 -0.8
v 0.4 -0.4 -0.8
v 0.5 -0.5 -0.8
v 0.5 -0.4 -0.8
v 0.9 -1.8 -0.8
v 0.9 -1.7 -0.8
v 0.9 -1.6 -0.8
v 1.2 -1.8 -0.8
v 1.2 -1.7 -0.8
v 1.2 -1.6 -0.8
v -0.2 -0.8 -0.9
v -0.2 -0.7 -0.9
v -0.0999999 -0.6 -0.9
v -0.0999999 -0.5 -0.9
v 1.19209e-007 -0.7 -0.9
v 1.19209e-007 -0.6 -0.9
v 0.1 -0.5 -0.9
v 0.1 -0.4 -0.9
v 0.2 -0.8 -0.9
v 0.2 -0.7 -0.9
v 0.2 -0.4 -0.9
v 0.2 -0.3 -0.9
v 0.4 -0.7 -0.9
v 0.4 -0.5 -0.9
v 0.4 -0.4 -0.9
v 0.4 -0.3 -0.9
v 0.5 -0.8 -0.9
v 0.5 -0.7 -0.9
v 0.5 -0.6 -0.9
v 0.5 -0.5 -0.9
v 0.6 -0.9 -0.9
v 0.6 -0.8 -0.9
v 0.6 -0.7 -0.9
v 0.6 -0.6 -0.9
v 0.7 -0.8 -0.9
v 0.7 -0.7 -0.9
v 0.8 -0.9 -0.9
v 0.8 -0.8 -0.9
v -0.7 -1.8 -1.4
v -0.7 -1.6 -1.4
v -0.5 -1.8 -1.4
v -0.5 -1.6 -1.4
v -1 0.5 1.2
v -1 0.7 1.2
v -0.9 0.5 1.2
v -0.9 0.7 1.2
v -0.8 0.8 1.2
v -0.8 0.9 1.2
v -0.7 0.8 1.2
v -0.7 0.9 1.2
v -0.3 0.8 1.2
v -0.3 0.9 1.2
v -0.2 0.7 1.2
v -0.2 0.8 1.2
v -0.2 0.9 1.2
v -0.0999999 0.7 1.2
v -0.0999999 0.8 1.2
v 0.1 1.8 1.1
v 0.1 1.9 1.1
v 0.3 1.8 1.1
v 0.3 1.9 1.1
v -0.7 0.0999999 1
v -0.7 0.2 1
v -0.2 0.0999999 1
v -0.2 0.2 1
v -0.2 0.3 1
v -0.0999999 0.2 1
v -0.0999999 0.3 1
v -0.0999999 0.5 1
v -0.0999999 0.7 1
v 1.19209e-007 0.5 1
v 1.19209e-007 0.7 1
v -0.9 0.4 0.9
v -0.9 0.8 0.9
v -0.8 0.2 0.9
v -0.8 0.3 0.9
v -0.8 0.4 0.9
v -0.8 0.8 0.9
v -0.7 -1.19209e-007 0.9
v -0.7 0.0999999 0.9
v -0.7 0.8 0.9
v -0.7 0.9 0.9
v -0.3 0.8 0.9
v -0.3 0.9 0.9
v -0.2 -1.19209e-007 0.9
v -0.2 0.0999999 0.9
v -0.2 0.2 0.9
v -0.2 0.3 0.9
v -0.2 0.4 0.9
v -0.0999999 0.3 0.9
v -0.0999999 0.4 0.9
v -0.8 0.3 0.8
v -0.8 0.8 0.8
v -0.7 0.4 0.8
v -0.7 0.7 0.8
v -0.2 0.3 0.8
v -0.2 0.4 0.8
v -0.2 0.7 0.8
v -0.2 0.8 0.8
v -0.0999999 0.4 0.8
v -0.0999999 0.7 0.8
v -0.7 0.4 0.7
v -0.7 0.7 0.7
v -0.2 0.4 0.7
v -0.2 0.7 0.7
v 0.5 -1.7 0.6
v 0.5 -1.6 0.6
v 0.6 -1.7 0.6
v 0.6 -1.6 0.6
v 1.19209e-007 -1.8 0.5
v 1.19209e-007 -1.7 0.5
v 0.1 -1.7 0.5
v 0.1 -1.6 0.5
v 0.5 -1.7 0.5
v 0.5 -1.6 0.5
v 0.6 -1.8 0.5
v 0.6 -1.7 0.5
v -0.2 2 0.4
v -0.2 2.1 0.4
v 0.2 1.8 0.4
v 0.2 2 0.4
v 0.2 2.1 0.4
v 0.3 1.8 0.4
v 0.3 2 0.4
v -0.0999999 0.2 0.3
v -0.0999999 0.3 0.3
v 0.1 0.2 0.3
v 0.1 0.3 0.3
v 0.1 1.7 0.3
v 0.1 2 0.3
v 0.2 1.7 0.3
v 0.2 2 0.3
v -0.6 0.4 0.2
v -0.6 1.8 0.2
v -0.5 0.4 0.2
v -0.5 1.8 0.2
v -0.4 1.9 0.2
v -0.4 2 0.2
v -0.2 0.4 0.2
v -0.2 1.8 0.2
v -0.0999999 0.0999999 0.2
v -0.0999999 0.2 0.2
v -0.0999999 0.4 0.2
v -0.0999999 1.7 0.2
v 0.1 0.0999999 0.2
v 0.1 0.2 0.2
v 0.1 1.7 0.2
v 0.1 1.8 0.2
v 0.1 1.9 0.2
v 0.1 2 0.2
v -0.5 0.4 0.0999999
v -0.5 1.9 0.0999999
v -0.2 0.4 0.0999999
v -0.2 1.8 0.0999999
v -0.0999999 -1.19209e-007 0.0999999
v -0.0999999 0.0999999 0.0999999
v 0.1 -1.19209e-007 0.0999999
v 0.1 0.0999999 0.0999999
v 0.1 1.8 0.0999999
v 0.1 1.9 0.0999999
v -0.0999999 -1.8 -1.19209e-007
v -0.0999999 -1.6 -1.19209e-007
v -0.0999999 -1.19209e-007 -1.19209e-007
v 1.19209e-007 -1.8 -1.19209e-007
v 1.19209e-007 -1.7 -1.19209e-007
v 1.19209e-007 -0.1 -1.19209e-007
v 0.1 -1.7 -1.19209e-007
v 0.1 -1.6 -1.19209e-007
v 0.1 -0.1 -1.19209e-007
v 0.1 -1.19209e-007 -1.19209e-007
v 0.1 -1.7 -0.1
v 0.1 -1.6 -0.1
v 0.8 -1.7 -0.1
v 0.8 -1.6 -0.1
v -0.4 -1.2 -0.2
v -0.4 -1.1 -0.2
v -0.3 -1.2 -0.2
v -0.3 -1.1 -0.2
v 1.19209e-007 0.4 -0.2
v 1.19209e-007 0.5 -0.2
v 1.19209e-007 0.6 -0.2
v 0.1 0.4 -0.2
v 0.1 0.5 -0.2
v 0.1 0.6 -0.2
v -1 0.2 -0.3
v -1 0.4 -0.3
v -0.9 0.2 -0.3
v -0.9 0.3 -0.3
v -0.9 0.4 -0.3
v -0.2 -0.9 -0.3
v -0.2 -0.5 -0.3
v -0.0999999 -0.9 -0.3
v -0.0999999 -0.5 -0.3
v -0.0999999 0.4 -0.3
v -0.0999999 0.5 -0.3
v 1.19209e-007 0.4 -0.3
v 1.19209e-007 0.5 -0.3
v 0.1 -1.8 -0.3
v 0.1 -1.7 -0.3
v 0.1 0.8 -0.3
v 0.1 0.9 -0.3
v 0.2 0.8 -0.3
v 0.2 0.9 -0.3
v 0.7 -1.8 -0.3
v 0.7 -1.7 -0.3
v -1.6 -1.7 -0.4
v -1.6 -1.6 -0.4
v -1.5 -1.7 -0.4
v -1.5 -1.6 -0.4
v -0.9 0.2 -0.4
v -0.9 0.3 -0.4
v -0.9 0.4 -0.4
v -0.8 0.3 -0.4
v -0.8 0.4 -0.4
v -0.6 0.2 -0.4
v -0.6 0.3 -0.4
v -0.6 0.4 -0.4
v -0.4 0.4 -0.4
v -0.4 0.5 -0.4
v -0.3 0.2 -0.4
v -0.3 0.4 -0.4
v -0.2 0.2 -0.4
v -0.2 0.4 -0.4
v -0.0999999 0.2 -0.4
v -0.0999999 0.3 -0.4
v -0.0999999 0.4 -0.4
v -0.0999999 0.5 -0.4
v 1.19209e-007 0.6 -0.4
v 1.19209e-007 0.7 -0.4
v 0.1 0.6 -0.4
v 0.1 0.7 -0.4
v -1.5 -1.7 -0.5
v -1.5 -1.6 -0.5
v -1 -1.7 -0.5
v -1 -1.6 -0.5
v -0.4 0.5 -0.5
v -0.4 1.1 -0.5
v -0.3 0.5 -0.5
v -0.3 1 -0.5
v -0.3 1.1 -0.5
v -0.2 -1 -0.5
v -0.2 -0.9 -0.5
v -0.2 1.8 -0.5
v -0.2 1.9 -0.5
v -0.0999999 -1 -0.5
v -0.0999999 -0.9 -0.5
v -0.0999999 0.2 -0.5
v -0.0999999 0.3 -0.5
v -0.0999999 1 -0.5
v -0.0999999 1.1 -0.5
v -0.0999999 1.8 -0.5
v -0.0999999 1.9 -0.5
v 1.19209e-007 0.0999999 -0.5
v 1.19209e-007 0.2 -0.5
v 1.19209e-007 0.3 -0.5
v 1.19209e-007 0.7 -0.5
v 1.19209e-007 0.9 -0.5
v 0.1 0.0999999 -0.5
v 0.1 0.2 -0.5
v 0.1 0.7 -0.5
v 0.1 0.9 -0.5
v -1.7 -1.8 -0.6
v -1.7 -1.7 -0.6
v -1 -1.8 -0.6
v -1 -1.7 -0.6
v -1 -1.1 -0.6
v -1 -1.19209e-007 -0.6
v -0.9 -1.1 -0.6
v -0.9 -1.19209e-007 -0.6
v -0.3 0.5 -0.6
v -0.3 1 -0.6
v -0.2 0.8 -0.6
v -0.2 0.9 -0.6
v 1.19209e-007 -1.19209e-007 -0.6
v 1.19209e-007 0.0999999 -0.6
v 1.19209e-007 0.5 -0.6
v 1.19209e-007 0.8 -0.6
v 1.19209e-007 0.9 -0.6
v 1.19209e-007 1 -0.6
v 0.1 -1.19209e-007 -0.6
v 0.1 0.0999999 -0.6
v -1.1 0.0999999 -0.7
v -1.1 0.2 -0.7
v -1 -1.8 -0.7
v -1 -1.1 -0.7
v -1 -1.19209e-007 -0.7
v -1 0.0999999 -0.7
v -1 0.2 -0.7
v -1 0.3 -0.7
v -0.9 -1.1 -0.7
v -0.9 -0.7 -0.7
v -0.9 -1.19209e-007 -0.7
v -0.9 0.0999999 -0.7
v -0.9 0.2 -0.7
v -0.8 0.3 -0.7
v -0.8 0.6 -0.7
v -0.7 -0.7 -0.7
v -0.7 0.2 -0.7
v -0.7 0.3 -0.7
v -0.6 0.3 -0.7
v -0.6 0.6 -0.7
v -0.5 -1.8 -0.7
v -0.5 -1.6 -0.7
v -0.4 -1.7 -0.7
v -0.4 -1.6 -0.7
v -0.3 1.5 -0.7
v -0.3 1.6 -0.7
v -0.2 -1.8 -0.7
v -0.2 -1.7 -0.7
v -0.2 1.4 -0.7
v -0.2 1.5 -0.7
v -0.2 1.6 -0.7
v -0.0999999 1.5 -0.7
v -0.0999999 1.6 -0.7
v 1.19209e-007 -0.7 -0.7
v 1.19209e-007 -0.6 -0.7
v 1.19209e-007 -1.19209e-007 -0.7
v 1.19209e-007 0.0999999 -0.7
v 1.19209e-007 0.2 -0.7
v 1.19209e-007 1.3 -0.7
v 1.19209e-007 1.4 -0.7
v 1.19209e-007 1.5 -0.7
v 0.1 -1.8 -0.7
v 0.1 -1.19209e-007 -0.7
v 0.1 1.3 -0.7
v 0.1 1.4 -0.7
v 0.1 1.5 -0.7
v 0.2 1.3 -0.7
v 0.2 1.4 -0.7
v -0.9 -0.6 -0.8
v -0.9 -0.4 -0.8
v -0.9 -1.19209e-007 -0.8
v -0.9 0.0999999 -0.8
v -0.8 0.6 -0.8
v -0.8 0.7 -0.8
v -0.8 0.8 -0.8
v -0.8 1.7 -0.8
v -0.7 -0.7 -0.8
v -0.7 -0.6 -0.8
v -0.7 -0.4 -0.8
v -0.7 -0.1 -0.8
v -0.7 0.8 -0.8
v -0.7 1.6 -0.8
v -0.6 -0.6 -0.8
v -0.6 -0.1 -0.8
v -0.6 0.6 -0.8
v -0.6 0.7 -0.8
v -0.6 1.7 -0.8
v -0.6 1.8 -0.8
v -0.5 -0.7 -0.8
v -0.5 -0.6 -0.8
v -0.5 -1.19209e-007 -0.8
v -0.5 1.8 -0.8
v -0.5 1.9 -0.8
v -0.4 -0.6 -0.8
v -0.4 -0.1 -0.8
v -0.4 -1.19209e-007 -0.8
v -0.4 1.1 -0.8
v -0.4 1.5 -0.8
v -0.4 1.6 -0.8
v -0.3 -0.6 -0.8
v -0.3 -0.4 -0.8
v -0.3 -0.1 -0.8
v -0.3 1.1 -0.8
v -0.3 1.5 -0.8
v -0.3 1.6 -0.8
v -0.2 1.6 -0.8
v -0.2 1.8 -0.8
v -0.2 1.9 -0.8
v -0.0999999 -0.6 -0.8
v -0.0999999 -0.4 -0.8
v -0.0999999 1.8 -0.8
v -0.0999999 1.9 -0.8
v 1.19209e-007 -0.6 -0.8
v 1.19209e-007 -0.4 -0.8
v 1.19209e-007 -1.19209e-007 -0.8
v 1.19209e-007 0.0999999 -0.8
v 0.8 -1.7 -0.8
v 0.8 -1.6 -0.8
v 0.9 -1.7 -0.8
v 0.9 -1.6 -0.8
v -0.9 -0.7 -0.9
v -0.9 -0.6 -0.9
v -0.9 -0.4 -0.9
v -0.9 -0.1 -0.9
v -0.8 0.7 -0.9
v -0.8 0.8 -0.9
v -0.7 -0.7 -0.9
v -0.7 -0.6 -0.9
v -0.7 -0.4 -0.9
v -0.7 -0.1 -0.9
v -0.7 0.8 -0.9
v -0.7 1.6 -0.9
v -0.6 -0.6 -0.9
v -0.6 -0.1 -0.9
v -0.6 0.7 -0.9
v -0.6 0.9 -0.9
v -0.5 -0.7 -0.9
v -0.5 -0.6 -0.9
v -0.5 0.9 -0.9
v -0.5 1.1 -0.9
v -0.4 -0.6 -0.9
v -0.4 -0.1 -0.9
v -0.4 1.1 -0.9
v -0.4 1.6 -0.9
v -0.3 -0.6 -0.9
v -0.3 -0.4 -0.9
v -0.3 -0.1 -0.9
v -0.2 -0.7 -0.9
v -0.2 -0.5 -0.9
v -0.0999999 -0.5 -0.9
v -0.0999999 -0.4 -0.9
v 1.19209e-007 -0.4 -0.9
v 1.19209e-007 -0.1 -0.9
v 0.9 -1.7 -0.9
v 0.9 -1.6 -0.9
v 1.2 -1.7 -0.9
v 1.2 -1.6 -0.9
v -0.9 -0.1 -1
v -0.9 -1.19209e-007 -1
v 1.19209e-007 -0.1 -1
v 1.19209e-007 -1.19209e-007 -1
v 0.7 -1.8 -1
v 0.7 -1.7 -1
v 1.2 -1.8 -1
v 1.2 -1.7 -1
v -0.2 -0.8 -1.1
v -0.2 -0.7 -1.1
v -0.2 -0.5 -1.1
v 0.1 -0.5 -1.1
v 0.1 -0.4 -1.1
v 0.2 -0.8 -1.1
v 0.2 -0.7 -1.1
v 0.2 -0.4 -1.1
v 0.2 -0.3 -1.1
v 0.4 -0.7 -1.1
v 0.4 -0.5 -1.1
v 0.4 -0.4 -1.1
v 0.4 -0.3 -1.1
v 0.5 -0.8 -1.1
v 0.5 -0.7 -1.1
v 0.5 -0.6 -1.1
v 0.5 -0.5 -1.1
v 0.6 -0.9 -1.1
v 0.6 -0.8 -1.1
v 0.6 -0.7 -1.1
v 0.6 -0.6 -1.1
v 0.7 -0.8 -1.1
v 0.7 -0.7 -1.1
v 0.8 -0.9 -1.1
v 0.8 -0.8 -1.1
v -0.2 0.8 -1.2
v -0.2 0.9 -1.2
v 1.19209e-007 0.8 -1.2
v 1.19209e-007 0.9 -1.2
v 0.2 -0.7 -1.2
v 0.2 -0.4 -1.2
v 0.4 -0.7 -1.2
v 0.4 -0.5 -1.2
v 0.4 -0.4 -1.2
v 0.5 -0.5 -1.2
v 0.5 -0.4 -1.2
v -0.5 -1.7 -1.4
v -0.5 -1.6 -1.4
v -0.4 -1.7 -1.4
v -0.4 -1.6 -1.4
v -0.7 -1.7 -1.5
v -0.7 -1.6 -1.5
v -0.5 -1.7 -1.5
v -0.5 -1.6 -1.5
v -0.5 -1.8 -1.6
v -0.5 -1.7 -1.6
v -0.2 -1.8 -1.6
v -0.2 -1.7 -1.6
v -0.7 -1.8 -1.9
v -0.7 -1.7 -1.9
v -0.5 -1.8 -1.9
v -0.5 -1.7 -1.9
v -0.5 -1.8 1.7
v -0.2 -1.8 1.7
v 0.4 -1.8 1.3
v 0.6 -1.8 1.3
v -0.9 -1.8 0.7
v -0.5 -1.8 0.7
v -0.2 -1.8 0.7
v 1.19209e-007 -1.8 0.7
v 0.1 -1.8 0.7
v 0.4 -1.8 0.7
v -1 -1.8 0.6
v -0.9 -1.8 0.6
v -0.8 -1.8 0.6
v -0.3 -1.8 0.6
v -0.2 -1.8 0.6
v 1.19209e-007 -1.8 0.6
v 0.1 -1.8 0.6
v 1.19209e-007 -1.8 0.5
v 0.6 -1.8 0.5
v -0.8 -1.8 0.2
v -0.3 -1.8 0.2
v -0.2 -1.8 0.2
v -1.7 -1.8 -1.19209e-007
v -1.5 -1.8 -1.19209e-007
v -0.0999999 -1.8 -1.19209e-007
v 1.19209e-007 -1.8 -1.19209e-007
v 0.1 -1.8 -1.19209e-007
v 0.9 -1.8 -1.19209e-007
v -0.0999999 -1.8 -0.1
v 1.19209e-007 -1.8 -0.1
v 0.1 -1.8 -0.1
v 1.19209e-007 -1.8 -0.3
v 0.1 -1.8 -0.3
v 0.7 -1.8 -0.3
v -1.5 -1.8 -0.4
v -1 -1.8 -0.4
v -1.7 -1.8 -0.6
v -1 -1.8 -0.6
v 1.19209e-007 -1.8 -0.6
v 0.1 -1.8 -0.6
v -1 -1.8 -0.7
v -0.5 -1.8 -0.7
v -0.4 -1.8 -0.7
v -0.2 -1.8 -0.7
v 0.1 -1.8 -0.7
v 0.9 -1.8 -0.8
v 1.2 -1.8 -0.8
v 0.7 -1.8 -1
v 1.2 -1.8 -1
v -0.7 -1.8 -1.4
v -0.5 -1.8 -1.4
v -0.7 -1.8 -1.5
v -0.4 -1.8 -1.5
v -0.5 -1.8 -1.6
v -0.2 -1.8 -1.6
v -0.7 -1.8 -1.9
v -0.5 -1.8 -1.9
v 1.19209e-007 -1.7 0.5
v 0.1 -1.7 0.5
v 1.19209e-007 -1.7 -1.19209e-007
v 0.1 -1.7 -1.19209e-007
v -0.4 -1.1 -0.2
v -0.3 -1.1 -0.2
v -0.4 -1.1 -0.5
v -0.3 -1.1 -0.5
v -0.2 -0.9 -0.5
v -0.0999999 -0.9 -0.5
v -0.2 -0.9 -0.6
v -0.0999999 -0.9 -0.6
v 0.6 -0.9 -0.9
v 0.8 -0.9 -0.9
v 0.6 -0.9 -1.1
v 0.8 -0.9 -1.1
v -0.2 -0.8 -0.9
v 0.2 -0.8 -0.9
v 0.5 -0.8 -0.9
v 0.6 -0.8 -0.9
v -0.2 -0.8 -1.1
v 0.2 -0.8 -1.1
v 0.5 -0.8 -1.1
v 0.6 -0.8 -1.1
v -0.9 -0.7 -0.7
v -0.7 -0.7 -0.7
v 1.19209e-007 -0.7 -0.7
v -0.7 -0.7 -0.8
v -0.5 -0.7 -0.8
v 0.2 -0.7 -0.8
v 0.4 -0.7 -0.8
v -0.9 -0.7 -0.9
v -0.7 -0.7 -0.9
v -0.5 -0.7 -0.9
v -0.2 -0.7 -0.9
v 1.19209e-007 -0.7 -0.9
v 0.2 -0.7 -0.9
v 0.4 -0.7 -0.9
v 0.5 -0.7 -0.9
v 0.2 -0.7 -1.1
v 0.4 -0.7 -1.1
v 0.5 -0.7 -1.1
v 0.2 -0.7 -1.2
v 0.4 -0.7 -1.2
v -0.9 -0.6 0.8
v 1.19209e-007 -0.6 0.8
v -1 -0.6 0.7
v -0.9 -0.6 0.7
v -0.2 -0.6 0.7
v -1 -0.6 0.6
v -0.9 -0.6 0.6
v -0.2 -0.6 0.6
v 1.19209e-007 -0.6 0.6
v -0.6 -0.6 -0.8
v -0.5 -0.6 -0.8
v -0.6 -0.6 -0.9
v -0.5 -0.6 -0.9
v -0.2 -0.5 -0.3
v -0.0999999 -0.5 -0.3
v -0.2 -0.5 -0.4
v -0.0999999 -0.5 -0.4
v 0.4 -0.5 -0.8
v 0.5 -0.5 -0.8
v 0.4 -0.5 -0.9
v 0.5 -0.5 -0.9
v 0.4 -0.5 -1.1
v 0.5 -0.5 -1.1
v 0.4 -0.5 -1.2
v 0.5 -0.5 -1.2
v -1 -0.4 0.8
v -0.9 -0.4 0.8
v -1 -0.4 0.7
v -0.9 -0.4 0.7
v -0.9 -0.4 -0.8
v -0.7 -0.4 -0.8
v -0.0999999 -0.4 -0.8
v 1.19209e-007 -0.4 -0.8
v -0.9 -0.4 -0.9
v -0.7 -0.4 -0.9
v -0.0999999 -0.4 -0.9
v 1.19209e-007 -0.4 -0.9
v -0.7 -0.3 0.9
v -0.2 -0.3 0.9
v -0.7 -0.3 0.8
v -0.2 -0.3 0.8
v -0.7 -0.2 1
v -0.2 -0.2 1
v -0.7 -0.2 0.9
v -0.2 -0.2 0.9
v -0.7 -0.1 1.1
v -0.2 -0.1 1.1
v -0.7 -0.1 1
v -0.2 -0.1 1
v -0.7 -0.1 -0.8
v -0.6 -0.1 -0.8
v -0.4 -0.1 -0.8
v -0.3 -0.1 -0.8
v -0.9 -0.1 -0.9
v -0.7 -0.1 -0.9
v -0.6 -0.1 -0.9
v -0.4 -0.1 -0.9
v -0.3 -0.1 -0.9
v 1.19209e-007 -0.1 -0.9
v -0.9 -0.1 -1
v 1.19209e-007 -0.1 -1
v -0.7 -1.19209e-007 1.2
v -0.2 -1.19209e-007 1.2
v -0.7 -1.19209e-007 1.1
v -0.2 -1.19209e-007 1.1
v -0.0999999 -1.19209e-007 0.8
v 1.19209e-007 -1.19209e-007 0.8
v -0.0999999 -1.19209e-007 0.7
v 1.19209e-007 -1.19209e-007 0.7
v -1 -1.19209e-007 -0.6
v -0.9 -1.19209e-007 -0.6
v -1 -1.19209e-007 -0.7
v -0.9 -1.19209e-007 -0.7
v -1.1 0.0999999 -0.5
v -1 0.0999999 -0.5
v -1 0.0999999 -0.6
v -1.1 0.0999999 -0.7
v -1 0.0999999 -0.7
v -0.7 0.2 1.3
v -0.2 0.2 1.3
v -0.7 0.2 1.2
v -0.2 0.2 1.2
v -0.0999999 0.2 1.2
v -0.8 0.2 1
v -0.7 0.2 1
v -0.2 0.2 1
v -0.0999999 0.2 1
v -0.8 0.2 0.9
v -0.2 0.2 0.9
v 1.19209e-007 0.2 0.4
v 0.1 0.2 0.4
v 1.19209e-007 0.2 0.3
v 0.1 0.2 0.3
v -0.8 0.3 1.2
v -0.7 0.3 1.2
v -0.8 0.3 1.1
v -0.7 0.3 1.1
v -0.8 0.3 1
v -0.7 0.3 1
v -0.2 0.3 1
v -0.0999999 0.3 1
v -0.8 0.3 0.9
v -0.2 0.3 0.9
v -0.0999999 0.3 0.9
v -0.8 0.3 0.8
v -0.2 0.3 0.8
v -0.8 0.3 -0.4
v -0.6 0.3 -0.4
v -0.8 0.3 -0.5
v -0.7 0.3 -0.5
v -0.7 0.3 -0.7
v -0.6 0.3 -0.7
v -0.9 0.4 1.1
v -0.8 0.4 1.1
v -0.9 0.4 0.9
v -0.8 0.4 0.9
v -0.2 0.4 0.9
v -0.0999999 0.4 0.9
v -0.7 0.4 0.8
v -0.2 0.4 0.8
v -0.0999999 0.4 0.8
v -0.7 0.4 0.7
v -0.2 0.4 0.7
v -0.0999999 0.4 -1.19209e-007
v 1.19209e-007 0.4 -1.19209e-007
v 1.19209e-007 0.4 -0.1
v 0.1 0.4 -0.1
v 1.19209e-007 0.4 -0.2
v 0.1 0.4 -0.2
v -0.0999999 0.4 -0.3
v 1.19209e-007 0.4 -0.3
v -0.8 0.5 1.5
v -0.3 0.5 1.5
v -1 0.5 1.4
v -0.9 0.5 1.4
v -0.8 0.5 1.4
v -0.3 0.5 1.4
v -0.2 0.5 1.4
v -0.2 0.5 1.3
v -0.0999999 0.5 1.3
v -1 0.5 1.2
v -0.9 0.5 1.2
v -0.8 0.5 1.2
v -0.2 0.5 1.2
v -0.0999999 0.5 1.2
v 1.19209e-007 0.5 1.2
v -0.9 0.5 1.1
v -0.8 0.5 1.1
v -0.0999999 0.5 1
v 1.19209e-007 0.5 1
v -0.0999999 0.5 -0.3
v 1.19209e-007 0.5 -0.3
v -0.4 0.5 -0.4
v -0.0999999 0.5 -0.4
v -0.4 0.5 -0.5
v -0.3 0.5 -0.5
v -0.3 0.5 -0.6
v 1.19209e-007 0.5 -0.6
v 1.19209e-007 0.6 -0.2
v 0.1 0.6 -0.2
v 1.19209e-007 0.6 -0.4
v 0.1 0.6 -0.4
v -0.8 0.6 -0.7
v -0.6 0.6 -0.7
v -0.8 0.6 -0.8
v -0.6 0.6 -0.8
v 1.19209e-007 0.7 -0.4
v 0.1 0.7 -0.4
v 1.19209e-007 0.7 -0.5
v 0.1 0.7 -0.5
v -0.8 0.7 -0.8
v -0.6 0.7 -0.8
v -0.8 0.7 -0.9
v -0.6 0.7 -0.9
v 0.1 0.8 -0.2
v 0.2 0.8 -0.2
v 0.1 0.8 -0.3
v 0.2 0.8 -0.3
v -0.2 0.8 -0.6
v 1.19209e-007 0.8 -0.6
v -0.2 0.8 -1.2
v 1.19209e-007 0.8 -1.2
v -0.6 0.9 -0.4
v -0.5 0.9 -0.4
v -0.6 0.9 -0.9
v -0.5 0.9 -0.9
v -0.7 1 -0.3
v -0.5 1 -0.3
v -0.7 1 -0.4
v -0.5 1 -0.4
v -0.5 1.1 -0.3
v -0.4 1.1 -0.3
v -0.4 1.1 -0.5
v -0.3 1.1 -0.5
v -0.4 1.1 -0.8
v -0.3 1.1 -0.8
v -0.5 1.1 -0.9
v -0.4 1.1 -0.9
v 1.19209e-007 1.3 -0.5
v 0.1 1.3 -0.5
v 0.2 1.3 -0.5
v 1.19209e-007 1.3 -0.7
v 0.1 1.3 -0.7
v 0.2 1.3 -0.7
v -0.2 1.4 -0.5
v 1.19209e-007 1.4 -0.5
v -0.2 1.4 -0.7
v 1.19209e-007 1.4 -0.7
v -0.3 1.5 -0.5
v -0.2 1.5 -0.5
v -0.3 1.5 -0.7
v -0.2 1.5 -0.7
v -0.3 1.6 -0.4
v -0.2 1.6 -0.4
v -0.3 1.6 -0.5
v -0.2 1.6 -0.5
v -0.3 1.6 -0.7
v -0.2 1.6 -0.7
v -0.3 1.6 -0.8
v -0.2 1.6 -0.8
v -0.0999999 1.7 0.8
v 0.2 1.7 0.8
v -0.2 1.7 0.7
v -0.0999999 1.7 0.7
v -0.2 1.7 0.5
v -0.2 1.7 0.4
v -0.0999999 1.7 0.4
v 0.1 1.7 0.3
v 0.2 1.7 0.3
v -0.0999999 1.7 0.2
v 0.1 1.7 0.2
v 1.19209e-007 1.8 1.2
v 0.3 1.8 1.2
v 0.1 1.8 1.1
v 0.3 1.8 1.1
v -0.0999999 1.8 0.9
v 1.19209e-007 1.8 0.9
v 0.1 1.8 0.9
v 0.2 1.8 0.9
v -0.2 1.8 0.8
v -0.0999999 1.8 0.8
v 0.2 1.8 0.8
v 0.3 1.8 0.8
v -0.2 1.8 0.7
v -0.0999999 1.8 0.7
v 0.2 1.8 0.4
v 0.3 1.8 0.4
v -0.2 1.8 0.2
v 0.1 1.8 0.2
v -0.2 1.8 0.0999999
v 0.1 1.8 0.0999999
v -0.2 1.8 -0.4
v -0.0999999 1.8 -0.4
v -0.2 1.8 -0.5
v -0.0999999 1.8 -0.5
v -0.2 1.8 -0.7
v -0.0999999 1.8 -0.7
v -0.2 1.8 -0.8
v -0.0999999 1.8 -0.8
v -0.2 1.9 0.9
v -0.0999999 1.9 0.9
v 0.2 1.9 0.9
v 0.3 1.9 0.9
v -0.2 1.9 0.8
v -0.0999999 1.9 0.8
v 0.2 1.9 0.8
v 0.3 1.9 0.8
v -0.4 -1.7 1.7
v -0.2 -1.7 1.7
v 0.4 -1.7 1.3
v 0.5 -1.7 1.3
v -0.4 -1.7 0.7
v -0.2 -1.7 0.7
v 1.19209e-007 -1.7 0.7
v 0.1 -1.7 0.7
v 0.4 -1.7 0.7
v 1.19209e-007 -1.7 0.6
v 0.1 -1.7 0.6
v 0.5 -1.7 0.6
v 0.6 -1.7 0.6
v 0.5 -1.7 0.5
v 0.6 -1.7 0.5
v -1.7 -1.7 -1.19209e-007
v -1.6 -1.7 -1.19209e-007
v 0.8 -1.7 -1.19209e-007
v 0.9 -1.7 -1.19209e-007
v 0.1 -1.7 -0.1
v 0.8 -1.7 -0.1
v 0.9 -1.7 -0.1
v 0.1 -1.7 -0.3
v 0.7 -1.7 -0.3
v -1.6 -1.7 -0.4
v -1.5 -1.7 -0.4
v -1.5 -1.7 -0.5
v -1 -1.7 -0.5
v -1.7 -1.7 -0.6
v -1 -1.7 -0.6
v -0.4 -1.7 -0.7
v -0.2 -1.7 -0.7
v 0.8 -1.7 -0.8
v 0.9 -1.7 -0.8
v 0.9 -1.7 -0.9
v 1.2 -1.7 -0.9
v 0.7 -1.7 -1
v 1.2 -1.7 -1
v -0.5 -1.7 -1.4
v -0.4 -1.7 -1.4
v -0.7 -1.7 -1.5
v -0.5 -1.7 -1.5
v -0.4 -1.7 -1.5
v -0.5 -1.7 -1.6
v -0.2 -1.7 -1.6
v -0.7 -1.7 -1.9
v -0.5 -1.7 -1.9
v -0.5 -1.6 1.7
v -0.4 -1.6 1.7
v 0.5 -1.6 1.3
v 0.6 -1.6 1.3
v -0.5 -1.6 0.7
v -0.4 -1.6 0.7
v 0.1 -1.6 0.6
v 0.5 -1.6 0.6
v 0.6 -1.6 0.6
v 0.1 -1.6 0.5
v 0.5 -1.6 0.5
v -1.6 -1.6 -1.19209e-007
v -1.5 -1.6 -1.19209e-007
v 0.1 -1.6 -1.19209e-007
v 0.8 -1.6 -1.19209e-007
v 0.1 -1.6 -0.1
v 0.8 -1.6 -0.1
v 0.9 -1.6 -0.1
v -1.6 -1.6 -0.4
v -1.5 -1.6 -0.4
v -1 -1.6 -0.4
v -1.5 -1.6 -0.5
v -1 -1.6 -0.5
v -0.5 -1.6 -0.7
v -0.4 -1.6 -0.7
v 0.8 -1.6 -0.8
v 0.9 -1.6 -0.8
v 1.2 -1.6 -0.8
v 0.9 -1.6 -0.9
v 1.2 -1.6 -0.9
v -0.7 -1.6 -1.4
v -0.5 -1.6 -1.4
v -0.4 -1.6 -1.4
v -0.7 -1.6 -1.5
v -0.5 -1.6 -1.5
v -0.4 -1.2 -0.2
v -0.3 -1.2 -0.2
v -0.4 -1.2 -0.5
v -0.3 -1.2 -0.5
v -1 -1.1 -0.6
v -0.9 -1.1 -0.6
v -1 -1.1 -0.7
v -0.9 -1.1 -0.7
v -0.2 -1 -0.5
v -0.0999999 -1 -0.5
v -0.2 -1 -0.6
v -0.0999999 -1 -0.6
v -0.2 -0.9 -0.3
v -0.0999999 -0.9 -0.3
v -0.2 -0.9 -0.4
v -0.0999999 -0.9 -0.4
v 0.7 -0.8 -0.9
v 0.8 -0.8 -0.9
v 0.7 -0.8 -1.1
v 0.8 -0.8 -1.1
v 0.6 -0.7 -0.9
v 0.7 -0.7 -0.9
v 0.6 -0.7 -1.1
v 0.7 -0.7 -1.1
v -0.9 -0.6 -0.8
v -0.7 -0.6 -0.8
v -0.4 -0.6 -0.8
v -0.3 -0.6 -0.8
v -0.0999999 -0.6 -0.8
v 1.19209e-007 -0.6 -0.8
v -0.9 -0.6 -0.9
v -0.7 -0.6 -0.9
v -0.4 -0.6 -0.9
v -0.3 -0.6 -0.9
v -0.0999999 -0.6 -0.9
v 1.19209e-007 -0.6 -0.9
v 0.5 -0.6 -0.9
v 0.6 -0.6 -0.9
v 0.5 -0.6 -1.1
v 0.6 -0.6 -1.1
v -0.2 -0.5 -0.9
v -0.0999999 -0.5 -0.9
v 0.1 -0.5 -0.9
v -0.2 -0.5 -1.1
v 0.1 -0.5 -1.1
v -0.0999999 -0.4 0.8
v 1.19209e-007 -0.4 0.8
v -0.0999999 -0.4 0.7
v 1.19209e-007 -0.4 0.7
v 0.2 -0.4 -0.8
v 0.4 -0.4 -0.8
v 0.5 -0.4 -0.8
v 0.1 -0.4 -0.9
v 0.2 -0.4 -0.9
v 0.4 -0.4 -0.9
v 0.5 -0.4 -0.9
v 0.1 -0.4 -1.1
v 0.2 -0.4 -1.1
v 0.4 -0.4 -1.1
v 0.5 -0.4 -1.1
v 0.2 -0.4 -1.2
v 0.4 -0.4 -1.2
v 0.5 -0.4 -1.2
v 0.2 -0.3 -0.9
v 0.4 -0.3 -0.9
v 0.2 -0.3 -1.1
v 0.4 -0.3 -1.1
v -0.7 -1.19209e-007 0.9
v -0.2 -1.19209e-007 0.9
v -0.7 -1.19209e-007 0.8
v -0.2 -1.19209e-007 0.8
v -0.0999999 -1.19209e-007 0.0999999
v 0.1 -1.19209e-007 0.0999999
v -0.0999999 -1.19209e-007 -1.19209e-007
v 0.1 -1.19209e-007 -1.19209e-007
v -0.0999999 -1.19209e-007 -0.1
v 0.1 -1.19209e-007 -0.1
v -0.0999999 -1.19209e-007 -0.2
v 0.1 -1.19209e-007 -0.2
v 1.19209e-007 -1.19209e-007 -0.6
v 0.1 -1.19209e-007 -0.6
v 1.19209e-007 -1.19209e-007 -0.7
v 0.1 -1.19209e-007 -0.7
v -0.9 -1.19209e-007 -0.8
v -0.5 -1.19209e-007 -0.8
v -0.4 -1.19209e-007 -0.8
v 1.19209e-007 -1.19209e-007 -0.8
v -0.5 -1.19209e-007 -0.9
v -0.4 -1.19209e-007 -0.9
v -0.9 -1.19209e-007 -1
v 1.19209e-007 -1.19209e-007 -1
v -0.7 0.0999999 1
v -0.2 0.0999999 1
v -0.7 0.0999999 0.9
v -0.2 0.0999999 0.9
v -1 0.0999999 0.8
v -0.8 0.0999999 0.8
v -0.0999999 0.0999999 0.8
v 1.19209e-007 0.0999999 0.8
v -0.9 0.0999999 0.7
v -0.8 0.0999999 0.7
v -0.0999999 0.0999999 0.7
v -1 0.0999999 0.6
v -0.9 0.0999999 0.6
v -0.0999999 0.0999999 0.6
v 1.19209e-007 0.0999999 0.6
v 0.1 0.0999999 0.6
v 1.19209e-007 0.0999999 0.5
v 0.1 0.0999999 0.5
v 1.19209e-007 0.0999999 0.3
v 0.1 0.0999999 0.3
v -0.0999999 0.0999999 0.2
v 0.1 0.0999999 0.2
v -0.0999999 0.0999999 0.0999999
v 0.1 0.0999999 0.0999999
v -0.0999999 0.0999999 -0.2
v 0.1 0.0999999 -0.2
v -0.0999999 0.0999999 -0.3
v 0.1 0.0999999 -0.3
v 1.19209e-007 0.0999999 -0.5
v 0.1 0.0999999 -0.5
v 1.19209e-007 0.0999999 -0.6
v 0.1 0.0999999 -0.6
v -0.9 0.0999999 -0.7
v 1.19209e-007 0.0999999 -0.7
v -0.9 0.0999999 -0.8
v 1.19209e-007 0.0999999 -0.8
v -0.9 0.2 0.7
v -0.0999999 0.2 0.7
v -1 0.2 0.6
v -0.9 0.2 0.6
v -0.0999999 0.2 0.6
v 1.19209e-007 0.2 0.6
v -0.9 0.2 0.5
v -0.0999999 0.2 0.5
v 1.19209e-007 0.2 0.5
v -1 0.2 0.4
v -0.9 0.2 0.4
v -0.0999999 0.2 0.4
v 1.19209e-007 0.2 0.4
v -0.0999999 0.2 0.3
v 0.1 0.2 0.3
v -0.0999999 0.2 0.2
v 0.1 0.2 0.2
v -1 0.2 -0.3
v -0.9 0.2 -0.3
v -0.0999999 0.2 -0.3
v 0.1 0.2 -0.3
v -0.9 0.2 -0.4
v -0.6 0.2 -0.4
v -0.3 0.2 -0.4
v -0.2 0.2 -0.4
v -0.0999999 0.2 -0.4
v 1.19209e-007 0.2 -0.4
v 0.1 0.2 -0.4
v -1.1 0.2 -0.5
v -1 0.2 -0.5
v -0.9 0.2 -0.5
v -0.7 0.2 -0.5
v -0.6 0.2 -0.5
v -0.0999999 0.2 -0.5
v 1.19209e-007 0.2 -0.5
v 0.1 0.2 -0.5
v -1.1 0.2 -0.7
v -1 0.2 -0.7
v -0.7 0.2 -0.7
v 1.19209e-007 0.2 -0.7
v -0.7 0.3 1.3
v -0.2 0.3 1.3
v -0.7 0.3 1.2
v -0.2 0.3 1.2
v -0.8 0.3 0.5
v -0.6 0.3 0.5
v -0.4 0.3 0.5
v -0.3 0.3 0.5
v -0.8 0.3 0.4
v -0.6 0.3 0.4
v -0.4 0.3 0.4
v -0.3 0.3 0.4
v -0.0999999 0.3 0.4
v 0.1 0.3 0.4
v -0.0999999 0.3 0.3
v 0.1 0.3 0.3
v -0.0999999 0.3 -0.4
v 1.19209e-007 0.3 -0.4
v -1 0.3 -0.5
v -0.8 0.3 -0.5
v -0.0999999 0.3 -0.5
v 1.19209e-007 0.3 -0.5
v -1 0.3 -0.7
v -0.8 0.3 -0.7
v -0.9 0.4 0.5
v -0.8 0.4 0.5
v -0.6 0.4 0.5
v -0.5 0.4 0.5
v -0.2 0.4 0.5
v -0.0999999 0.4 0.5
v -1 0.4 0.4
v -0.9 0.4 0.4
v -0.8 0.4 0.4
v -0.6 0.4 0.4
v -0.5 0.4 0.4
v -0.2 0.4 0.4
v -0.0999999 0.4 0.4
v -0.6 0.4 0.2
v -0.5 0.4 0.2
v -0.2 0.4 0.2
v -0.0999999 0.4 0.2
v -0.5 0.4 0.0999999
v -0.2 0.4 0.0999999
v -0.2 0.4 -1.19209e-007
v -0.0999999 0.4 -1.19209e-007
v -0.4 0.4 -0.1
v -0.2 0.4 -0.1
v -0.4 0.4 -0.2
v -1 0.4 -0.3
v -0.9 0.4 -0.3
v -0.6 0.4 -0.3
v -0.4 0.4 -0.3
v -0.9 0.4 -0.4
v -0.8 0.4 -0.4
v -0.7 0.4 -0.4
v -0.6 0.4 -0.4
v -0.4 0.4 -0.4
v -0.8 0.4 -0.5
v -0.7 0.4 -0.5
v -0.8 0.7 1.5
v -0.3 0.7 1.5
v -1 0.7 1.4
v -0.9 0.7 1.4
v -0.8 0.7 1.4
v -0.3 0.7 1.4
v -0.9 0.7 1.3
v -0.8 0.7 1.3
v -1 0.7 1.2
v -0.9 0.7 1.2
v -0.2 0.7 1.2
v -0.0999999 0.7 1.2
v 1.19209e-007 0.7 1.2
v -0.0999999 0.7 1
v 1.19209e-007 0.7 1
v -0.7 0.7 0.8
v -0.2 0.7 0.8
v -0.0999999 0.7 0.8
v -0.7 0.7 0.7
v -0.2 0.7 0.7
v -0.8 0.8 1.4
v -0.2 0.8 1.4
v -0.9 0.8 1.3
v -0.8 0.8 1.3
v -0.2 0.8 1.3
v -0.0999999 0.8 1.3
v -0.8 0.8 1.2
v -0.7 0.8 1.2
v -0.3 0.8 1.2
v -0.2 0.8 1.2
v -0.0999999 0.8 1.2
v -0.9 0.8 0.9
v -0.8 0.8 0.9
v -0.7 0.8 0.9
v -0.3 0.8 0.9
v -0.8 0.8 0.8
v -0.2 0.8 0.8
v -0.8 0.8 -0.8
v -0.7 0.8 -0.8
v -0.8 0.8 -0.9
v -0.7 0.8 -0.9
v -0.8 0.9 1.3
v -0.2 0.9 1.3
v -0.8 0.9 1.2
v -0.7 0.9 1.2
v -0.3 0.9 1.2
v -0.2 0.9 1.2
v -0.7 0.9 0.9
v -0.3 0.9 0.9
v 1.19209e-007 0.9 -0.1
v 0.1 0.9 -0.1
v 0.1 0.9 -0.2
v 0.2 0.9 -0.2
v 0.1 0.9 -0.3
v 0.2 0.9 -0.3
v 1.19209e-007 0.9 -0.5
v 0.1 0.9 -0.5
v -0.2 0.9 -0.6
v 1.19209e-007 0.9 -0.6
v -0.2 0.9 -1.2
v 1.19209e-007 0.9 -1.2
v -0.2 1 -1.19209e-007
v 1.19209e-007 1 -1.19209e-007
v -0.2 1 -0.1
v -0.0999999 1 -0.1
v -0.3 1 -0.5
v -0.0999999 1 -0.5
v -0.3 1 -0.6
v 1.19209e-007 1 -0.6
v -0.4 1.1 -0.1
v -0.0999999 1.1 -0.1
v -0.4 1.1 -0.3
v -0.4 1.1 -0.4
v -0.3 1.1 -0.4
v -0.3 1.1 -0.5
v -0.0999999 1.1 -0.5
v 0.1 1.4 -0.5
v 0.2 1.4 -0.5
v 0.1 1.4 -0.7
v 0.2 1.4 -0.7
v -0.0999999 1.5 -0.5
v 1.19209e-007 1.5 -0.5
v 0.1 1.5 -0.5
v -0.0999999 1.5 -0.7
v 1.19209e-007 1.5 -0.7
v 0.1 1.5 -0.7
v -0.7 1.6 -0.3
v -0.4 1.6 -0.3
v -0.7 1.6 -0.4
v -0.4 1.6 -0.4
v -0.2 1.6 -0.5
v -0.0999999 1.6 -0.5
v -0.2 1.6 -0.7
v -0.0999999 1.6 -0.7
v -0.7 1.6 -0.8
v -0.4 1.6 -0.8
v -0.7 1.6 -0.9
v -0.4 1.6 -0.9
v -0.7 1.7 -0.4
v -0.6 1.7 -0.4
v -0.8 1.7 -0.5
v -0.7 1.7 -0.5
v -0.8 1.7 -0.8
v -0.6 1.7 -0.8
v -0.3 1.8 0.5
v -0.2 1.8 0.5
v -0.6 1.8 0.4
v -0.5 1.8 0.4
v -0.3 1.8 0.4
v -0.2 1.8 0.4
v -0.6 1.8 0.2
v -0.5 1.8 0.2
v -0.6 1.8 -0.4
v -0.5 1.8 -0.4
v -0.6 1.8 -0.8
v -0.5 1.8 -0.8
v 1.19209e-007 1.9 1.2
v 0.3 1.9 1.2
v 0.1 1.9 1.1
v 0.3 1.9 1.1
v 1.19209e-007 1.9 0.9
v 0.1 1.9 0.9
v -0.5 1.9 0.5
v -0.4 1.9 0.5
v -0.4 1.9 0.4
v -0.4 1.9 0.2
v 0.1 1.9 0.2
v -0.5 1.9 0.0999999
v 0.1 1.9 0.0999999
v -0.5 1.9 -0.4
v -0.2 1.9 -0.4
v -0.0999999 1.9 -0.4
v -0.2 1.9 -0.5
v -0.0999999 1.9 -0.5
v -0.2 1.9 -0.7
v -0.0999999 1.9 -0.7
v -0.5 1.9 -0.8
v -0.2 1.9 -0.8
v -0.0999999 1.9 -0.8
v -0.2 2 0.9
v -0.0999999 2 0.9
v 0.2 2 0.9
v 0.3 2 0.9
v -0.2 2 0.8
v -0.0999999 2 0.8
v 0.2 2 0.8
v 0.3 2 0.8
v -0.2 2 0.7
v -0.0999999 2 0.7
v -0.4 2 0.4
v -0.2 2 0.4
v 0.2 2 0.4
v 0.3 2 0.4
v 0.1 2 0.3
v 0.2 2 0.3
v -0.4 2 0.2
v 0.1 2 0.2
v -0.0999999 2.1 0.8
v 0.2 2.1 0.8
v -0.2 2.1 0.7
v -0.0999999 2.1 0.7
v -0.2 2.1 0.4
v 0.2 2.1 0.4

# faces
f 3/11/1 2/11/1 1/11/1
f 4/11/1 2/11/1 3/11/1
f 7/6/1 6/6/1 5/6/1
f 8/6/1 6/6/1 7/6/1
f 11/6/1 10/6/1 9/6/1
f 12/6/1 10/6/1 11/6/1
f 15/11/1 14/11/1 13/11/1
f 16/11/1 14/11/1 15/11/1
f 21/3/1 18/3/1 17/3/1
f 23/3/1 20/3/1 19/3/1
f 24/3/1 21/3/1 17/3/1
f 25/3/1 23/3/1 22/3/1
f 26/3/1 20/3/1 23/3/1
f 26/3/1 25/3/1 24/3/1
f 26/3/1 23/3/1 25/3/1
f 27/3/1 20/3/1 26/3/1
f 29/3/1 24/3/1 17/3/1
f 29/3/1 26/3/1 24/3/1
f 31/2/1 29/2/1 28/2/1
f 32/3/1 26/3/1 29/3/1
f 34/2/1 31/2/1 30/2/1
f 35/2/1 29/2/1 31/2/1
f 35/2/1 31/2/1 34/2/1
f 35/3/1 32/3/1 29/3/1
f 36/3/1 32/3/1 35/3/1
f 37/3/1 32/3/1 36/3/1
f 38/11/1 33/11/1 32/11/1
f 38/3/1 32/3/1 37/3/1
f 39/11/1 33/11/1 38/11/1
f 40/4/1 36/4/1 35/4/1
f 41/3/1 37/3/1 36/3/1
f 41/4/1 36/4/1 40/4/1
f 42/3/1 37/3/1 41/3/1
f 43/3/1 37/3/1 42/3/1
f 45/11/1 44/11/1 43/11/1
f 46/11/1 44/11/1 45/11/1
f 47/3/1 42/3/1 41/3/1
f 48/3/1 42/3/1 47/3/1
f 51/13/1 50/13/1 49/13/1
f 52/13/1 50/13/1 51/13/1
f 57/3/1 56/3/1 55/3/1
f 60/3/1 54/3/1 53/3/1
f 61/3/1 54/3/1 60/3/1
f 62/2/1 58/2/1 57/2/1
f 62/3/1 57/3/1 55/3/1
f 63/2/1 58/2/1 62/2/1
f 64/2/1 58/2/1 63/2/1
f 65/2/1 60/2/1 59/2/1
f 66/2/1 60/2/1 65/2/1
f 67/4/1 63/4/1 62/4/1
f 67/3/1 62/3/1 55/3/1
f 68/4/1 63/4/1 67/4/1
f 70/2/1 69/2/1 68/2/1
f 70/2/1 68/2/1 67/2/1
f 72/3/1 67/3/1 55/3/1
f 73/2/1 70/2/1 67/2/1
f 73/3/1 67/3/1 72/3/1
f 73/2/1 71/2/1 70/2/1
f 74/2/1 71/2/1 73/2/1
f 75/2/1 71/2/1 74/2/1
f 78/3/1 74/3/1 73/3/1
f 79/3/1 74/3/1 78/3/1
f 80/3/1 77/3/1 76/3/1
f 81/3/1 77/3/1 80/3/1
f 86/4/1 85/4/1 84/4/1
f 87/4/1 85/4/1 86/4/1
f 90/4/1 83/4/1 82/4/1
f 91/4/1 83/4/1 90/4/1
f 92/3/1 87/3/1 86/3/1
f 93/3/1 87/3/1 92/3/1
f 95/11/1 89/11/1 88/11/1
f 97/11/1 95/11/1 94/11/1
f 98/11/1 97/11/1 96/11/1
f 99/11/1 89/11/1 95/11/1
f 99/11/1 97/11/1 98/11/1
f 99/11/1 95/11/1 97/11/1
f 104/11/1 101/11/1 100/11/1
f 105/11/1 101/11/1 104/11/1
f 110/7/1 103/7/1 102/7/1
f 110/11/1 104/11/1 103/11/1
f 110/11/1 105/11/1 104/11/1
f 110/11/1 106/11/1 105/11/1
f 111/11/1 106/11/1 110/11/1
f 112/11/1 109/11/1 108/11/1
f 112/11/1 108/11/1 107/11/1
f 113/11/1 109/11/1 112/11/1
f 116/7/1 110/7/1 102/7/1
f 117/7/1 110/7/1 116/7/1
f 118/11/1 109/11/1 113/11/1
f 120/11/1 115/11/1 114/11/1
f 121/11/1 115/11/1 120/11/1
f 123/11/1 119/11/1 118/11/1
f 125/11/1 122/11/1 121/11/1
f 126/11/1 122/11/1 125/11/1
f 128/11/1 106/11/1 111/11/1
f 129/11/1 106/11/1 128/11/1
f 130/11/1 124/11/1 123/11/1
f 130/11/1 123/11/1 118/11/1
f 131/11/1 124/11/1 130/11/1
f 132/11/1 127/11/1 126/11/1
f 133/11/1 127/11/1 132/11/1
f 134/11/1 130/11/1 118/11/1
f 134/11/1 118/11/1 113/11/1
f 135/11/1 130/11/1 134/11/1
f 139/6/1 137/6/1 136/6/1
f 139/11/1 138/11/1 137/11/1
f 140/11/1 138/11/1 139/11/1
f 141/6/1 139/6/1 136/6/1
f 142/6/1 139/6/1 141/6/1
f 146/11/1 144/11/1 143/11/1
f 148/10/1 146/10/1 145/10/1
f 150/10/1 148/10/1 147/10/1
f 151/11/1 144/11/1 146/11/1
f 151/10/1 146/10/1 148/10/1
f 151/10/1 148/10/1 150/10/1
f 152/11/1 144/11/1 151/11/1
f 153/10/1 150/10/1 149/10/1
f 153/10/1 151/10/1 150/10/1
f 154/10/1 151/10/1 153/10/1
f 155/10/1 151/10/1 154/10/1
f 157/11/1 154/11/1 153/11/1
f 158/11/1 154/11/1 157/11/1
f 159/11/1 157/11/1 156/11/1
f 159/11/1 158/11/1 157/11/1
f 160/11/1 158/11/1 159/11/1
f 161/11/1 158/11/1 160/11/1
f 162/11/1 158/11/1 161/11/1
f 167/11/1 164/11/1 163/11/1
f 168/11/1 164/11/1 167/11/1
f 173/11/1 170/11/1 169/11/1
f 174/11/1 170/11/1 173/11/1
f 176/11/1 166/11/1 165/11/1
f 177/11/1 176/11/1 175/11/1
f 178/11/1 166/11/1 176/11/1
f 178/11/1 176/11/1 177/11/1
f 179/11/1 172/11/1 171/11/1
f 180/11/1 172/11/1 179/11/1
f 181/11/1 166/11/1 178/11/1
f 182/11/1 166/11/1 181/11/1
f 185/11/1 184/11/1 183/11/1
f 186/11/1 184/11/1 185/11/1
f 189/4/1 188/4/1 187/4/1
f 190/4/1 188/4/1 189/4/1
f 194/11/1 191/11/1 190/11/1
f 195/11/1 191/11/1 194/11/1
f 196/11/1 193/11/1 192/11/1
f 197/11/1 193/11/1 196/11/1
f 202/11/1 199/11/1 198/11/1
f 203/11/1 199/11/1 202/11/1
f 204/6/1 203/6/1 202/6/1
f 205/6/1 203/6/1 204/6/1
f 206/6/1 201/6/1 200/6/1
f 207/6/1 201/6/1 206/6/1
f 210/11/1 209/11/1 208/11/1
f 211/11/1 209/11/1 210/11/1
f 216/11/1 213/11/1 212/11/1
f 217/11/1 215/11/1 214/11/1
f 220/11/1 216/11/1 212/11/1
f 220/11/1 217/11/1 216/11/1
f 221/11/1 215/11/1 217/11/1
f 221/11/1 217/11/1 220/11/1
f 222/11/1 219/11/1 218/11/1
f 223/11/1 219/11/1 222/11/1
f 228/3/1 225/3/1 224/3/1
f 229/10/1 227/10/1 226/10/1
f 229/3/1 225/3/1 228/3/1
f 229/10/1 226/10/1 225/10/1
f 230/10/1 227/10/1 229/10/1
f 232/11/1 229/11/1 228/11/1
f 232/11/1 231/11/1 230/11/1
f 232/11/1 230/11/1 229/11/1
f 233/11/1 231/11/1 232/11/1
f 234/11/1 231/11/1 233/11/1
f 237/11/1 236/11/1 235/11/1
f 238/11/1 236/11/1 237/11/1
f 241/3/1 240/3/1 239/3/1
f 242/3/1 240/3/1 241/3/1
f 245/11/1 244/11/1 243/11/1
f 246/11/1 244/11/1 245/11/1
f 247/2/1 246/2/1 245/2/1
f 248/2/1 246/2/1 247/2/1
f 251/3/1 250/3/1 249/3/1
f 252/3/1 250/3/1 251/3/1
f 255/11/1 254/11/1 253/11/1
f 256/11/1 254/11/1 255/11/1
f 257/10/1 252/10/1 251/10/1
f 258/10/1 252/10/1 257/10/1
f 259/11/1 258/11/1 257/11/1
f 260/11/1 258/11/1 259/11/1
f 263/10/1 262/10/1 261/10/1
f 264/10/1 262/10/1 263/10/1
f 265/11/1 264/11/1 263/11/1
f 266/11/1 264/11/1 265/11/1
f 269/11/1 268/11/1 267/11/1
f 272/8/1 271/8/1 270/8/1
f 273/8/1 271/8/1 272/8/1
f 274/11/1 269/11/1 267/11/1
f 275/11/1 269/11/1 274/11/1
f 278/7/1 277/7/1 276/7/1
f 279/7/1 277/7/1 278/7/1
f 283/11/1 281/11/1 280/11/1
f 284/11/1 281/11/1 283/11/1
f 287/11/1 283/11/1 282/11/1
f 287/11/1 285/11/1 284/11/1
f 287/11/1 284/11/1 283/11/1
f 288/13/1 287/13/1 286/13/1
f 289/11/1 285/11/1 287/11/1
f 289/13/1 287/13/1 288/13/1
f 290/11/1 285/11/1 289/11/1
f 291/11/1 285/11/1 290/11/1
f 292/11/1 291/11/1 290/11/1
f 293/11/1 291/11/1 292/11/1
f 298/3/1 295/3/1 294/3/1
f 299/3/1 295/3/1 298/3/1
f 300/3/1 297/3/1 296/3/1
f 301/3/1 297/3/1 300/3/1
f 304/3/1 303/3/1 302/3/1
f 305/3/1 303/3/1 304/3/1
f 309/11/1 307/11/1 306/11/1
f 310/11/1 307/11/1 309/11/1
f 311/11/1 309/11/1 308/11/1
f 312/11/1 309/11/1 311/11/1
f 315/11/1 314/11/1 313/11/1
f 316/11/1 314/11/1 315/11/1
f 319/3/1 318/3/1 317/3/1
f 320/3/1 318/3/1 319/3/1
f 323/7/1 322/7/1 321/7/1
f 324/7/1 322/7/1 323/7/1
f 327/8/1 326/8/1 325/8/1
f 328/8/1 326/8/1 327/8/1
f 331/11/1 330/11/1 329/11/1
f 332/11/1 330/11/1 331/11/1
f 333/6/1 332/6/1 331/6/1
f 334/6/1 332/6/1 333/6/1
f 337/11/1 336/11/1 335/11/1
f 338/11/1 336/11/1 337/11/1
f 343/11/1 340/11/1 339/11/1
f 344/11/1 340/11/1 343/11/1
f 345/11/1 342/11/1 341/11/1
f 346/11/1 342/11/1 345/11/1
f 347/11/1 345/11/1 344/11/1
f 348/11/1 345/11/1 347/11/1
f 351/11/1 350/11/1 349/11/1
f 352/11/1 350/11/1 351/11/1
f 355/6/1 354/6/1 353/6/1
f 356/6/1 354/6/1 355/6/1
f 359/8/1 358/8/1 357/8/1
f 360/8/1 358/8/1 359/8/1
f 363/8/1 362/8/1 361/8/1
f 364/8/1 362/8/1 363/8/1
f 367/11/1 366/11/1 365/11/1
f 368/11/1 366/11/1 367/11/1
f 371/6/1 370/6/1 369/6/1
f 372/6/1 370/6/1 371/6/1
f 375/6/1 374/6/1 373/6/1
f 376/6/1 374/6/1 375/6/1
f 377/11/2 378/11/2 379/11/2
f 379/11/2 378/11/2 380/11/2
f 379/6/2 380/6/2 381/6/2
f 381/6/2 380/6/2 382/6/2
f 383/4/2 384/4/2 385/4/2
f 385/4/2 384/4/2 386/4/2
f 387/2/2 388/2/2 389/2/2
f 389/2/2 388/2/2 390/2/2
f 391/2/2 392/2/2 393/2/2
f 393/2/2 392/2/2 394/2/2
f 395/11/2 396/11/2 397/11/2
f 397/11/2 396/11/2 398/11/2
f 399/11/2 400/11/2 401/11/2
f 401/11/2 400/11/2 402/11/2
f 402/11/2 403/11/2 404/11/2
f 401/11/2 402/11/2 406/11/2
f 404/11/2 405/11/2 406/11/2
f 402/11/2 404/11/2 406/11/2
f 406/11/2 405/11/2 407/11/2
f 408/11/2 409/11/2 412/11/2
f 412/11/2 409/11/2 413/11/2
f 410/6/2 411/6/2 414/6/2
f 414/6/2 411/6/2 415/6/2
f 416/11/2 417/11/2 419/11/2
f 418/11/2 419/11/2 420/11/2
f 419/11/2 417/11/2 421/11/2
f 420/11/2 419/11/2 421/11/2
f 422/6/2 423/6/2 426/6/2
f 426/6/2 423/6/2 427/6/2
f 424/6/2 425/6/2 428/6/2
f 428/6/2 425/6/2 429/6/2
f 430/3/2 431/3/2 432/3/2
f 432/3/2 431/3/2 433/3/2
f 434/11/2 435/11/2 436/11/2
f 436/11/2 435/11/2 437/11/2
f 438/3/2 439/3/2 440/3/2
f 440/3/2 439/3/2 441/3/2
f 442/11/2 443/11/2 446/11/2
f 444/11/2 445/11/2 447/11/2
f 442/11/2 446/11/2 448/11/2
f 448/11/2 446/11/2 449/11/2
f 447/11/2 445/11/2 450/11/2
f 450/11/2 445/11/2 451/11/2
f 440/11/2 441/11/2 452/11/2
f 452/11/2 441/11/2 453/11/2
f 454/11/2 455/11/2 456/11/2
f 456/11/2 455/11/2 457/11/2
f 458/11/2 459/11/2 460/11/2
f 460/11/2 459/11/2 461/11/2
f 462/10/2 463/10/2 465/10/2
f 463/10/2 464/10/2 465/10/2
f 465/10/2 464/10/2 466/10/2
f 466/10/2 464/10/2 467/10/2
f 467/10/2 464/10/2 468/10/2
f 465/11/2 466/11/2 469/11/2
f 469/11/2 466/11/2 470/11/2
f 467/11/2 468/11/2 471/11/2
f 471/11/2 468/11/2 472/11/2
f 473/11/2 474/11/2 478/11/2
f 474/3/2 475/3/2 479/3/2
f 478/11/2 474/11/2 479/11/2
f 476/11/2 477/11/2 480/11/2
f 480/11/2 477/11/2 481/11/2
f 482/3/2 483/3/2 486/3/2
f 486/3/2 483/3/2 487/3/2
f 479/3/2 475/3/2 488/3/2
f 488/3/2 475/3/2 489/3/2
f 484/3/2 485/3/2 490/3/2
f 490/3/2 485/3/2 491/3/2
f 492/11/2 493/11/2 495/11/2
f 494/10/2 495/10/2 497/10/2
f 496/10/2 497/10/2 499/10/2
f 495/11/2 493/11/2 500/11/2
f 497/10/2 495/10/2 500/10/2
f 499/10/2 497/10/2 500/10/2
f 500/11/2 493/11/2 501/11/2
f 498/10/2 499/10/2 502/10/2
f 499/10/2 500/10/2 502/10/2
f 502/10/2 500/10/2 503/10/2
f 503/10/2 500/10/2 504/10/2
f 502/11/2 503/11/2 506/11/2
f 506/11/2 503/11/2 507/11/2
f 505/11/2 506/11/2 509/11/2
f 509/11/2 506/11/2 510/11/2
f 507/11/2 508/11/2 511/11/2
f 511/11/2 508/11/2 512/11/2
f 512/11/2 513/11/2 514/11/2
f 514/11/2 513/11/2 515/11/2
f 515/11/2 516/11/2 524/11/2
f 524/11/2 516/11/2 525/11/2
f 521/11/2 522/11/2 526/11/2
f 526/11/2 522/11/2 527/11/2
f 523/11/2 524/11/2 528/11/2
f 528/11/2 524/11/2 529/11/2
f 527/11/2 528/11/2 530/11/2
f 530/11/2 528/11/2 531/11/2
f 517/10/2 518/10/2 536/10/2
f 536/10/2 518/10/2 537/10/2
f 519/11/2 520/11/2 538/11/2
f 538/11/2 520/11/2 539/11/2
f 532/11/2 533/11/2 540/11/2
f 534/11/2 535/11/2 540/11/2
f 533/11/2 534/11/2 540/11/2
f 540/11/2 535/11/2 541/11/2
f 541/11/2 535/11/2 542/11/2
f 542/11/2 535/11/2 543/11/2
f 541/11/2 542/11/2 544/11/2
f 544/11/2 542/11/2 545/11/2
f 546/3/2 547/3/2 548/3/2
f 548/3/2 547/3/2 549/3/2
f 550/11/2 551/11/2 552/11/2
f 550/11/2 552/11/2 555/11/2
f 555/11/2 552/11/2 556/11/2
f 553/11/2 554/11/2 557/11/2
f 557/11/2 554/11/2 558/11/2
f 548/4/2 549/4/2 560/4/2
f 560/4/2 549/4/2 561/4/2
f 561/4/2 562/4/2 566/4/2
f 559/4/2 560/4/2 566/4/2
f 560/4/2 561/4/2 566/4/2
f 566/4/2 562/4/2 567/4/2
f 563/3/2 564/3/2 571/3/2
f 571/3/2 564/3/2 572/3/2
f 565/4/2 566/4/2 576/4/2
f 566/4/2 567/4/2 576/4/2
f 567/4/2 568/4/2 576/4/2
f 576/4/2 568/4/2 577/4/2
f 569/11/2 570/11/2 579/11/2
f 573/4/2 574/4/2 581/4/2
f 577/4/2 578/4/2 582/4/2
f 576/4/2 577/4/2 582/4/2
f 575/4/2 576/4/2 582/4/2
f 582/4/2 578/4/2 583/4/2
f 579/11/2 580/11/2 584/11/2
f 573/4/2 581/4/2 586/4/2
f 581/4/2 582/4/2 586/4/2
f 582/4/2 583/4/2 586/4/2
f 586/4/2 583/4/2 587/4/2
f 587/4/2 583/4/2 588/4/2
f 588/4/2 583/4/2 589/4/2
f 589/4/2 583/4/2 590/4/2
f 590/4/2 583/4/2 591/4/2
f 584/11/2 585/11/2 593/11/2
f 569/11/2 579/11/2 593/11/2
f 579/11/2 584/11/2 593/11/2
f 593/11/2 585/11/2 594/11/2
f 590/10/2 591/10/2 595/10/2
f 595/10/2 591/10/2 596/10/2
f 592/11/2 593/11/2 597/11/2
f 594/11/2 585/11/2 598/11/2
f 598/11/2 585/11/2 599/11/2
f 592/11/2 597/11/2 600/11/2
f 600/11/2 597/11/2 601/11/2
f 602/11/2 603/11/2 604/11/2
f 604/11/2 603/11/2 605/11/2
f 606/8/2 607/8/2 608/8/2
f 608/8/2 607/8/2 609/8/2
f 587/11/2 588/11/2 610/11/2
f 610/11/2 588/11/2 611/11/2
f 612/13/2 613/13/2 616/13/2
f 616/13/2 613/13/2 617/13/2
f 614/13/2 615/13/2 618/13/2
f 618/13/2 615/13/2 619/13/2
f 620/3/2 621/3/2 622/3/2
f 622/3/2 621/3/2 623/3/2
f 624/11/2 625/11/2 628/11/2
f 628/11/2 625/11/2 629/11/2
f 629/11/2 625/11/2 630/11/2
f 626/2/2 627/2/2 631/2/2
f 631/2/2 627/2/2 632/2/2
f 628/2/2 629/2/2 633/2/2
f 633/2/2 634/2/2 635/2/2
f 632/2/2 627/2/2 638/2/2
f 633/2/2 635/2/2 640/2/2
f 635/2/2 636/2/2 640/2/2
f 628/2/2 633/2/2 640/2/2
f 640/2/2 636/2/2 641/2/2
f 641/2/2 636/2/2 642/2/2
f 637/2/2 638/2/2 643/2/2
f 638/2/2 627/2/2 644/2/2
f 643/2/2 638/2/2 644/2/2
f 639/3/2 640/3/2 648/3/2
f 640/3/2 641/3/2 648/3/2
f 648/3/2 641/3/2 649/3/2
f 649/3/2 641/3/2 650/3/2
f 644/4/2 645/4/2 651/4/2
f 645/3/2 646/3/2 652/3/2
f 651/4/2 645/4/2 652/4/2
f 652/3/2 646/3/2 653/3/2
f 653/3/2 646/3/2 654/3/2
f 648/3/2 649/3/2 656/3/2
f 647/3/2 648/3/2 656/3/2
f 656/3/2 649/3/2 657/3/2
f 655/3/2 656/3/2 658/3/2
f 658/3/2 656/3/2 659/3/2
f 660/10/2 661/10/2 666/10/2
f 666/10/2 661/10/2 667/10/2
f 662/10/2 663/10/2 668/10/2
f 668/10/2 663/10/2 669/10/2
f 668/11/2 669/11/2 671/11/2
f 669/11/2 670/11/2 671/11/2
f 671/11/2 670/11/2 672/11/2
f 664/13/2 665/13/2 673/13/2
f 673/13/2 665/13/2 674/13/2
f 672/11/2 670/11/2 675/11/2
f 675/11/2 670/11/2 676/11/2
f 676/11/2 670/11/2 677/11/2
f 666/11/2 667/11/2 679/11/2
f 676/11/2 677/11/2 680/11/2
f 677/8/2 678/8/2 681/8/2
f 680/11/2 677/11/2 681/11/2
f 681/8/2 678/8/2 682/8/2
f 666/11/2 679/11/2 683/11/2
f 679/11/2 680/11/2 683/11/2
f 680/11/2 681/11/2 683/11/2
f 683/11/2 681/11/2 684/11/2
f 685/2/2 686/2/2 691/2/2
f 688/2/2 689/2/2 693/2/2
f 693/2/2 689/2/2 694/2/2
f 690/2/2 691/2/2 695/2/2
f 693/2/2 694/2/2 696/2/2
f 696/2/2 694/2/2 697/2/2
f 695/2/2 691/2/2 698/2/2
f 698/2/2 691/2/2 699/2/2
f 693/2/2 696/2/2 700/2/2
f 696/3/2 697/3/2 701/3/2
f 700/2/2 696/2/2 701/2/2
f 701/3/2 697/3/2 702/3/2
f 698/3/2 699/3/2 703/3/2
f 699/2/2 691/2/2 704/2/2
f 703/3/2 699/3/2 704/3/2
f 691/2/2 686/2/2 705/2/2
f 704/2/2 691/2/2 705/2/2
f 686/3/2 687/3/2 706/3/2
f 705/2/2 686/2/2 706/2/2
f 706/3/2 687/3/2 707/3/2
f 692/3/2 693/3/2 708/3/2
f 693/2/2 700/2/2 709/2/2
f 708/3/2 693/3/2 709/3/2
f 709/2/2 700/2/2 710/2/2
f 700/3/2 701/3/2 711/3/2
f 710/2/2 700/2/2 711/2/2
f 711/3/2 701/3/2 712/3/2
f 704/3/2 705/3/2 713/3/2
f 705/2/2 706/2/2 714/2/2
f 713/3/2 705/3/2 714/3/2
f 714/2/2 706/2/2 715/2/2
f 715/2/2 706/2/2 716/2/2
f 716/2/2 706/2/2 717/2/2
f 710/3/2 711/3/2 719/3/2
f 719/3/2 711/3/2 720/3/2
f 714/3/2 715/3/2 721/3/2
f 715/2/2 716/2/2 722/2/2
f 721/3/2 715/3/2 722/3/2
f 722/2/2 716/2/2 723/2/2
f 718/3/2 719/3/2 724/3/2
f 724/3/2 719/3/2 725/3/2
f 726/10/2 727/10/2 728/10/2
f 728/10/2 727/10/2 729/10/2
f 728/11/2 729/11/2 730/11/2
f 730/11/2 731/11/2 732/11/2
f 728/11/2 730/11/2 734/11/2
f 732/11/2 733/11/2 734/11/2
f 730/11/2 732/11/2 734/11/2
f 734/11/2 733/11/2 735/11/2
f 728/11/2 734/11/2 736/11/2
f 736/11/2 734/11/2 737/11/2
f 735/11/2 733/11/2 738/11/2
f 738/11/2 733/11/2 739/11/2
f 740/8/2 741/8/2 742/8/2
f 742/8/2 741/8/2 743/8/2
f 744/11/2 745/11/2 748/11/2
f 746/8/2 747/8/2 750/8/2
f 750/8/2 747/8/2 751/8/2
f 748/11/2 749/11/2 752/11/2
f 744/11/2 748/11/2 752/11/2
f 752/11/2 749/11/2 753/11/2
f 744/11/2 752/11/2 754/11/2
f 754/11/2 752/11/2 755/11/2
f 756/10/2 757/10/2 758/10/2
f 758/10/2 757/10/2 759/10/2
f 760/9/2 761/9/2 762/9/2
f 762/9/2 761/9/2 763/9/2
f 764/8/2 765/8/2 766/8/2
f 766/8/2 765/8/2 767/8/2
f 768/11/2 769/11/2 771/11/2
f 771/11/2 769/11/2 772/11/2
f 770/11/2 771/11/2 773/11/2
f 773/11/2 771/11/2 774/11/2
f 772/11/2 769/11/2 776/11/2
f 776/11/2 769/11/2 777/11/2
f 775/11/2 776/11/2 778/11/2
f 778/11/2 776/11/2 779/11/2
f 780/8/2 781/8/2 784/8/2
f 784/8/2 781/8/2 785/8/2
f 782/11/2 783/11/2 787/11/2
f 786/13/2 787/13/2 788/13/2
f 787/11/2 783/11/2 789/11/2
f 788/13/2 787/13/2 789/13/2
f 789/11/2 783/11/2 790/11/2
f 791/11/2 792/11/2 795/11/2
f 795/11/2 792/11/2 796/11/2
f 793/11/2 794/11/2 797/11/2
f 797/11/2 794/11/2 798/11/2
f 799/11/2 800/11/2 801/11/2
f 801/11/2 800/11/2 802/11/2
f 803/6/2 804/6/2 805/6/2
f 805/6/2 804/6/2 806/6/2
f 807/11/2 808/11/2 810/11/2
f 810/11/2 808/11/2 811/11/2
f 809/13/2 810/13/2 813/13/2
f 810/11/2 811/11/2 814/11/2
f 813/13/2 810/13/2 814/13/2
f 811/13/2 812/13/2 815/13/2
f 814/11/2 811/11/2 815/11/2
f 815/13/2 812/13/2 816/13/2
f 817/11/2 818/11/2 819/11/2
f 819/11/2 818/11/2 820/11/2
f 820/11/2 818/11/2 821/11/2
f 819/6/2 820/6/2 822/6/2
f 822/6/2 820/6/2 823/6/2
f 824/8/2 825/8/2 826/8/2
f 826/8/2 825/8/2 827/8/2
f 828/8/2 829/8/2 830/8/2
f 830/8/2 829/8/2 831/8/2
f 832/6/2 833/6/2 834/6/2
f 834/6/2 833/6/2 835/6/2
f 836/8/2 837/8/2 838/8/2
f 838/8/2 837/8/2 839/8/2
f 840/11/2 841/11/2 842/11/2
f 842/11/2 841/11/2 843/11/2
f 843/11/2 841/11/2 844/11/2
f 843/6/2 844/6/2 845/6/2
f 845/6/2 844/6/2 846/6/2
f 847/11/2 848/11/2 849/11/2
f 849/11/2 848/11/2 850/11/2
f 850/11/2 848/11/2 851/11/2
f 849/6/2 850/6/2 852/6/2
f 852/6/2 850/6/2 853/6/2
f 857/11/3 855/11/3 854/11/3
f 857/6/3 856/6/3 855/6/3
f 858/6/3 856/6/3 857/6/3
f 859/11/3 857/11/3 854/11/3
f 860/11/3 857/11/3 859/11/3
f 863/11/3 862/11/3 861/11/3
f 864/11/3 862/11/3 863/11/3
f 867/13/3 866/13/3 865/13/3
f 868/13/3 866/13/3 867/13/3
f 869/11/3 868/11/3 867/11/3
f 870/11/3 868/11/3 869/11/3
f 873/11/3 871/11/3 870/11/3
f 874/11/3 873/11/3 872/11/3
f 875/11/3 871/11/3 873/11/3
f 875/11/3 873/11/3 874/11/3
f 878/11/3 877/11/3 876/11/3
f 879/11/3 877/11/3 878/11/3
f 883/11/3 882/11/3 881/11/3
f 884/11/3 882/11/3 883/11/3
f 886/11/3 880/11/3 879/11/3
f 887/11/3 880/11/3 886/11/3
f 888/11/3 886/11/3 885/11/3
f 889/11/3 886/11/3 888/11/3
f 892/11/3 891/11/3 890/11/3
f 894/11/3 892/11/3 890/11/3
f 895/6/3 893/6/3 892/6/3
f 895/11/3 892/11/3 894/11/3
f 896/6/3 893/6/3 895/6/3
f 902/7/3 898/7/3 897/7/3
f 903/10/3 900/10/3 899/10/3
f 904/11/3 901/11/3 900/11/3
f 904/10/3 900/10/3 903/10/3
f 905/11/3 901/11/3 904/11/3
f 906/7/3 898/7/3 902/7/3
f 907/7/3 898/7/3 906/7/3
f 908/11/3 907/11/3 906/11/3
f 908/11/3 906/11/3 905/11/3
f 909/11/3 907/11/3 908/11/3
f 911/13/3 910/13/3 909/13/3
f 912/13/3 910/13/3 911/13/3
f 915/8/3 914/8/3 913/8/3
f 916/8/3 914/8/3 915/8/3
f 919/11/3 918/11/3 917/11/3
f 920/11/3 918/11/3 919/11/3
f 923/10/3 922/10/3 921/10/3
f 924/10/3 922/10/3 923/10/3
f 929/11/3 926/11/3 925/11/3
f 930/11/3 926/11/3 929/11/3
f 931/10/3 928/10/3 927/10/3
f 932/10/3 928/10/3 931/10/3
f 935/11/3 934/11/3 933/11/3
f 936/11/3 934/11/3 935/11/3
f 940/13/3 938/13/3 937/13/3
f 941/13/3 938/13/3 940/13/3
f 942/11/3 940/11/3 939/11/3
f 942/11/3 941/11/3 940/11/3
f 943/11/3 941/11/3 942/11/3
f 945/11/3 941/11/3 943/11/3
f 946/11/3 945/11/3 944/11/3
f 947/11/3 941/11/3 945/11/3
f 947/11/3 945/11/3 946/11/3
f 948/11/3 941/11/3 947/11/3
f 949/13/3 948/13/3 947/13/3
f 950/13/3 948/13/3 949/13/3
f 954/2/3 952/2/3 951/2/3
f 955/2/3 952/2/3 954/2/3
f 955/2/3 954/2/3 953/2/3
f 956/2/3 952/2/3 955/2/3
f 957/11/3 956/11/3 955/11/3
f 958/11/3 956/11/3 957/11/3
f 959/11/3 957/11/3 955/11/3
f 960/11/3 956/11/3 958/11/3
f 963/2/3 955/2/3 953/2/3
f 963/11/3 960/11/3 959/11/3
f 963/11/3 959/11/3 955/11/3
f 964/11/3 956/11/3 960/11/3
f 964/11/3 960/11/3 963/11/3
f 965/11/3 956/11/3 964/11/3
f 967/11/3 962/11/3 961/11/3
f 968/11/3 962/11/3 967/11/3
f 971/2/3 963/2/3 953/2/3
f 972/2/3 963/2/3 971/2/3
f 973/2/3 965/2/3 964/2/3
f 974/2/3 965/2/3 973/2/3
f 975/11/3 967/11/3 966/11/3
f 976/11/3 967/11/3 975/11/3
f 978/11/3 970/11/3 969/11/3
f 979/11/3 970/11/3 978/11/3
f 980/11/3 977/11/3 976/11/3
f 981/11/3 977/11/3 980/11/3
f 985/2/3 983/2/3 982/2/3
f 986/2/3 983/2/3 985/2/3
f 989/3/3 988/3/3 987/3/3
f 990/3/3 985/3/3 984/3/3
f 991/3/3 985/3/3 990/3/3
f 992/3/3 985/3/3 991/3/3
f 994/3/3 985/3/3 992/3/3
f 995/3/3 994/3/3 993/3/3
f 996/3/3 985/3/3 994/3/3
f 996/3/3 994/3/3 995/3/3
f 1003/3/3 988/3/3 989/3/3
f 1004/3/3 988/3/3 1003/3/3
f 1005/11/3 998/11/3 997/11/3
f 1006/11/3 998/11/3 1005/11/3
f 1007/11/3 1000/11/3 999/11/3
f 1008/11/3 1000/11/3 1007/11/3
f 1011/2/3 1002/2/3 1001/2/3
f 1012/2/3 1002/2/3 1011/2/3
f 1013/3/3 1010/3/3 1009/3/3
f 1014/3/3 1010/3/3 1013/3/3
f 1015/11/3 1014/11/3 1013/11/3
f 1016/11/3 1014/11/3 1015/11/3
f 1021/3/3 1018/3/3 1017/3/3
f 1022/3/3 1018/3/3 1021/3/3
f 1023/4/3 1020/4/3 1019/4/3
f 1024/4/3 1020/4/3 1023/4/3
f 1029/3/3 1026/3/3 1025/3/3
f 1030/3/3 1026/3/3 1029/3/3
f 1031/3/3 1026/3/3 1030/3/3
f 1032/4/3 1028/4/3 1027/4/3
f 1033/4/3 1028/4/3 1032/4/3
f 1034/3/3 1031/3/3 1030/3/3
f 1034/3/3 1032/3/3 1031/3/3
f 1035/3/3 1032/3/3 1034/3/3
f 1036/3/3 1032/3/3 1035/3/3
f 1037/6/3 1035/6/3 1034/6/3
f 1038/6/3 1035/6/3 1037/6/3
f 1041/4/3 1040/4/3 1039/4/3
f 1042/4/3 1040/4/3 1041/4/3
f 1043/4/3 1041/4/3 1039/4/3
f 1045/4/3 1043/4/3 1039/4/3
f 1045/4/3 1044/4/3 1043/4/3
f 1046/4/3 1044/4/3 1045/4/3
f 1048/3/3 1046/3/3 1045/3/3
f 1048/4/3 1045/4/3 1039/4/3
f 1049/11/3 1047/11/3 1046/11/3
f 1049/3/3 1046/3/3 1048/3/3
f 1050/11/3 1047/11/3 1049/11/3
f 1051/4/3 1048/4/3 1039/4/3
f 1055/4/3 1051/4/3 1039/4/3
f 1055/3/3 1052/3/3 1051/3/3
f 1056/10/3 1053/10/3 1052/10/3
f 1056/3/3 1052/3/3 1055/3/3
f 1057/11/3 1054/11/3 1053/11/3
f 1057/10/3 1053/10/3 1056/10/3
f 1058/11/3 1054/11/3 1057/11/3
f 1059/4/3 1056/4/3 1055/4/3
f 1059/4/3 1055/4/3 1039/4/3
f 1060/4/3 1056/4/3 1059/4/3
f 1063/3/3 1062/3/3 1061/3/3
f 1064/3/3 1062/3/3 1063/3/3
f 1067/3/3 1066/3/3 1065/3/3
f 1068/3/3 1066/3/3 1067/3/3
f 1070/11/3 1069/11/3 1068/11/3
f 1071/11/3 1069/11/3 1070/11/3
f 1076/3/3 1073/3/3 1072/3/3
f 1077/11/3 1075/11/3 1074/11/3
f 1077/3/3 1073/3/3 1076/3/3
f 1077/11/3 1074/11/3 1073/11/3
f 1078/11/3 1075/11/3 1077/11/3
f 1079/11/3 1075/11/3 1078/11/3
f 1082/11/3 1075/11/3 1079/11/3
f 1083/11/3 1075/11/3 1082/11/3
f 1086/11/3 1081/11/3 1080/11/3
f 1087/11/3 1081/11/3 1086/11/3
f 1088/3/3 1085/3/3 1084/3/3
f 1089/3/3 1085/3/3 1088/3/3
f 1090/3/3 1085/3/3 1089/3/3
f 1093/3/3 1092/3/3 1091/3/3
f 1094/3/3 1092/3/3 1093/3/3
f 1097/11/3 1096/11/3 1095/11/3
f 1099/11/3 1097/11/3 1095/11/3
f 1100/6/3 1098/6/3 1097/6/3
f 1100/11/3 1097/11/3 1099/11/3
f 1101/6/3 1098/6/3 1100/6/3
f 1104/11/3 1103/11/3 1102/11/3
f 1105/11/3 1103/11/3 1104/11/3
f 1106/10/3 1105/10/3 1104/10/3
f 1107/11/3 1103/11/3 1105/11/3
f 1107/10/3 1105/10/3 1106/10/3
f 1108/11/3 1103/11/3 1107/11/3
f 1112/11/3 1110/11/3 1109/11/3
f 1112/6/3 1111/6/3 1110/6/3
f 1113/6/3 1111/6/3 1112/6/3
f 1114/11/3 1112/11/3 1109/11/3
f 1115/11/3 1112/11/3 1114/11/3
f 1119/3/3 1117/3/3 1116/3/3
f 1120/11/3 1118/11/3 1117/11/3
f 1120/3/3 1117/3/3 1119/3/3
f 1121/11/3 1118/11/3 1120/11/3
f 1125/11/3 1118/11/3 1121/11/3
f 1126/11/3 1118/11/3 1125/11/3
f 1127/3/3 1124/3/3 1123/3/3
f 1127/3/3 1123/3/3 1122/3/3
f 1128/3/3 1124/3/3 1127/3/3
f 1129/3/3 1124/3/3 1128/3/3
f 1133/11/3 1128/11/3 1127/11/3
f 1134/2/3 1129/2/3 1128/2/3
f 1134/11/3 1128/11/3 1133/11/3
f 1135/2/3 1129/2/3 1134/2/3
f 1136/3/3 1124/3/3 1129/3/3
f 1136/2/3 1129/2/3 1135/2/3
f 1137/3/3 1124/3/3 1136/3/3
f 1138/10/3 1131/10/3 1130/10/3
f 1139/11/3 1132/11/3 1131/11/3
f 1139/10/3 1131/10/3 1138/10/3
f 1140/11/3 1132/11/3 1139/11/3
f 1143/6/3 1142/6/3 1141/6/3
f 1144/6/3 1142/6/3 1143/6/3
f 1147/3/3 1146/3/3 1145/3/3
f 1148/3/3 1146/3/3 1147/3/3
f 1151/9/3 1150/9/3 1149/9/3
f 1152/9/3 1150/9/3 1151/9/3
f 1155/11/3 1154/11/3 1153/11/3
f 1156/11/3 1154/11/3 1155/11/3
f 1157/11/3 1154/11/3 1156/11/3
f 1158/11/3 1154/11/3 1157/11/3
f 1161/3/3 1160/3/3 1159/3/3
f 1162/3/3 1160/3/3 1161/3/3
f 1166/11/3 1164/11/3 1163/11/3
f 1167/6/3 1165/6/3 1164/6/3
f 1167/11/3 1164/11/3 1166/11/3
f 1168/6/3 1165/6/3 1167/6/3
f 1173/11/3 1170/11/3 1169/11/3
f 1174/11/3 1170/11/3 1173/11/3
f 1175/11/3 1172/11/3 1171/11/3
f 1177/11/3 1170/11/3 1174/11/3
f 1178/11/3 1170/11/3 1177/11/3
f 1179/11/3 1176/11/3 1175/11/3
f 1183/11/3 1180/11/3 1179/11/3
f 1183/11/3 1175/11/3 1171/11/3
f 1183/11/3 1179/11/3 1175/11/3
f 1184/10/3 1182/10/3 1181/10/3
f 1185/11/3 1183/11/3 1182/11/3
f 1185/10/3 1182/10/3 1184/10/3
f 1186/11/3 1180/11/3 1183/11/3
f 1186/11/3 1183/11/3 1185/11/3
f 1189/11/3 1180/11/3 1186/11/3
f 1190/11/3 1180/11/3 1189/11/3
f 1191/11/3 1180/11/3 1190/11/3
f 1192/3/3 1188/3/3 1187/3/3
f 1193/3/3 1188/3/3 1192/3/3
f 1196/13/3 1191/13/3 1190/13/3
f 1197/13/3 1191/13/3 1196/13/3
f 1198/3/3 1195/3/3 1194/3/3
f 1199/3/3 1195/3/3 1198/3/3
f 1202/11/3 1201/11/3 1200/11/3
f 1203/11/3 1201/11/3 1202/11/3
f 1205/11/3 1204/11/3 1203/11/3
f 1206/11/3 1204/11/3 1205/11/3
f 1209/11/3 1206/11/3 1205/11/3
f 1210/11/3 1206/11/3 1209/11/3
f 1211/11/3 1208/11/3 1207/11/3
f 1212/11/3 1208/11/3 1211/11/3
f 1215/3/3 1214/3/3 1213/3/3
f 1216/3/3 1214/3/3 1215/3/3
f 1220/7/3 1218/7/3 1217/7/3
f 1221/7/3 1218/7/3 1220/7/3
f 1222/7/3 1220/7/3 1219/7/3
f 1222/8/3 1221/8/3 1220/8/3
f 1223/8/3 1221/8/3 1222/8/3
f 1225/7/3 1222/7/3 1219/7/3
f 1226/7/3 1222/7/3 1225/7/3
f 1227/7/3 1225/7/3 1224/7/3
f 1228/8/3 1226/8/3 1225/8/3
f 1228/7/3 1225/7/3 1227/7/3
f 1229/8/3 1226/8/3 1228/8/3
f 1230/8/3 1228/8/3 1227/8/3
f 1231/8/3 1228/8/3 1230/8/3
f 1234/3/3 1233/3/3 1232/3/3
f 1235/3/3 1233/3/3 1234/3/3
f 1238/13/3 1237/13/3 1236/13/3
f 1239/13/3 1237/13/3 1238/13/3
f 1242/11/3 1241/11/3 1240/11/3
f 1243/11/3 1241/11/3 1242/11/3
f 1244/11/3 1241/11/3 1243/11/3
f 1245/13/3 1244/13/3 1243/13/3
f 1246/13/3 1244/13/3 1245/13/3
f 1250/11/3 1248/11/3 1247/11/3
f 1251/6/3 1249/6/3 1248/6/3
f 1251/11/3 1248/11/3 1250/11/3
f 1252/6/3 1249/6/3 1251/6/3
f 1257/10/3 1254/10/3 1253/10/3
f 1258/11/3 1256/11/3 1255/11/3
f 1259/11/3 1256/11/3 1258/11/3
f 1259/11/3 1258/11/3 1257/11/3
f 1261/10/3 1257/10/3 1253/10/3
f 1262/11/3 1260/11/3 1259/11/3
f 1262/10/3 1257/10/3 1261/10/3
f 1262/11/3 1259/11/3 1257/11/3
f 1263/11/3 1260/11/3 1262/11/3
f 1267/11/3 1264/11/3 1263/11/3
f 1268/11/3 1264/11/3 1267/11/3
f 1270/11/3 1266/11/3 1265/11/3
f 1271/11/3 1266/11/3 1270/11/3
f 1272/11/3 1266/11/3 1271/11/3
f 1274/8/3 1270/8/3 1269/8/3
f 1274/8/3 1271/8/3 1270/8/3
f 1275/8/3 1271/8/3 1274/8/3
f 1276/8/3 1271/8/3 1275/8/3
f 1277/8/3 1274/8/3 1273/8/3
f 1277/8/3 1275/8/3 1274/8/3
f 1278/8/3 1275/8/3 1277/8/3
f 1279/8/3 1277/8/3 1273/8/3
f 1280/8/3 1277/8/3 1279/8/3
f 1283/6/3 1282/6/3 1281/6/3
f 1284/6/3 1282/6/3 1283/6/3
f 1285/13/4 1286/13/4 1287/13/4
f 1287/13/4 1286/13/4 1288/13/4
f 1289/11/4 1290/11/4 1291/11/4
f 1291/11/4 1290/11/4 1292/11/4
f 1293/11/4 1294/11/4 1296/11/4
f 1296/11/4 1294/11/4 1297/11/4
f 1295/11/4 1296/11/4 1298/11/4
f 1298/11/4 1296/11/4 1299/11/4
f 1300/8/4 1301/8/4 1302/8/4
f 1302/8/4 1301/8/4 1303/8/4
f 1304/11/4 1305/11/4 1306/11/4
f 1306/11/4 1305/11/4 1307/11/4
f 1307/11/4 1308/11/4 1309/11/4
f 1309/11/4 1308/11/4 1310/11/4
f 1311/13/4 1312/13/4 1313/13/4
f 1313/13/4 1312/13/4 1314/13/4
f 1315/11/4 1316/11/4 1319/11/4
f 1319/11/4 1316/11/4 1320/11/4
f 1323/11/4 1324/11/4 1325/11/4
f 1325/11/4 1324/11/4 1326/11/4
f 1321/10/4 1322/10/4 1327/10/4
f 1327/10/4 1322/10/4 1328/10/4
f 1317/11/4 1318/11/4 1329/11/4
f 1329/11/4 1318/11/4 1330/11/4
f 1330/11/4 1331/11/4 1332/11/4
f 1332/11/4 1331/11/4 1333/11/4
f 1334/11/4 1335/11/4 1336/11/4
f 1336/11/4 1335/11/4 1337/11/4
f 1334/11/4 1336/11/4 1338/11/4
f 1338/11/4 1336/11/4 1339/11/4
f 1337/11/4 1335/11/4 1340/11/4
f 1340/11/4 1335/11/4 1341/11/4
f 1339/11/4 1340/11/4 1342/11/4
f 1342/11/4 1340/11/4 1343/11/4
f 1344/11/4 1345/11/4 1346/11/4
f 1346/11/4 1345/11/4 1347/11/4
f 1348/6/4 1349/6/4 1350/6/4
f 1350/6/4 1349/6/4 1351/6/4
f 1352/11/4 1353/11/4 1354/11/4
f 1352/11/4 1354/11/4 1356/11/4
f 1354/6/4 1355/6/4 1356/6/4
f 1356/6/4 1355/6/4 1357/6/4
f 1352/11/4 1356/11/4 1358/11/4
f 1358/11/4 1356/11/4 1359/11/4
f 1360/11/4 1361/11/4 1363/11/4
f 1363/11/4 1361/11/4 1364/11/4
f 1362/11/4 1363/11/4 1365/11/4
f 1365/11/4 1363/11/4 1366/11/4
f 1367/3/4 1368/3/4 1369/3/4
f 1369/3/4 1368/3/4 1370/3/4
f 1371/11/4 1372/11/4 1373/11/4
f 1373/11/4 1372/11/4 1374/11/4
f 1375/11/4 1376/11/4 1377/11/4
f 1377/11/4 1376/11/4 1378/11/4
f 1381/11/4 1382/11/4 1385/11/4
f 1385/11/4 1382/11/4 1386/11/4
f 1383/3/4 1384/3/4 1387/3/4
f 1387/3/4 1384/3/4 1388/3/4
f 1386/11/4 1382/11/4 1389/11/4
f 1389/11/4 1382/11/4 1390/11/4
f 1379/11/4 1380/11/4 1391/11/4
f 1391/11/4 1380/11/4 1392/11/4
f 1393/11/4 1394/11/4 1395/11/4
f 1395/11/4 1394/11/4 1396/11/4
f 1397/3/4 1398/3/4 1399/3/4
f 1399/3/4 1398/3/4 1400/3/4
f 1396/11/4 1394/11/4 1401/11/4
f 1401/11/4 1394/11/4 1402/11/4
f 1403/3/4 1404/3/4 1406/3/4
f 1404/3/4 1405/3/4 1406/3/4
f 1406/3/4 1405/3/4 1407/3/4
f 1407/3/4 1405/3/4 1408/3/4
f 1407/2/4 1408/2/4 1409/2/4
f 1409/2/4 1408/2/4 1410/2/4
f 1408/3/4 1405/3/4 1411/3/4
f 1410/2/4 1408/2/4 1411/2/4
f 1411/3/4 1405/3/4 1412/3/4
f 1413/6/4 1414/6/4 1415/6/4
f 1415/6/4 1414/6/4 1416/6/4
f 1417/3/4 1418/3/4 1419/3/4
f 1419/3/4 1418/3/4 1420/3/4
f 1421/10/4 1422/10/4 1424/10/4
f 1422/11/4 1423/11/4 1425/11/4
f 1424/10/4 1422/10/4 1425/10/4
f 1425/11/4 1423/11/4 1426/11/4
f 1427/3/4 1428/3/4 1429/3/4
f 1429/3/4 1428/3/4 1430/3/4
f 1430/3/4 1428/3/4 1431/3/4
f 1432/3/4 1433/3/4 1434/3/4
f 1434/3/4 1433/3/4 1435/3/4
f 1436/10/4 1437/10/4 1438/10/4
f 1438/10/4 1437/10/4 1439/10/4
f 1442/9/4 1443/9/4 1444/9/4
f 1444/9/4 1443/9/4 1445/9/4
f 1440/11/4 1441/11/4 1446/11/4
f 1446/11/4 1441/11/4 1447/11/4
f 1448/6/4 1449/6/4 1450/6/4
f 1450/6/4 1449/6/4 1451/6/4
f 1452/4/4 1453/4/4 1455/4/4
f 1453/3/4 1454/3/4 1455/3/4
f 1455/3/4 1454/3/4 1456/3/4
f 1452/4/4 1455/4/4 1457/4/4
f 1457/4/4 1455/4/4 1458/4/4
f 1457/4/4 1458/4/4 1460/4/4
f 1458/4/4 1459/4/4 1460/4/4
f 1457/4/4 1460/4/4 1462/4/4
f 1460/10/4 1461/10/4 1463/10/4
f 1462/4/4 1460/4/4 1463/4/4
f 1462/3/4 1463/3/4 1464/3/4
f 1463/10/4 1461/10/4 1465/10/4
f 1464/3/4 1463/3/4 1465/3/4
f 1464/4/4 1465/4/4 1466/4/4
f 1466/4/4 1465/4/4 1467/4/4
f 1465/10/4 1461/10/4 1468/10/4
f 1467/4/4 1465/4/4 1468/4/4
f 1468/10/4 1461/10/4 1469/10/4
f 1470/11/4 1471/11/4 1472/11/4
f 1472/11/4 1471/11/4 1473/11/4
f 1474/6/4 1475/6/4 1476/6/4
f 1476/6/4 1475/6/4 1477/6/4
f 1478/11/4 1479/11/4 1480/11/4
f 1480/11/4 1479/11/4 1481/11/4
f 1481/11/4 1479/11/4 1482/11/4
f 1483/3/4 1484/3/4 1487/3/4
f 1487/3/4 1484/3/4 1488/3/4
f 1481/11/4 1482/11/4 1491/11/4
f 1491/11/4 1482/11/4 1492/11/4
f 1485/13/4 1486/13/4 1493/13/4
f 1493/13/4 1486/13/4 1494/13/4
f 1489/3/4 1490/3/4 1496/3/4
f 1496/3/4 1490/3/4 1497/3/4
f 1495/2/4 1496/2/4 1500/2/4
f 1500/2/4 1496/2/4 1501/2/4
f 1498/11/4 1499/11/4 1502/11/4
f 1502/11/4 1499/11/4 1503/11/4
f 1504/11/4 1505/11/4 1506/11/4
f 1506/11/4 1505/11/4 1507/11/4
f 1508/3/4 1509/3/4 1510/3/4
f 1510/3/4 1509/3/4 1511/3/4
f 1512/11/4 1513/11/4 1514/11/4
f 1514/11/4 1513/11/4 1515/11/4
f 1512/11/4 1514/11/4 1518/11/4
f 1518/11/4 1514/11/4 1519/11/4
f 1515/11/4 1513/11/4 1520/11/4
f 1520/11/4 1513/11/4 1521/11/4
f 1516/2/4 1517/2/4 1522/2/4
f 1522/2/4 1517/2/4 1523/2/4
f 1524/11/4 1525/11/4 1529/11/4
f 1529/11/4 1525/11/4 1530/11/4
f 1526/3/4 1527/3/4 1532/3/4
f 1530/11/4 1531/11/4 1534/11/4
f 1528/11/4 1529/11/4 1534/11/4
f 1529/11/4 1530/11/4 1534/11/4
f 1534/11/4 1531/11/4 1535/11/4
f 1535/11/4 1531/11/4 1536/11/4
f 1536/11/4 1531/11/4 1537/11/4
f 1532/3/4 1533/3/4 1539/3/4
f 1537/11/4 1538/11/4 1540/11/4
f 1535/3/4 1536/3/4 1540/3/4
f 1536/11/4 1537/11/4 1540/11/4
f 1540/11/4 1538/11/4 1541/11/4
f 1541/11/4 1538/11/4 1542/11/4
f 1542/11/4 1538/11/4 1543/11/4
f 1532/3/4 1539/3/4 1544/3/4
f 1526/3/4 1532/3/4 1544/3/4
f 1544/3/4 1539/3/4 1545/3/4
f 1545/3/4 1539/3/4 1547/3/4
f 1546/3/4 1547/3/4 1551/3/4
f 1548/7/4 1549/7/4 1553/7/4
f 1553/7/4 1549/7/4 1554/7/4
f 1552/7/4 1553/7/4 1555/7/4
f 1553/8/4 1554/8/4 1555/8/4
f 1555/8/4 1554/8/4 1556/8/4
f 1550/3/4 1551/3/4 1557/3/4
f 1547/3/4 1539/3/4 1557/3/4
f 1551/3/4 1547/3/4 1557/3/4
f 1535/3/4 1540/3/4 1560/3/4
f 1560/3/4 1540/3/4 1561/3/4
f 1552/7/4 1555/7/4 1563/7/4
f 1563/7/4 1555/7/4 1564/7/4
f 1558/3/4 1559/3/4 1565/3/4
f 1550/3/4 1557/3/4 1565/3/4
f 1557/3/4 1558/3/4 1565/3/4
f 1565/3/4 1559/3/4 1566/3/4
f 1562/7/4 1563/7/4 1567/7/4
f 1563/8/4 1564/8/4 1568/8/4
f 1567/7/4 1563/7/4 1568/7/4
f 1568/8/4 1564/8/4 1569/8/4
f 1567/8/4 1568/8/4 1570/8/4
f 1570/8/4 1568/8/4 1571/8/4
f 1572/4/4 1573/4/4 1581/4/4
f 1581/4/4 1573/4/4 1582/4/4
f 1578/11/4 1579/11/4 1584/11/4
f 1584/11/4 1579/11/4 1585/11/4
f 1582/11/4 1583/11/4 1586/11/4
f 1580/11/4 1581/11/4 1586/11/4
f 1581/11/4 1582/11/4 1586/11/4
f 1586/11/4 1583/11/4 1587/11/4
f 1576/11/4 1577/11/4 1588/11/4
f 1588/11/4 1577/11/4 1589/11/4
f 1585/11/4 1579/11/4 1590/11/4
f 1580/11/4 1586/11/4 1592/11/4
f 1592/11/4 1586/11/4 1593/11/4
f 1574/3/4 1575/3/4 1594/3/4
f 1590/11/4 1591/11/4 1595/11/4
f 1594/3/4 1575/3/4 1599/3/4
f 1595/11/4 1596/11/4 1602/11/4
f 1585/11/4 1590/11/4 1602/11/4
f 1590/11/4 1595/11/4 1602/11/4
f 1597/11/4 1598/11/4 1603/11/4
f 1603/11/4 1598/11/4 1604/11/4
f 1604/11/4 1598/11/4 1605/11/4
f 1600/10/4 1601/10/4 1606/10/4
f 1601/11/4 1602/11/4 1607/11/4
f 1606/10/4 1601/10/4 1607/10/4
f 1602/11/4 1596/11/4 1608/11/4
f 1607/11/4 1602/11/4 1608/11/4
f 1608/11/4 1596/11/4 1609/11/4
f 1609/11/4 1596/11/4 1610/11/4
f 1610/11/4 1596/11/4 1611/11/4
f 1610/13/4 1611/13/4 1614/13/4
f 1614/13/4 1611/13/4 1615/13/4
f 1612/2/4 1613/2/4 1616/2/4
f 1616/2/4 1613/2/4 1617/2/4
f 1599/3/4 1575/3/4 1618/3/4
f 1618/3/4 1575/3/4 1619/3/4
f 1620/6/4 1621/6/4 1622/6/4
f 1622/6/4 1621/6/4 1623/6/4
f 1624/2/4 1625/2/4 1630/2/4
f 1630/2/4 1625/2/4 1631/2/4
f 1626/2/4 1627/2/4 1632/2/4
f 1632/2/4 1627/2/4 1633/2/4
f 1628/11/4 1629/11/4 1634/11/4
f 1634/11/4 1635/11/4 1638/11/4
f 1628/11/4 1634/11/4 1638/11/4
f 1638/11/4 1635/11/4 1639/11/4
f 1636/11/4 1637/11/4 1641/11/4
f 1639/11/4 1635/11/4 1642/11/4
f 1642/11/4 1635/11/4 1643/11/4
f 1640/11/4 1641/11/4 1644/11/4
f 1641/11/4 1637/11/4 1644/11/4
f 1644/11/4 1637/11/4 1645/11/4
f 1643/11/4 1635/11/4 1646/11/4
f 1646/11/4 1635/11/4 1647/11/4
f 1640/11/4 1644/11/4 1648/11/4
f 1640/11/4 1648/11/4 1651/11/4
f 1648/11/4 1649/11/4 1651/11/4
f 1651/11/4 1649/11/4 1652/11/4
f 1652/11/4 1649/11/4 1653/11/4
f 1649/2/4 1650/2/4 1654/2/4
f 1653/11/4 1649/11/4 1654/11/4
f 1654/2/4 1650/2/4 1655/2/4
f 1655/2/4 1650/2/4 1656/2/4
f 1657/6/4 1658/6/4 1659/6/4
f 1659/6/4 1658/6/4 1660/6/4
f 1661/2/4 1662/2/4 1663/2/4
f 1663/2/4 1662/2/4 1664/2/4
f 1665/11/4 1666/11/4 1667/11/4
f 1667/11/4 1666/11/4 1668/11/4
f 1670/11/4 1671/11/4 1672/11/4
f 1669/10/4 1670/10/4 1674/10/4
f 1672/11/4 1673/11/4 1675/11/4
f 1674/10/4 1670/10/4 1675/10/4
f 1670/11/4 1672/11/4 1675/11/4
f 1675/11/4 1673/11/4 1676/11/4
f 1676/11/4 1677/11/4 1680/11/4
f 1680/11/4 1677/11/4 1681/11/4
f 1678/11/4 1679/11/4 1683/11/4
f 1683/11/4 1679/11/4 1684/11/4
f 1684/11/4 1679/11/4 1685/11/4
f 1682/8/4 1683/8/4 1687/8/4
f 1683/8/4 1684/8/4 1687/8/4
f 1687/8/4 1684/8/4 1688/8/4
f 1688/8/4 1684/8/4 1689/8/4
f 1686/8/4 1687/8/4 1690/8/4
f 1687/8/4 1688/8/4 1690/8/4
f 1690/8/4 1688/8/4 1691/8/4
f 1686/8/4 1690/8/4 1692/8/4
f 1692/8/4 1690/8/4 1693/8/4
f 1694/8/4 1695/8/4 1696/8/4
f 1696/8/4 1695/8/4 1697/8/4
f 1698/11/4 1699/11/4 1700/11/4
f 1700/11/4 1699/11/4 1701/11/4
f 1701/11/4 1699/11/4 1702/11/4
f 1701/13/4 1702/13/4 1703/13/4
f 1703/13/4 1702/13/4 1704/13/4
f 1705/6/4 1706/6/4 1707/6/4
f 1707/6/4 1706/6/4 1708/6/4
f 1709/6/4 1710/6/4 1711/6/4
f 1711/6/4 1710/6/4 1712/6/4
f 1713/11/4 1714/11/4 1715/11/4
f 1715/11/4 1714/11/4 1716/11/4
f 1717/11/4 1718/11/4 1719/11/4
f 1719/11/4 1718/11/4 1720/11/4
f 1726/11/5 1722/11/5 1721/11/5
f 1727/11/5 1722/11/5 1726/11/5
f 1730/11/5 1724/11/5 1723/11/5
f 1732/3/5 1726/3/5 1725/3/5
f 1732/3/5 1727/3/5 1726/3/5
f 1733/3/5 1727/3/5 1732/3/5
f 1734/3/5 1727/3/5 1733/3/5
f 1735/3/5 1727/3/5 1734/3/5
f 1736/3/5 1729/3/5 1728/3/5
f 1737/11/5 1730/11/5 1729/11/5
f 1737/3/5 1729/3/5 1736/3/5
f 1738/3/5 1736/3/5 1735/3/5
f 1738/11/5 1737/11/5 1736/11/5
f 1739/11/5 1730/11/5 1737/11/5
f 1739/11/5 1737/11/5 1738/11/5
f 1739/11/5 1724/11/5 1730/11/5
f 1740/3/5 1732/3/5 1731/3/5
f 1740/3/5 1733/3/5 1732/3/5
f 1740/13/5 1734/13/5 1733/13/5
f 1741/12/5 1735/12/5 1734/12/5
f 1741/13/5 1734/13/5 1740/13/5
f 1742/3/5 1738/3/5 1735/3/5
f 1742/12/5 1735/12/5 1741/12/5
f 1745/3/5 1741/3/5 1740/3/5
f 1745/3/5 1742/3/5 1741/3/5
f 1745/3/5 1738/3/5 1742/3/5
f 1746/3/5 1738/3/5 1745/3/5
f 1749/3/5 1745/3/5 1740/3/5
f 1751/11/5 1748/11/5 1747/11/5
f 1752/3/5 1750/3/5 1749/3/5
f 1752/11/5 1751/11/5 1750/11/5
f 1753/11/5 1748/11/5 1751/11/5
f 1753/11/5 1751/11/5 1752/11/5
f 1754/11/5 1748/11/5 1753/11/5
f 1755/11/5 1744/11/5 1743/11/5
f 1756/3/5 1740/3/5 1731/3/5
f 1756/3/5 1752/3/5 1749/3/5
f 1756/3/5 1749/3/5 1740/3/5
f 1757/11/5 1755/11/5 1743/11/5
f 1757/11/5 1756/11/5 1755/11/5
f 1758/3/5 1752/3/5 1756/3/5
f 1758/11/5 1756/11/5 1757/11/5
f 1759/2/5 1753/2/5 1752/2/5
f 1759/3/5 1752/3/5 1758/3/5
f 1760/2/5 1753/2/5 1759/2/5
f 1761/3/5 1759/3/5 1758/3/5
f 1761/3/5 1760/3/5 1759/3/5
f 1762/3/5 1760/3/5 1761/3/5
f 1763/3/5 1760/3/5 1762/3/5
f 1764/3/5 1760/3/5 1763/3/5
f 1765/3/5 1760/3/5 1764/3/5
f 1766/11/5 1748/11/5 1754/11/5
f 1768/11/5 1766/11/5 1754/11/5
f 1768/11/5 1767/11/5 1766/11/5
f 1769/11/5 1767/11/5 1768/11/5
f 1771/6/5 1763/6/5 1762/6/5
f 1772/6/5 1771/6/5 1770/6/5
f 1773/11/5 1764/11/5 1763/11/5
f 1773/6/5 1771/6/5 1772/6/5
f 1773/6/5 1763/6/5 1771/6/5
f 1774/11/5 1773/11/5 1772/11/5
f 1775/11/5 1764/11/5 1773/11/5
f 1775/11/5 1773/11/5 1774/11/5
f 1776/11/5 1774/11/5 1772/11/5
f 1777/11/5 1774/11/5 1776/11/5
f 1780/2/5 1779/2/5 1778/2/5
f 1781/2/5 1779/2/5 1780/2/5
f 1784/3/5 1783/3/5 1782/3/5
f 1785/3/5 1783/3/5 1784/3/5
f 1788/3/5 1787/3/5 1786/3/5
f 1789/3/5 1787/3/5 1788/3/5
f 1792/8/5 1791/8/5 1790/8/5
f 1793/8/5 1791/8/5 1792/8/5
f 1798/10/5 1795/10/5 1794/10/5
f 1799/10/5 1795/10/5 1798/10/5
f 1800/8/5 1797/8/5 1796/8/5
f 1801/8/5 1797/8/5 1800/8/5
f 1805/2/5 1803/2/5 1802/2/5
f 1805/11/5 1804/11/5 1803/11/5
f 1806/11/5 1804/11/5 1805/11/5
f 1809/2/5 1805/2/5 1802/2/5
f 1810/2/5 1805/2/5 1809/2/5
f 1811/11/5 1804/11/5 1806/11/5
f 1812/11/5 1804/11/5 1811/11/5
f 1813/11/5 1804/11/5 1812/11/5
f 1814/11/5 1808/11/5 1807/11/5
f 1815/11/5 1808/11/5 1814/11/5
f 1817/11/5 1816/11/5 1815/11/5
f 1817/11/5 1815/11/5 1814/11/5
f 1818/11/5 1816/11/5 1817/11/5
f 1819/11/5 1816/11/5 1818/11/5
f 1820/11/5 1818/11/5 1817/11/5
f 1821/11/5 1818/11/5 1820/11/5
f 1825/2/5 1823/2/5 1822/2/5
f 1826/2/5 1823/2/5 1825/2/5
f 1827/2/5 1825/2/5 1824/2/5
f 1828/2/5 1825/2/5 1827/2/5
f 1829/2/5 1823/2/5 1826/2/5
f 1830/2/5 1823/2/5 1829/2/5
f 1833/11/5 1832/11/5 1831/11/5
f 1834/11/5 1832/11/5 1833/11/5
f 1837/3/5 1836/3/5 1835/3/5
f 1838/3/5 1836/3/5 1837/3/5
f 1841/13/5 1840/13/5 1839/13/5
f 1842/13/5 1840/13/5 1841/13/5
f 1845/13/5 1844/13/5 1843/13/5
f 1846/13/5 1844/13/5 1845/13/5
f 1849/2/5 1848/2/5 1847/2/5
f 1850/2/5 1848/2/5 1849/2/5
f 1855/2/5 1852/2/5 1851/2/5
f 1856/2/5 1852/2/5 1855/2/5
f 1857/2/5 1854/2/5 1853/2/5
f 1858/2/5 1854/2/5 1857/2/5
f 1861/11/5 1860/11/5 1859/11/5
f 1862/11/5 1860/11/5 1861/11/5
f 1865/10/5 1864/10/5 1863/10/5
f 1866/10/5 1864/10/5 1865/10/5
f 1869/10/5 1868/10/5 1867/10/5
f 1870/10/5 1868/10/5 1869/10/5
f 1876/2/5 1872/2/5 1871/2/5
f 1877/2/5 1872/2/5 1876/2/5
f 1878/2/5 1874/2/5 1873/2/5
f 1879/2/5 1874/2/5 1878/2/5
f 1881/2/5 1879/2/5 1878/2/5
f 1881/2/5 1880/2/5 1879/2/5
f 1881/2/5 1878/2/5 1877/2/5
f 1881/2/5 1877/2/5 1876/2/5
f 1881/2/5 1876/2/5 1875/2/5
f 1882/2/5 1880/2/5 1881/2/5
f 1885/10/5 1884/10/5 1883/10/5
f 1886/10/5 1884/10/5 1885/10/5
f 1889/2/5 1888/2/5 1887/2/5
f 1890/2/5 1888/2/5 1889/2/5
f 1893/11/5 1892/11/5 1891/11/5
f 1894/11/5 1892/11/5 1893/11/5
f 1897/11/5 1896/11/5 1895/11/5
f 1898/11/5 1897/11/5 1895/11/5
f 1899/11/5 1897/11/5 1898/11/5
f 1902/11/5 1901/11/5 1900/11/5
f 1903/11/5 1901/11/5 1902/11/5
f 1907/11/5 1904/11/5 1903/11/5
f 1908/11/5 1904/11/5 1907/11/5
f 1909/11/5 1906/11/5 1905/11/5
f 1909/11/5 1907/11/5 1906/11/5
f 1910/11/5 1907/11/5 1909/11/5
f 1913/3/5 1912/3/5 1911/3/5
f 1914/3/5 1912/3/5 1913/3/5
f 1917/7/5 1916/7/5 1915/7/5
f 1918/7/5 1916/7/5 1917/7/5
f 1919/11/5 1918/11/5 1917/11/5
f 1920/11/5 1918/11/5 1919/11/5
f 1924/11/5 1922/11/5 1921/11/5
f 1925/11/5 1922/11/5 1924/11/5
f 1926/11/5 1924/11/5 1923/11/5
f 1927/11/5 1924/11/5 1926/11/5
f 1930/11/5 1929/11/5 1928/11/5
f 1931/11/5 1929/11/5 1930/11/5
f 1932/11/5 1929/11/5 1931/11/5
f 1933/11/5 1929/11/5 1932/11/5
f 1936/11/5 1935/11/5 1934/11/5
f 1937/11/5 1935/11/5 1936/11/5
f 1941/11/5 1939/11/5 1938/11/5
f 1942/11/5 1939/11/5 1941/11/5
f 1943/11/5 1941/11/5 1940/11/5
f 1944/11/5 1941/11/5 1943/11/5
f 1947/10/5 1946/10/5 1945/10/5
f 1949/10/5 1947/10/5 1945/10/5
f 1949/10/5 1948/10/5 1947/10/5
f 1950/10/5 1948/10/5 1949/10/5
f 1951/10/5 1949/10/5 1945/10/5
f 1952/10/5 1949/10/5 1951/10/5
f 1957/11/5 1954/11/5 1953/11/5
f 1958/11/5 1954/11/5 1957/11/5
f 1960/11/5 1957/11/5 1956/11/5
f 1960/11/5 1959/11/5 1958/11/5
f 1960/11/5 1958/11/5 1957/11/5
f 1962/13/5 1956/13/5 1955/13/5
f 1963/11/5 1961/11/5 1960/11/5
f 1963/13/5 1956/13/5 1962/13/5
f 1963/11/5 1960/11/5 1956/11/5
f 1964/11/5 1961/11/5 1963/11/5
f 1965/11/5 1961/11/5 1964/11/5
f 1966/11/5 1961/11/5 1965/11/5
f 1968/11/5 1964/11/5 1963/11/5
f 1969/11/5 1964/11/5 1968/11/5
f 1970/13/5 1967/13/5 1966/13/5
f 1971/13/5 1967/13/5 1970/13/5
f 1975/11/5 1973/11/5 1972/11/5
f 1976/11/5 1975/11/5 1974/11/5
f 1977/11/5 1975/11/5 1976/11/5
f 1978/11/5 1975/11/5 1977/11/5
f 1979/11/5 1973/11/5 1975/11/5
f 1979/11/5 1975/11/5 1978/11/5
f 1982/11/5 1981/11/5 1980/11/5
f 1983/11/5 1981/11/5 1982/11/5
f 1986/11/5 1985/11/5 1984/11/5
f 1987/11/5 1985/11/5 1986/11/5
f 1990/11/5 1989/11/5 1988/11/5
f 1991/11/5 1989/11/5 1990/11/5
f 1994/11/5 1993/11/5 1992/11/5
f 1995/11/5 1993/11/5 1994/11/5
f 1998/9/5 1997/9/5 1996/9/5
f 1999/9/5 1997/9/5 1998/9/5
f 2002/8/5 2001/8/5 2000/8/5
f 2003/8/5 2001/8/5 2002/8/5
f 2006/11/5 2005/11/5 2004/11/5
f 2007/11/5 2005/11/5 2006/11/5
f 2010/11/5 2009/11/5 2008/11/5
f 2011/11/5 2009/11/5 2010/11/5
f 2014/11/5 2013/11/5 2012/11/5
f 2016/11/5 2014/11/5 2012/11/5
f 2016/10/5 2015/10/5 2014/10/5
f 2017/10/5 2015/10/5 2016/10/5
f 2018/11/5 2016/11/5 2012/11/5
f 2019/11/5 2016/11/5 2018/11/5
f 2023/7/5 2021/7/5 2020/7/5
f 2024/8/5 2022/8/5 2021/8/5
f 2024/7/5 2021/7/5 2023/7/5
f 2025/8/5 2022/8/5 2024/8/5
f 2028/7/5 2027/7/5 2026/7/5
f 2029/7/5 2027/7/5 2028/7/5
f 2032/7/5 2031/7/5 2030/7/5
f 2033/7/5 2031/7/5 2032/7/5
f 2036/11/5 2035/11/5 2034/11/5
f 2037/11/5 2035/11/5 2036/11/5
f 2040/11/5 2039/11/5 2038/11/5
f 2041/11/5 2039/11/5 2040/11/5
f 2045/11/5 2043/11/5 2042/11/5
f 2046/11/5 2045/11/5 2044/11/5
f 2047/11/5 2045/11/5 2046/11/5
f 2048/11/5 2043/11/5 2045/11/5
f 2048/11/5 2045/11/5 2047/11/5
f 2049/11/5 2043/11/5 2048/11/5
f 2050/11/5 2043/11/5 2049/11/5
f 2051/11/5 2049/11/5 2048/11/5
f 2052/11/5 2049/11/5 2051/11/5
f 2055/8/5 2054/8/5 2053/8/5
f 2056/8/5 2054/8/5 2055/8/5
f 2058/8/5 2055/8/5 2053/8/5
f 2059/8/5 2055/8/5 2058/8/5
f 2062/11/5 2058/11/5 2057/11/5
f 2062/11/5 2060/11/5 2059/11/5
f 2062/11/5 2059/11/5 2058/11/5
f 2063/11/5 2060/11/5 2062/11/5
f 2065/11/5 2062/11/5 2061/11/5
f 2066/11/5 2062/11/5 2065/11/5
f 2067/11/5 2064/11/5 2063/11/5
f 2068/11/5 2064/11/5 2067/11/5
f 2071/11/5 2070/11/5 2069/11/5
f 2072/11/5 2070/11/5 2071/11/5
f 2075/13/5 2074/13/5 2073/13/5
f 2076/13/5 2074/13/5 2075/13/5
f 2079/13/5 2078/13/5 2077/13/5
f 2080/13/5 2078/13/5 2079/13/5
f 2085/13/5 2082/13/5 2081/13/5
f 2086/13/5 2082/13/5 2085/13/5
f 2087/13/5 2084/13/5 2083/13/5
f 2088/13/5 2084/13/5 2087/13/5
f 2089/11/6 2090/11/6 2093/11/6
f 2093/11/6 2090/11/6 2094/11/6
f 2091/11/6 2092/11/6 2097/11/6
f 2095/3/6 2096/3/6 2098/3/6
f 2096/11/6 2097/11/6 2099/11/6
f 2098/3/6 2096/3/6 2099/3/6
f 2097/11/6 2092/11/6 2100/11/6
f 2099/11/6 2097/11/6 2100/11/6
f 2100/11/6 2101/11/6 2102/11/6
f 2102/11/6 2101/11/6 2103/11/6
f 2106/11/6 2107/11/6 2109/11/6
f 2109/11/6 2107/11/6 2110/11/6
f 2108/11/6 2109/11/6 2111/11/6
f 2111/11/6 2109/11/6 2112/11/6
f 2104/11/6 2105/11/6 2113/11/6
f 2113/11/6 2114/11/6 2115/11/6
f 2104/11/6 2113/11/6 2117/11/6
f 2115/11/6 2116/11/6 2117/11/6
f 2113/11/6 2115/11/6 2117/11/6
f 2117/11/6 2116/11/6 2118/11/6
f 2112/11/6 2109/11/6 2121/11/6
f 2121/11/6 2122/11/6 2123/11/6
f 2121/11/6 2123/11/6 2125/11/6
f 2123/11/6 2124/11/6 2125/11/6
f 2112/11/6 2121/11/6 2125/11/6
f 2125/11/6 2124/11/6 2126/11/6
f 2119/11/6 2120/11/6 2128/11/6
f 2127/6/6 2128/6/6 2130/6/6
f 2128/11/6 2120/11/6 2131/11/6
f 2130/6/6 2128/6/6 2131/6/6
f 2129/11/6 2130/11/6 2132/11/6
f 2130/11/6 2131/11/6 2132/11/6
f 2131/11/6 2120/11/6 2133/11/6
f 2132/11/6 2131/11/6 2133/11/6
f 2129/11/6 2132/11/6 2134/11/6
f 2134/11/6 2132/11/6 2135/11/6
f 2136/6/6 2137/6/6 2140/6/6
f 2140/6/6 2137/6/6 2141/6/6
f 2138/6/6 2139/6/6 2143/6/6
f 2143/6/6 2139/6/6 2144/6/6
f 2142/6/6 2143/6/6 2145/6/6
f 2145/6/6 2143/6/6 2146/6/6
f 2149/6/6 2150/6/6 2151/6/6
f 2151/6/6 2150/6/6 2152/6/6
f 2147/6/6 2148/6/6 2154/6/6
f 2154/6/6 2148/6/6 2155/6/6
f 2155/6/6 2156/6/6 2157/6/6
f 2157/6/6 2156/6/6 2158/6/6
f 2152/6/6 2153/6/6 2161/6/6
f 2161/6/6 2153/6/6 2162/6/6
f 2162/6/6 2163/6/6 2164/6/6
f 2164/6/6 2163/6/6 2165/6/6
f 2159/6/6 2160/6/6 2167/6/6
f 2167/6/6 2160/6/6 2168/6/6
f 2166/6/6 2167/6/6 2169/6/6
f 2169/6/6 2167/6/6 2170/6/6
f 2171/3/6 2172/3/6 2173/3/6
f 2173/3/6 2172/3/6 2174/3/6
f 2175/3/6 2176/3/6 2177/3/6
f 2177/3/6 2176/3/6 2178/3/6
f 2179/3/6 2180/3/6 2181/3/6
f 2181/3/6 2180/3/6 2182/3/6
f 2183/3/6 2184/3/6 2185/3/6
f 2185/3/6 2184/3/6 2186/3/6
f 2187/8/6 2188/8/6 2189/8/6
f 2189/8/6 2188/8/6 2190/8/6
f 2191/8/6 2192/8/6 2193/8/6
f 2193/8/6 2192/8/6 2194/8/6
f 2195/2/6 2196/2/6 2201/2/6
f 2201/2/6 2196/2/6 2202/2/6
f 2197/11/6 2198/11/6 2203/11/6
f 2203/11/6 2198/11/6 2204/11/6
f 2199/11/6 2200/11/6 2205/11/6
f 2205/11/6 2200/11/6 2206/11/6
f 2207/8/6 2208/8/6 2209/8/6
f 2209/8/6 2208/8/6 2210/8/6
f 2211/11/6 2212/11/6 2214/11/6
f 2212/11/6 2213/11/6 2214/11/6
f 2214/11/6 2213/11/6 2215/11/6
f 2216/2/6 2217/2/6 2218/2/6
f 2218/2/6 2217/2/6 2219/2/6
f 2220/11/6 2221/11/6 2224/11/6
f 2221/13/6 2222/13/6 2225/13/6
f 2224/11/6 2221/11/6 2225/11/6
f 2225/13/6 2222/13/6 2226/13/6
f 2223/11/6 2224/11/6 2227/11/6
f 2227/11/6 2224/11/6 2228/11/6
f 2225/11/6 2226/11/6 2229/11/6
f 2229/11/6 2226/11/6 2230/11/6
f 2228/11/6 2229/11/6 2231/11/6
f 2229/13/6 2230/13/6 2232/13/6
f 2231/11/6 2229/11/6 2232/11/6
f 2232/13/6 2230/13/6 2233/13/6
f 2234/11/6 2235/11/6 2236/11/6
f 2236/11/6 2235/11/6 2237/11/6
f 2238/11/6 2239/11/6 2240/11/6
f 2240/11/6 2239/11/6 2241/11/6
f 2242/3/6 2243/3/6 2244/3/6
f 2244/3/6 2243/3/6 2245/3/6
f 2246/3/6 2247/3/6 2248/3/6
f 2248/3/6 2247/3/6 2249/3/6
f 2250/3/6 2251/3/6 2252/3/6
f 2252/3/6 2251/3/6 2253/3/6
f 2254/2/6 2255/2/6 2258/2/6
f 2255/11/6 2256/11/6 2258/11/6
f 2256/2/6 2257/2/6 2259/2/6
f 2258/11/6 2256/11/6 2259/11/6
f 2254/2/6 2258/2/6 2260/2/6
f 2258/2/6 2259/2/6 2260/2/6
f 2259/2/6 2257/2/6 2261/2/6
f 2260/2/6 2259/2/6 2261/2/6
f 2262/10/6 2263/10/6 2264/10/6
f 2264/10/6 2263/10/6 2265/10/6
f 2266/2/6 2267/2/6 2270/2/6
f 2267/11/6 2268/11/6 2271/11/6
f 2270/2/6 2267/2/6 2271/2/6
f 2268/2/6 2269/2/6 2272/2/6
f 2271/11/6 2268/11/6 2272/11/6
f 2266/2/6 2270/2/6 2273/2/6
f 2273/2/6 2270/2/6 2274/2/6
f 2272/2/6 2269/2/6 2275/2/6
f 2275/2/6 2269/2/6 2276/2/6
f 2276/3/6 2277/3/6 2278/3/6
f 2278/3/6 2277/3/6 2279/3/6
f 2278/2/6 2279/2/6 2280/2/6
f 2280/2/6 2279/2/6 2281/2/6
f 2282/3/6 2283/3/6 2284/3/6
f 2284/3/6 2283/3/6 2285/3/6
f 2286/3/6 2287/3/6 2288/3/6
f 2288/3/6 2287/3/6 2289/3/6
f 2290/2/6 2291/2/6 2292/2/6
f 2292/2/6 2291/2/6 2293/2/6
f 2294/3/6 2295/3/6 2296/3/6
f 2296/3/6 2295/3/6 2297/3/6
f 2298/3/6 2299/3/6 2301/3/6
f 2301/3/6 2299/3/6 2302/3/6
f 2300/4/6 2301/4/6 2304/4/6
f 2302/4/6 2303/4/6 2304/4/6
f 2301/4/6 2302/4/6 2304/4/6
f 2304/4/6 2303/4/6 2305/4/6
f 2305/4/6 2303/4/6 2306/4/6
f 2300/4/6 2304/4/6 2307/4/6
f 2307/4/6 2304/4/6 2308/4/6
f 2305/3/6 2306/3/6 2309/3/6
f 2309/3/6 2306/3/6 2310/3/6
f 2311/3/6 2312/3/6 2313/3/6
f 2313/3/6 2312/3/6 2314/3/6
f 2315/3/6 2316/3/6 2319/3/6
f 2317/3/6 2318/3/6 2323/3/6
f 2323/3/6 2318/3/6 2324/3/6
f 2324/3/6 2318/3/6 2325/3/6
f 2315/3/6 2319/3/6 2327/3/6
f 2319/4/6 2320/4/6 2328/4/6
f 2327/3/6 2319/3/6 2328/3/6
f 2328/4/6 2320/4/6 2329/4/6
f 2321/3/6 2322/3/6 2330/3/6
f 2329/4/6 2320/4/6 2330/4/6
f 2320/3/6 2321/3/6 2330/3/6
f 2322/3/6 2323/3/6 2330/3/6
f 2330/3/6 2323/3/6 2331/3/6
f 2324/2/6 2325/2/6 2332/2/6
f 2332/2/6 2325/2/6 2333/2/6
f 2326/11/6 2327/11/6 2334/11/6
f 2334/11/6 2327/11/6 2335/11/6
f 2330/3/6 2331/3/6 2336/3/6
f 2331/3/6 2332/3/6 2336/3/6
f 2329/3/6 2330/3/6 2336/3/6
f 2336/3/6 2332/3/6 2337/3/6
f 2338/11/6 2339/11/6 2340/11/6
f 2340/11/6 2339/11/6 2341/11/6
f 2342/4/6 2343/4/6 2346/4/6
f 2346/4/6 2343/4/6 2347/4/6
f 2344/4/6 2345/4/6 2348/4/6
f 2348/4/6 2345/4/6 2349/4/6
f 2350/3/6 2351/3/6 2352/3/6
f 2352/3/6 2351/3/6 2353/3/6
f 2354/3/6 2355/3/6 2358/3/6
f 2358/3/6 2355/3/6 2359/3/6
f 2356/11/6 2357/11/6 2360/11/6
f 2360/11/6 2357/11/6 2361/11/6
f 2362/4/6 2363/4/6 2369/4/6
f 2369/4/6 2363/4/6 2370/4/6
f 2364/4/6 2365/4/6 2371/4/6
f 2371/4/6 2365/4/6 2372/4/6
f 2366/4/6 2367/4/6 2373/4/6
f 2373/4/6 2367/4/6 2374/4/6
f 2369/3/6 2370/3/6 2375/3/6
f 2368/3/6 2369/3/6 2375/3/6
f 2370/3/6 2371/3/6 2375/3/6
f 2375/3/6 2376/3/6 2379/3/6
f 2377/4/6 2378/4/6 2380/4/6
f 2380/4/6 2378/4/6 2381/4/6
f 2379/3/6 2380/3/6 2381/3/6
f 2381/4/6 2378/4/6 2382/4/6
f 2379/3/6 2381/3/6 2383/3/6
f 2383/3/6 2381/3/6 2384/3/6
f 2379/3/6 2383/3/6 2385/3/6
f 2368/3/6 2375/3/6 2386/3/6
f 2375/3/6 2379/3/6 2386/3/6
f 2379/3/6 2385/3/6 2386/3/6
f 2386/3/6 2385/3/6 2387/3/6
f 2387/3/6 2385/3/6 2388/3/6
f 2388/3/6 2385/3/6 2389/3/6
f 2387/3/6 2388/3/6 2390/3/6
f 2390/3/6 2388/3/6 2391/3/6
f 2391/3/6 2388/3/6 2392/3/6
f 2388/4/6 2389/4/6 2393/4/6
f 2392/3/6 2388/3/6 2393/3/6
f 2393/4/6 2389/4/6 2394/4/6
f 2391/11/6 2392/11/6 2395/11/6
f 2395/11/6 2392/11/6 2396/11/6
f 2397/11/6 2398/11/6 2401/11/6
f 2401/11/6 2398/11/6 2402/11/6
f 2399/13/6 2400/13/6 2403/13/6
f 2400/11/6 2401/11/6 2403/11/6
f 2403/11/6 2401/11/6 2404/11/6
f 2399/13/6 2403/13/6 2405/13/6
f 2405/13/6 2403/13/6 2406/13/6
f 2408/13/6 2409/13/6 2410/13/6
f 2407/11/6 2408/11/6 2410/11/6
f 2410/13/6 2409/13/6 2411/13/6
f 2407/11/6 2410/11/6 2413/11/6
f 2413/11/6 2410/11/6 2414/11/6
f 2412/11/6 2413/11/6 2415/11/6
f 2415/11/6 2413/11/6 2416/11/6
f 2417/11/6 2418/11/6 2420/11/6
f 2420/11/6 2418/11/6 2421/11/6
f 2419/11/6 2420/11/6 2423/11/6
f 2421/11/6 2422/11/6 2426/11/6
f 2426/11/6 2422/11/6 2427/11/6
f 2423/11/6 2424/11/6 2428/11/6
f 2419/11/6 2423/11/6 2428/11/6
f 2428/11/6 2424/11/6 2429/11/6
f 2429/11/6 2424/11/6 2430/11/6
f 2425/11/6 2426/11/6 2431/11/6
f 2429/11/6 2430/11/6 2432/11/6
f 2430/11/6 2431/11/6 2432/11/6
f 2431/11/6 2426/11/6 2433/11/6
f 2432/11/6 2431/11/6 2433/11/6
f 2434/11/6 2435/11/6 2436/11/6
f 2436/11/6 2435/11/6 2437/11/6
f 2438/11/6 2439/11/6 2440/11/6
f 2440/11/6 2439/11/6 2441/11/6
f 2441/11/6 2439/11/6 2442/11/6
f 2442/11/6 2439/11/6 2443/11/6
f 2441/11/6 2442/11/6 2444/11/6
f 2444/11/6 2442/11/6 2445/11/6
f 2446/11/6 2447/11/6 2448/11/6
f 2446/11/6 2448/11/6 2450/11/6
f 2448/9/6 2449/9/6 2450/9/6
f 2450/9/6 2449/9/6 2451/9/6
f 2446/11/6 2450/11/6 2452/11/6
f 2452/11/6 2450/11/6 2453/11/6
f 2454/8/6 2455/8/6 2456/8/6
f 2456/8/6 2455/8/6 2457/8/6
f 2458/11/6 2459/11/6 2460/11/6
f 2460/11/6 2459/11/6 2461/11/6
f 2461/11/6 2459/11/6 2463/11/6
f 2462/11/6 2463/11/6 2464/11/6
f 2463/11/6 2459/11/6 2465/11/6
f 2464/11/6 2463/11/6 2465/11/6
f 2466/11/6 2467/11/6 2468/11/6
f 2468/11/6 2467/11/6 2469/11/6
f 2469/11/6 2467/11/6 2470/11/6
f 2470/11/6 2467/11/6 2471/11/6
f 2471/11/6 2467/11/6 2472/11/6
f 2473/8/6 2474/8/6 2475/8/6
f 2475/8/6 2474/8/6 2476/8/6
f 2477/7/6 2478/7/6 2480/7/6
f 2478/8/6 2479/8/6 2481/8/6
f 2480/7/6 2478/7/6 2481/7/6
f 2481/8/6 2479/8/6 2482/8/6
f 2483/11/6 2484/11/6 2485/11/6
f 2485/11/6 2484/11/6 2486/11/6
f 2487/8/6 2488/8/6 2489/8/6
f 2489/8/6 2488/8/6 2490/8/6
f 2491/11/6 2492/11/6 2493/11/6
f 2493/11/6 2492/11/6 2494/11/6
f 2495/11/6 2496/11/6 2498/11/6
f 2497/11/6 2498/11/6 2499/11/6
f 2498/11/6 2496/11/6 2500/11/6
f 2499/11/6 2498/11/6 2500/11/6
f 2501/11/6 2502/11/6 2505/11/6
f 2505/11/6 2502/11/6 2506/11/6
f 2503/11/6 2504/11/6 2507/11/6
f 2507/11/6 2504/11/6 2508/11/6
f 2509/11/6 2510/11/6 2511/11/6
f 2511/11/6 2510/11/6 2512/11/6
f 2513/8/6 2514/8/6 2515/8/6
f 2515/8/6 2514/8/6 2516/8/6
f 2513/8/6 2515/8/6 2517/8/6
f 2517/8/6 2515/8/6 2518/8/6
f 2519/11/6 2520/11/6 2521/11/6
f 2519/11/6 2521/11/6 2522/11/6
f 2519/11/6 2522/11/6 2524/11/6
f 2522/11/6 2523/11/6 2524/11/6
f 2524/11/6 2523/11/6 2525/11/6
f 2526/11/6 2527/11/6 2529/11/6
f 2527/13/6 2528/13/6 2529/13/6
f 2529/13/6 2528/13/6 2530/13/6
f 2526/11/6 2529/11/6 2531/11/6
f 2526/11/6 2531/11/6 2533/11/6
f 2531/13/6 2532/13/6 2534/13/6
f 2533/11/6 2531/11/6 2534/11/6
f 2534/13/6 2532/13/6 2535/13/6
f 2536/13/6 2537/13/6 2540/13/6
f 2537/11/6 2538/11/6 2541/11/6
f 2540/13/6 2537/13/6 2541/13/6
f 2538/13/6 2539/13/6 2542/13/6
f 2541/11/6 2538/11/6 2542/11/6
f 2542/13/6 2539/13/6 2543/13/6
f 2540/11/6 2541/11/6 2544/11/6
f 2544/11/6 2541/11/6 2545/11/6
f 2542/11/6 2543/11/6 2548/11/6
f 2548/11/6 2543/11/6 2549/11/6
f 2546/11/6 2547/11/6 2550/11/6
f 2547/11/6 2548/11/6 2550/11/6
f 2550/11/6 2548/11/6 2551/11/6
f 2546/11/6 2550/11/6 2552/11/6
f 2552/11/6 2550/11/6 2553/11/6
f 2554/11/6 2555/11/6 2557/11/6
f 2556/11/6 2557/11/6 2558/11/6
f 2557/11/6 2555/11/6 2559/11/6
f 2558/11/6 2557/11/6 2559/11/6
