[gd_scene load_steps=7 format=2]

[ext_resource path="res://components/maze/maze.tscn" type="PackedScene" id=1]
[ext_resource path="res://components/world/world.gd" type="Script" id=2]
[ext_resource path="res://assets/ui/world_baclground.png" type="Texture" id=3]
[ext_resource path="res://assets/music/stage2.mp3" type="AudioStream" id=4]
[ext_resource path="res://assets/music/stage3.mp3" type="AudioStream" id=5]
[ext_resource path="res://assets/music/stage1.mp3" type="AudioStream" id=6]

[node name="World" type="Node2D"]
script = ExtResource( 2 )

[node name="CanvasLayer" type="CanvasLayer" parent="."]
layer = -100

[node name="WorldBackground" type="TextureRect" parent="CanvasLayer"]
margin_right = 3500.0
margin_bottom = 2000.0
texture = ExtResource( 3 )
stretch_mode = 2

[node name="Maze" parent="." instance=ExtResource( 1 )]

[node name="Traps" type="Node2D" parent="."]

[node name="Monsters" type="Node2D" parent="."]

[node name="Adventurers" type="Node2D" parent="."]

[node name="Camera" type="Camera2D" parent="."]
offset = Vector2( 4400, 1000 )
current = true
zoom = Vector2( 5, 5 )

[node name="SpawnTimer" type="Timer" parent="."]
wait_time = 10.0
one_shot = true
autostart = true

[node name="MusicStage1" type="AudioStreamPlayer" parent="."]
stream = ExtResource( 6 )
autoplay = true

[node name="MusicStage2" type="AudioStreamPlayer" parent="."]
stream = ExtResource( 4 )
volume_db = -80.0
autoplay = true

[node name="MusicStage3" type="AudioStreamPlayer" parent="."]
stream = ExtResource( 5 )
volume_db = -80.0
autoplay = true
